time,cds,temprature,relative_humidity,pressure,altitude,altvel
1628749135.7949233,683,28.8041015625,68.30984839831734,1008.2369673903585,41.54549934740985,0.2834433531421051
1628749136.1403115,685,28.956640625,68.48560258924817,1008.2655471266081,41.24825068712859,-0.055137703970770564
1628749136.483457,684,28.9515625,68.57760237980897,1008.2697389851347,41.49885828231883,0.1214944278650143
1628749136.8249564,686,28.956640625,68.41675010283966,1008.2534276566101,41.797436560056646,0.3850591435067167
1628749137.1673305,685,28.9619140625,68.42314579382666,1008.2661615925397,41.414521377371855,-0.10190433836634316
1628749137.5109088,686,28.9873046875,68.51515298449985,1008.2532660798305,41.620938302276166,0.14232754173241796
1628749137.8531642,684,28.9771484375,68.6836230952969,1008.2583919631473,41.314543337650726,-0.2244079540500381
1628749138.2057936,676,28.9873046875,68.39999127813816,1008.3006402344178,41.485934832767505,0.0324891762116185
1628749138.552593,675,28.9974609375,68.47645948674666,1008.3060719308418,41.22238810240891,-0.2506034296969352
1628749138.8807414,684,29.0076171875,68.4761553482319,1008.2335351125978,41.06273391212084,-0.34444297383653616
1628749139.2264018,674,29.0025390625,68.63336458903451,1008.2902257981634,41.56517632153748,0.3106535142245042
time,cds,temprature,relative_humidity,pressure,altitude,altvel
1628749139.6335957,674,28.956640625,68.53373718549895,1008.2894529703973,41.3509324023159,-0.019198397652591643
1628749139.977175,676,28.9771484375,68.43593779741641,1008.2655315998745,41.41843348765034,0.05577688992102092
1628749140.3161464,732,28.9822265625,68.47554704008408,1008.2416102434643,41.76122524726834,0.3985807876093956
1628749140.6538079,733,28.9873046875,68.46488191111497,1008.2787329948837,41.13806232816027,-0.40447209553277824
1628749141.0016692,729,28.9974609375,68.51789439843252,1008.2931751245566,41.843009233537764,0.47400895408609317
1628749141.3454866,711,29.0177734375,68.61995273181257,1008.2911616402603,41.71837567890324,0.17796712256455133
1628749141.6927629,681,28.9923828125,68.66687116708056,1008.2711255163663,41.674157767915695,0.06745360721520212
1628749142.0395644,654,29.0025390625,68.39541561915209,1008.2809096221619,41.506677376822935,-0.12966471551569111
1628749142.378032,631,29.0025390625,68.44172664011262,1008.2984640137227,41.32236686936318,-0.28034767531074195
1628749189.2811258,647,29.2822265625,68.3264307010895,1008.344734387302,40.902305241016485,-0.004506830978723509
1628749189.625637,646,29.373828125,68.33187021996346,1008.3444681786283,40.65628127645669,-0.6495896260269867
1628749189.9655933,646,29.4044921875,68.4904282874634,1008.3574741831912,40.84371671943642,-0.22493311685336656
1628749190.3044617,645,29.4197265625,68.39252880903692,1008.3282091913236,40.82710008241824,-0.16242047288045428
1628749190.648086,645,29.4451171875,68.4047221270996,1008.3316288957122,41.07405893011394,0.15467545358168408
1628749190.9877343,645,29.4451171875,68.41112111826642,1008.3775963404167,40.807895901619325,-0.18029706809554033
1628749191.3309665,645,29.4552734375,68.41691588104706,1008.3222339717427,40.87704999671362,-0.042315571406063714
1628749191.6686459,646,29.4806640625,68.37146258454067,1008.3906313765485,42.1678833345848,1.3419026658750812
1628749192.00778,646,29.4755859375,68.41812471071691,1008.3752419504079,40.71983136474048,-0.6726458694719697
1628749192.3537285,646,29.4755859375,68.36265087911123,1008.3674466847841,40.67864779424261,-0.46529269731991296
1628749192.6946418,647,29.4857421875,68.30893199411265,1008.3970681788455,41.01768191711811,0.053100295603168875
1628749193.0861797,647,29.4705078125,68.2436692034191,1008.3723743152491,40.723826949682696,-0.2392044467680431
1628749193.4327452,648,29.4755859375,68.3775593504869,1008.3792143841453,41.021682787150375,0.13447465591905583
1628749193.856707,650,29.4908203125,68.2772374419635,1008.359650739816,41.038269123662154,0.08499237733412862
1628749194.1929893,650,29.4806640625,68.3025232695943,1008.3398840037487,40.835870805796866,-0.14627276984217027
1628749194.538257,651,29.4958984375,68.17623393774828,1008.3433040353121,40.89704415499015,-0.02863671681899236
1628749194.8813822,652,29.50625,68.36139171904013,1008.3491869410329,40.76611669692228,-0.1545917335036692
1628749195.2266805,652,29.51640625,68.15974423110983,1008.3836621087132,41.1417597951222,0.290810209543519
1628749195.564612,652,29.51640625,68.11367469035659,1008.3753848060637,40.95994436248196,-0.002055034601454886
1628749195.9039383,652,29.541796875,68.28815531171469,1008.3389926810341,40.986262468080106,0.026479481327773523
1628749196.2445736,652,29.53671875,68.46233214165862,1008.3015780975907,41.33560354189862,0.3842388993019335
1628749196.5812402,652,29.53671875,68.10847573430807,1008.2942582501869,41.1618071529713,0.06461072016259652
1628749196.9752612,652,29.50625,68.11917208148677,1008.3135486721966,40.95767385609238,-0.15018013375549483
1628749197.3185835,652,29.5265625,68.30614468450895,1008.3599936786643,41.33560354189862,0.283756806752174
1628749197.66007,652,29.53671875,68.45043828135005,1008.2925481551495,41.22299885352715,0.06494657058465213
1628749198.0047913,652,29.55703125,68.09228033736844,1008.3177201409893,41.22926874290653,0.04780560112798111
1628749198.3537164,653,29.546875,68.34122200359101,1008.3013696711912,41.11892322279485,-0.08298688764084478
1628749198.70815,653,29.511328125,68.1157650916618,1008.3265420053087,40.807613723679154,-0.3670915454378684
1628749199.0535393,653,29.562109375,68.15663997350977,1008.3729875484029,40.99202723398821,-0.05046869859822128
1628749199.3911157,653,29.55703125,68.16823311050382,1008.3605363031639,41.04519274799246,0.023286107428018326
1628749199.7298281,652,29.57734375,68.19721577793206,1008.3417240387346,40.98092510754589,-0.053081625763701255
1628749200.0760536,652,29.5671875,68.22739735632885,1008.317031341118,41.16498894584038,0.1576800468788403
1628749200.4183989,653,29.562109375,68.27347048146903,1008.3491448612273,41.35968419458988,0.3046619930346132
1628749200.81609,653,29.55703125,68.27196886526553,1008.3272924063521,40.94429889144185,-0.20530401249020197
1628749201.1692114,653,29.57734375,68.30824973618675,1008.3383036279579,40.63783967512407,-0.4592967998215144
1628749201.5137177,653,29.5875,68.13494733045493,1008.3413427663991,40.91748659215553,-0.011312600482807035
1628749201.8587754,653,29.592578125,68.21060629000333,1008.3457243674928,40.85226678590553,-0.07496161586707124
1628749202.1985648,653,29.59765625,68.04828982494243,1008.3271797428956,40.88264158349459,-0.0168274902658918
1628749202.5412111,653,29.592578125,68.28687753212166,1008.3518724361764,41.05419227586282,0.16865668871843728
1628749202.8836515,653,29.602734375,68.11296473971738,1008.3176661546837,40.85405006786996,-0.10108499396099471
1628749203.2291021,653,29.612890625,68.10196680119489,1008.3467414921129,41.5558023790809,0.6634800809548922
1628749203.5757124,653,29.6232421875,68.0784791310206,1008.3782758360212,40.86209517681002,-0.29266550549238624
1628749203.919702,653,29.6181640625,68.02630241491941,1008.393188050565,40.85182310404967,-0.1999460584552879
1628749204.3559952,653,29.6232421875,68.07907516061174,1008.3726637695513,41.46251104811485,0.40029986188648775
1628749204.8985796,653,29.55703125,68.12186032244956,1008.3576960968255,40.83797151198184,-0.20581282476208881
1628749205.2380233,654,29.6078125,68.0897756870374,1008.3565224400023,40.67402334961779,-0.3841373200024945
1628749205.5772877,653,29.6283203125,68.14924194759598,1008.3235448967488,40.99881086277707,0.09631493805956232
1628749205.9245281,653,29.6486328125,68.07357559291692,1008.3631494297623,40.76382606351902,-0.182135834665899
1628749206.2619095,654,29.6384765625,68.10375625566702,1008.3413959701397,40.92914397831303,0.05527494612535113
1628749206.606805,653,29.6435546875,68.16173356167815,1008.3071886136125,40.99256926979636,0.10059785890579487
1628749206.9500375,653,29.6537109375,67.98779864151898,1008.3651255677444,40.44487959838947,-0.5068032873342432
1628749207.2881882,654,29.6587890625,68.04057504201667,1008.3744246078754,40.58381592891687,-0.18292134520585102
1628749207.6313026,653,29.6486328125,67.99998865622905,1008.3590305497082,40.77590983332238,0.08488031895447479
1628749207.984472,653,29.6587890625,68.26089257984889,1008.2849538473453,41.03325268783992,0.31407797539778765
1628749208.3310995,653,29.6689453125,68.04057504201667,1008.3108741366472,41.01895570080413,0.19045191940589884
1628749208.7752786,653,29.6333984375,68.03968255828683,1008.3536343568381,41.229379814099985,0.2650681818283859
1628749209.2064087,653,29.6689453125,67.99969162483167,1008.3306521655212,41.40938452452222,0.3248769903496783
1628749209.5902493,654,29.6486328125,68.01188196689057,1008.3250392696077,40.95956783934142,-0.18571562746400025
1628749209.9343815,653,29.6740234375,67.85071152171795,1008.3553911574822,40.965042929006756,-0.1272516528318885
1628749210.2766602,653,29.6892578125,68.07714999845534,1008.3706136877742,40.979340414853525,-0.0670757082641825
1628749210.6230006,658,29.6892578125,68.06495791035296,1008.346666424147,40.76891463100772,-0.26022301319302926
1628749210.9656122,654,29.6892578125,67.83420070354366,1008.3324994602947,40.92400177476324,-0.006645941102582412
1628749211.3124998,654,29.6791015625,68.09484299161625,1008.3307889290543,40.8462935787177,-0.08446635237872567
1628749211.6555943,654,29.6892578125,68.053658974455,1008.341796824105,40.85655162649882,-0.044093923559928125
1628749212.0124178,654,29.7095703125,67.78780919997193,1008.326401798133,40.936123432511025,0.052683038044679
1628749212.3497005,654,29.6994140625,68.01396172924002,1008.3528046369746,40.52552180836795,-0.40036603788663644
1628749212.7344618,654,29.6791015625,67.94378534370259,1008.2519271997828,40.92182521146795,0.1438121546811094
1628749213.0840454,654,29.7146484375,68.18242700213858,1008.3151717552239,40.66850073137897,-0.15807015621242218
1628749213.428191,654,29.7197265625,68.0841511918363,1008.3723654379953,40.56219894626039,-0.21362307344808473
1628749213.7723997,654,29.730078125,67.89888663965411,1008.2742530204464,40.62343407413106,-0.07337763992156013
1628749214.128052,654,29.730078125,67.85278966895316,1008.3735927715502,40.83791022406858,0.1704729125264593
1628749214.4713347,654,29.730078125,67.71360768657983,1008.3092075589439,40.983061062949446,0.26482504686201286
1628749214.8110793,654,29.7453125,68.07268175814251,1008.341834085007,40.760209674235035,-0.06327509579857837
1628749215.1499717,654,29.740234375,67.91137217173717,1008.3567462194952,40.8745996900055,0.0802193780137298
1628749215.4887195,654,29.7453125,67.87195930540992,1008.2869710302604,40.86030087139917,0.03637863189184151
1628749215.8332431,654,29.7453125,67.7608848274722,1008.3557783692144,40.82145167508712,-0.017443489404418856
1628749216.1756606,653,29.750390625,67.92965767418069,1008.3425769042148,40.66416525025302,-0.1758249311722761
1628749216.5763829,654,29.7044921875,67.77218948652079,1008.4589033612763,40.71731373245942,-0.0489008841086132
1628749216.9202018,654,29.750390625,67.96415702690477,1008.3489355904152,40.80095070538653,0.050574391058451566
1628749217.316399,654,29.760546875,67.71015679610078,1008.35481005432,40.703015123277794,-0.06037616682822934
1628749217.6663547,654,29.7453125,67.8371622015935,1008.3489355904152,40.88674546692811,0.14425568527385044
1628749218.0096574,654,29.765625,67.75134375276188,1008.3491935166721,41.05833704632753,0.2733991178021441
1628749218.3643239,653,29.765625,67.7519316342908,1008.3418660338524,40.976592163086195,0.08728501621242106
1628749218.7038887,654,29.75546875,67.87923573760533,1008.3448028992511,40.91465910730339,-0.006852281631290947
1628749219.0383542,654,29.780859375,67.8215319417124,1008.3284361877226,41.17205640615453,0.27116628331640363
1628749219.3863509,654,29.801171875,67.59010952652456,1008.307906730519,40.78596277140034,-0.23017760736216714
1628749219.7288575,654,29.791015625,67.83893179327649,1008.3404117092246,40.912525682911145,-0.017699799979556913
1628749220.071115,654,29.79609375,67.89142628514871,1008.3500168219836,41.098427493102285,0.18322600160219057
1628749220.4586465,654,29.77578125,67.90764322026676,1008.3140091926787,41.05552678972459,0.06418658413199586
1628749220.7982423,654,29.791015625,67.92652142103097,1008.3465951880015,41.122969889891486,0.11815436210110275
1628749221.149941,654,29.821484375,67.5442883823989,1008.3316830315553,41.059585336486556,0.00864915221467846
1628749221.5053456,654,29.811328125,67.75861365356711,1008.3331632767398,41.11678678703147,0.06315292217026539
1628749221.8445942,654,29.811328125,67.73019943973577,1008.3263198493198,40.951185172212895,-0.13242368990213244
1628749222.1874688,654,29.811328125,67.81751096673314,1008.3510116284124,40.77957758592302,-0.2633835274420693
1628749222.5303845,654,29.81640625,67.6492961355677,1008.3348741337752,40.683535487912756,-0.26934926926160446
1628749222.8682961,653,29.811328125,67.91611574527069,1008.3165403600224,41.071766813201926,0.23619747512515055
1628749223.211649,654,29.821484375,67.52197054079902,1008.3549189691387,41.139208395581,0.2195448079489964
1628749223.6680963,654,29.811328125,67.66669806038415,1008.3158004951573,41.022869079265625,0.014669842600416703
1628749224.1857293,654,29.79609375,67.64811398051691,1008.2821868791926,40.790701351940086,-0.15234810920381267
1628749224.6682434,654,29.780859375,67.64085004875075,1008.357345080784,41.28713008395451,0.2637442231270637
1628749225.029293,654,29.80625,67.52226180491193,1008.3331632767398,40.912345978027716,-0.14868399006895713
1628749225.3701737,654,29.81640625,67.59796613618175,1008.3082395297017,40.959312775981466,-0.04868073509270289
1628749225.7135186,655,29.8318359375,67.59128906858291,1008.2912841408283,40.955248487678844,-0.03590927087554627
1628749226.0521555,654,29.8318359375,67.44307895143872,1008.3080055603552,41.07778746616193,0.10627278646616552
1628749226.3868978,654,29.8419921875,67.57968753501427,1008.3309859440908,41.14719853084276,0.14327971755295804
1628749226.7300189,654,29.8470703125,67.55852576891412,1008.3608106088215,40.889771250233856,-0.17908532026595028
1628749227.0692594,654,29.8419921875,67.53006366019619,1008.2930936373415,41.15743050472485,0.16642644476213048
1628749227.416655,654,29.8521484375,67.47730701026781,1008.3527421283738,41.00628143019751,-0.05157868887765612
1628749227.760382,655,29.8623046875,67.32153206898151,1008.2857633824262,40.84477284333104,-0.2017919343779056
1628749228.1031926,654,29.8623046875,67.48978222003201,1008.3001885803643,41.255454594920394,0.29933897061459336
1628749228.4922643,654,29.8318359375,67.4892006238941,1008.3441872304335,40.48107362921404,-0.5438016368094563
1628749228.838747,655,29.8623046875,67.39753507614164,1008.3581264009134,40.81209995863091,-0.04959238388456778
1628749229.1819806,655,29.8775390625,67.56114970644391,1008.3674190092736,40.58673206777196,-0.26736105301686974
1628749229.5230215,654,29.8927734375,67.6705048482961,1008.3615484423453,40.859074476857174,0.11341285300256305
1628749229.8635292,654,29.8826171875,67.29890177417775,1008.3444382380734,40.957102744719506,0.17602885456303904
1628749230.206166,655,29.8826171875,67.57709660786873,1008.3490844494875,41.055227653894505,0.21485767724916685
1628749230.551666,654,29.8826171875,67.49703793147918,1008.3820806970023,40.709897925468454,-0.2213450084578435
1628749230.8953495,655,29.8775390625,67.31688549182313,1008.3762243960373,40.71396956994717,-0.1385455063137354
1628749231.2413664,655,29.8927734375,67.41610027236621,1008.3490844494875,40.52952526929285,-0.27928369339991277
1628749231.579087,654,29.8927734375,67.39811451858021,1008.3737763237749,40.6377841260987,-0.06878661261967685
1628749231.927756,655,29.8978515625,67.40884893749438,1008.3967574710915,40.82986436115131,0.15460463523372722
1628749232.3259704,655,29.8826171875,67.30499250424536,1008.3485818958277,40.624088242991576,-0.0982577562067035
1628749232.6724603,655,29.8876953125,67.32906760654677,1008.4109330069988,40.6377841260987,-0.05830660369439192
1628749233.009933,655,29.8927734375,67.38186644770092,1008.3591135081012,40.684765503865435,0.011456942057081317
1628749233.35232,654,29.9029296875,67.44715301945332,1008.3520920753483,40.54174437602537,-0.14240499641311175
1628749233.6964338,655,29.9130859375,67.22577634385586,1008.3544675030107,40.596879447440195,-0.03352696919328812
1628749234.0360205,655,29.9130859375,67.3067244323541,1008.3442010561881,40.71129950280237,0.09890603952353108
1628749234.3882952,655,29.9181640625,67.22693815354427,1008.3579614612727,40.596879447440195,-0.055176325474917964
1628749234.732661,655,29.9333984375,67.08128907182129,1008.3212922473223,41.00349746965547,0.38679742454081156
1628749235.07743,655,29.9130859375,67.42248224708364,1008.3254500127887,40.67861637838423,-0.08965557873468417
1628749235.4146087,655,29.9181640625,67.23274110194838,1008.3195811464511,40.5130784450294,-0.2347192418439929
1628749235.7570975,654,29.9232421875,67.20952924821361,1008.3743450419418,40.95036591703968,0.3091222286283409
1628749236.1466453,654,29.9029296875,67.145122284704,1008.3677406349738,40.36189433046705,-0.36679347845252885
1628749236.484879,655,29.9232421875,67.31920670344267,1008.3520994741368,40.44156482255715,-0.18670761729950425
1628749236.8234158,655,29.9384765625,67.25624077903153,1008.3909690422767,40.684713081997195,0.13760504409171037
1628749237.1629946,655,29.94375,67.40189102054387,1008.3508764687706,40.527381226670734,-0.07794833716966452
1628749237.5054886,655,29.95390625,67.12334282309916,1008.4127268839735,41.52104667228512,0.9898101181365077
1628749237.8479476,655,29.95390625,67.23969513613525,1008.3939033945114,40.64180416558468,-0.284543488019469
1628749238.1915202,655,29.95390625,67.23940737774514,1008.370680618369,40.82160945756022,0.0054795154066208645
1628749238.545326,655,29.958984375,67.1529329023427,1008.4078398812511,40.58662270353366,-0.2345387855284148
1628749238.9671917,655,29.94375,67.20022166260452,1008.3579676661667,40.74192523724974,0.005704563952595946
1628749239.3952851,655,29.9384765625,67.39057474756926,1008.348677080173,40.80527615559905,0.056168564337208834
1628749239.739439,655,29.94375,67.22837635018149,1008.3882814878443,40.77869931463603,0.017512403234789302
1628749240.1209779,655,29.94375,67.23998288415169,1008.330832932408,40.835912876634836,0.06385885427628132
1628749240.4600258,655,29.97421875,67.17672049237301,1008.3616356943957,40.75213537027765,-0.042407710870487995
1628749240.8069866,655,29.979296875,67.1087950255532,1008.3455005296634,39.936851426745456,-0.8684099029084072
1628749241.1457825,654,29.984375,67.11431278459456,1008.3611469134418,39.9960955293953,-0.5080824290110858
1628749241.4924703,654,29.969140625,67.09081098982486,1008.4349779930338,40.17386593281422,-0.1349340919313315
1628749241.835324,660,29.99453125,67.35691308401816,1008.3296083866326,41.569564560801254,1.3708501130973647
1628749242.1738873,663,29.984375,67.41581400257914,1008.2594432961181,42.123383079252235,1.4773270147946114
1628749242.518529,662,29.99453125,67.1793031637752,1008.2235051260458,42.04165023054481,0.8459015756282408
1628749242.8699079,663,29.99453125,66.98662388853255,1008.2315713505793,42.15760940119175,0.650796926483853
1628749243.2146788,662,30.009765625,67.11983039379376,1008.196123684513,42.11318017282404,0.37949189368464653
1628749243.5524077,662,30.009765625,66.92886604757017,1008.1777897505738,42.1903274413199,0.3304426902386751
1628749243.9463894,662,29.97421875,67.04352293550177,1008.1638598835494,42.619996206472365,0.5725108981055677
1628749244.2935414,661,29.99453125,67.19033718872282,1008.1218071850549,42.26185952844547,0.047358898586992056
1628749244.6322541,662,30.0046875,67.04495036166335,1008.2139670772426,42.051370059065725,-0.1914842201151166
1628749244.9752302,662,30.01484375,66.86063034489342,1008.1538881544376,42.106612037398946,-0.06365335468447235
1628749245.3240929,662,30.01484375,67.01621478946882,1008.1887875090546,42.433538481661,0.29564732442227265
1628749245.677796,663,30.01484375,66.85978028993918,1008.1917193075275,42.106612037398946,-0.14401350323969958
1628749246.020703,664,30.019921875,66.96454537541477,1008.1969104189948,42.517402597187036,0.33383432046940187
1628749246.3597198,662,30.025,67.17349907964474,1008.17637336774,42.206759483644404,-0.11158487985580708
1628749246.7004287,663,30.019921875,67.1793031637752,1008.1797962088935,42.27829394564292,0.003965554299948606
1628749247.0445576,663,30.0046875,66.80753879298555,1008.0821920038285,42.713591727716725,0.45569167894498
1628749247.3879576,663,30.025,66.90069581920433,1008.0763841287285,42.89762613608502,0.4850344093630441
1628749247.7765462,664,30.0046875,66.69172515551135,1008.0626930175637,43.25728264296102,0.6066730926670478
1628749248.1307702,665,30.009765625,66.95874092042136,1008.0120773321676,43.92978054099432,1.107269940890477
1628749248.4744062,664,30.019921875,67.04724468008459,1007.9663623386273,44.23439730121056,1.0513312470901521
1628749248.8282442,665,30.01484375,66.81277772441794,1007.9291555985805,44.47573830642167,0.8976801448187886
1628749249.168463,666,30.040234375,66.88414380110005,1007.928942353879,44.3755681108109,0.49440414269868865
1628749249.5148249,666,29.94375,66.72769272972407,1007.6894081851609,44.96229254915097,0.9185217970390681
1628749249.8582568,665,30.030078125,67.01822137591265,1007.8279676871311,45.60215573058186,1.2619537844198845
1628749250.2031271,667,30.040234375,66.61682158949412,1007.7050143763694,46.098926550509695,1.322553035098393
1628749250.540603,666,30.019921875,66.56429451613234,1007.7115904170371,46.043941124951125,0.8089417245011883
1628749250.8833008,666,30.03515625,66.79068994030675,1007.6521863366593,46.278961640021805,0.7569113377281322
1628749251.231376,667,30.030078125,66.55906001179102,1007.6145352916941,47.117425640973394,1.3412657121046576
1628749251.6294277,667,30.0046875,66.62787041724276,1007.5544137871714,47.4258751464544,1.0302898546794343
1628749251.9730566,668,30.025,66.71522649289498,1007.4945159810394,48.11295410467566,1.482202932488859
1628749252.3124175,668,30.025,66.59940600178945,1007.4500205251933,48.517932338163895,1.3906493297470468
1628749252.6561747,668,30.030078125,66.45399378650802,1007.3834955540198,48.87165486772996,1.2497104740254756
1628749252.9996457,669,30.025,66.39041191264405,1007.3463429187957,49.70199261780689,1.6687157305288296
1628749253.3431685,669,30.009765625,66.65109046239424,1007.3062663092516,49.60177603355811,0.9662231182165519
1628749253.7464132,669,30.025,66.5819903238708,1007.2925754581245,49.71213846714209,0.6261195899523344
1628749254.16387,669,30.03515625,66.59304004881585,1007.2515029324805,50.01279173642925,0.646395397296892
1628749254.5666912,669,30.01484375,66.54659899627389,1007.2840186785176,49.836817859808534,0.2732912524214841
1628749254.905532,669,30.01484375,66.46588349894519,1007.2624851174576,49.63875250866835,-0.0009208868393538181
1628749255.24717,670,30.0453125,66.51813206633851,1007.2808116487457,49.84336523394634,0.21397849007121406
1628749255.6294668,672,30.01484375,66.22702308983875,1007.3069810720795,49.31781137385934,-0.36979238620223165
1628749255.9821,670,30.03515625,66.45539845150626,1007.3025611913971,49.761637094287956,0.1936305933444484
1628749256.322203,670,30.0556640625,66.62928492101528,1007.3030598061537,50.39579600691339,0.7968493849591461
1628749256.6607487,671,30.0453125,66.5485685297142,1007.2477960852852,49.831438596174955,-0.08349282578535928
1628749257.005367,673,30.0556640625,66.55961990884344,1007.3096219067168,49.75389114698695,-0.13325679680943908
1628749257.3511817,672,30.0453125,66.59585409876786,1007.2587776910614,49.61249879295175,-0.2316919930704878
1628749257.698578,671,30.0759765625,66.48029520461445,1007.3425682933574,49.80698241400811,0.05255049856380184
1628749258.041198,673,30.0658203125,66.34536543161718,1007.2915089820387,49.99311501824548,0.22882340907068852
1628749258.3881018,674,30.0708984375,66.50296095313195,1007.2963568920262,49.99729669434383,0.1493484897951831
1628749258.728506,673,30.0759765625,66.34039177250898,1007.286587455195,49.85234530984239,-0.05488016041315171
1628749259.0681472,670,30.0810546875,66.44573716112056,1007.245511033319,49.74793534074791,-0.14542983912109678
1628749259.457928,671,30.0556640625,66.59473291679804,1007.2406643442574,49.739573345461174,-0.08901034941664902
1628749259.8030741,670,30.0708984375,66.41614956055464,1007.2956446206648,49.26949117051392,-0.5524349877007784
1628749260.143856,670,30.0810546875,66.55052679093237,1007.3037026432586,49.20208308832334,-0.4300488280541124
1628749260.4880161,671,30.0810546875,66.62075999970654,1007.2606257231961,49.639990542474294,0.1825989044065211
1628749260.8411822,672,30.1115234375,66.42859688785252,1007.2780298638727,49.61311951331061,0.08696399836126789
1628749261.1945431,672,30.1064453125,66.42915357829129,1007.2999918879204,49.63162093896553,0.07453760577700799
1628749261.53783,674,30.1013671875,66.290073370796,1007.2862993045509,49.713177365376296,0.13434718516777658
1628749261.879933,673,30.1013671875,66.19163324352715,1007.2452215821864,49.612947157570275,-0.018447099771888874
1628749262.2223372,673,30.1166015625,66.3652823446343,1007.2613363833958,49.856364999696574,0.2428610235676334
1628749262.5661495,674,30.1166015625,66.44243699883833,1007.3234747609649,49.95659747998127,0.2596570905448614
1628749262.9097674,673,30.1267578125,66.21596459813284,1007.240296411909,49.91189277167649,0.12011992722946362
1628749263.3010504,674,30.1115234375,66.33624956462185,1007.2965890713281,49.592684658366345,-0.22457306581548137
1628749263.6562355,675,30.1267578125,66.27403589856935,1007.2743379161993,49.60944542125171,-0.1418552292339582
1628749264.0023654,675,30.1318359375,66.49497667407543,1007.2745469649828,50.07359955884966,0.38699922142196974
1628749264.3513687,676,30.1318359375,66.2508074987342,1007.2850252980985,49.867194290051074,0.03443139693036197
1628749264.6902199,677,30.1470703125,66.34428538188523,1007.2586407465147,49.93286412259094,0.0921894072508443
1628749265.0331478,676,30.1470703125,66.32741821315355,1007.2473677264086,49.71806825451072,-0.1659377522084287
1628749265.371039,677,30.1470703125,66.28123642492248,1007.2737520761762,49.43587348072097,-0.4072783704286263
1628749265.718021,676,30.1267578125,66.27487605902685,1007.3278180356548,50.570037397984756,0.9164893218788838
1628749266.0701382,677,30.157421875,66.24113655235323,1007.3360838929328,49.72226366593627,-0.2829904068997904
1628749266.4156232,678,30.167578125,66.06663003790833,1007.2590545431353,49.81657738710224,-0.08728317532956086
1628749266.7565732,677,30.157421875,66.05611027375807,1007.3069838991431,49.753375249491974,-0.12316755480209719
1628749267.1503882,675,30.157421875,66.32852639081256,1007.3086956629055,49.7348557515155,-0.08528108446409068
1628749267.4933763,676,30.1625,66.11419088337489,1007.2683211579341,50.001023756180004,0.2151831810786277
1628749267.8380413,675,30.187890625,66.33516511454013,1007.2499936665356,50.23856801348509,0.3843288102764244
1628749268.1807287,672,30.177734375,66.31829569151228,1007.2743685145487,49.907481273443324,-0.09806387556285104
1628749268.5416157,674,30.19296875,66.24224072017057,1007.2496960558044,50.2756263849747,0.3117919452351546
1628749268.9599533,671,30.203125,66.09178175663594,1007.2382158698528,50.13832020465172,0.050786261394109564
1628749269.3952734,672,30.187890625,66.17337142483335,1007.218679301689,50.052394256375294,-0.038870238141194204
1628749269.7432694,676,30.17265625,65.94684518369306,1007.2457697334029,49.77268467535092,-0.31914924101170317
1628749270.0871108,678,30.203125,66.14488020931113,1007.2464759249078,49.98750374082123,0.01653774017572825
1628749270.4277947,676,30.208203125,66.15704686283205,1007.1990468676869,50.59485856139258,0.6493410174429595
1628749270.76847,676,30.218359375,66.0118322606712,1007.2483903959416,50.09358431820766,-0.1103898314564065
1628749271.156339,677,30.218359375,65.76204847765506,1007.2956175651849,49.32444192879595,-0.7726556195123331
1628749271.500392,677,30.23359375,65.94267216547355,1007.2848434499884,49.887182418286585,0.026988526775415373
1628749271.8384762,678,30.23359375,65.97807161813276,1007.3019724143086,49.50892268007041,-0.38319977383577913
1628749272.1938672,680,30.23359375,65.93132665198212,1007.3283575191307,49.30252348801409,-0.442120563824742
1628749272.5370405,683,30.24375,65.88568009295115,1007.3389290221002,49.040532541187986,-0.5671004728170683
1628749272.8898566,683,30.25390625,66.07157323802171,1007.372869074372,49.040532541187986,-0.3540844266067531
1628749273.2344248,679,30.258984375,65.87377923207842,1007.2757896730237,49.55441876187486,0.30171385277774837
1628749273.5779967,675,30.2640625,65.76976222961993,1007.243766028951,50.28486430995545,0.9555474750611065
1628749273.922125,675,30.248828125,65.92080809425136,1007.2057984315188,50.02283565364282,0.3396008306691813
1628749274.2657163,678,30.2744140625,65.7927296674699,1007.2363090473071,49.98830588449098,0.18227132059393442
1628749274.6092403,677,30.2640625,66.12495185475636,1007.2915990936218,50.333714657572735,0.47721203584911975
1628749274.9924004,677,30.238671875,65.8978426949289,1007.236414469906,50.31773227224937,0.2596267586473089
1628749275.3475115,676,30.2794921875,65.90946153645582,1007.2612864751022,50.2317939792048,0.09307498253274991
1628749275.6891108,676,30.2640625,65.87015356315518,1007.2436617736363,50.05403916198622,-0.12433078992999406
1628749276.0333378,677,30.2896484375,65.95121733174433,1007.1998508735405,50.798860014466115,0.6960013599948711
1628749276.3738902,677,30.2845703125,65.71882532103288,1007.2233150100075,50.338857040289135,-0.03245641670749214
1628749276.7183552,677,30.2998046875,65.87623502614207,1007.1563475150075,50.84606126265293,0.5067628895754678
1628749277.0610864,677,30.2947265625,65.80678686430709,1007.1743657856506,50.77280812657955,0.25039295934035066
1628749277.4032955,677,30.2998046875,65.87623502614207,1007.0719516808822,51.45778307500882,0.8780498005260572
1628749277.7562737,677,30.2896484375,65.58519264446872,1007.0952195827642,51.803204258586945,0.8968453070344624
1628749278.1000578,677,30.2794921875,65.72436531720798,1007.0519130604567,51.86897504553445,0.6594866374604764
1628749278.446721,678,30.2947265625,65.73652539773879,1007.0553371366686,52.010620059407906,0.5660964518644315
1628749278.8336122,678,30.2744140625,65.74125463117542,1006.9392331500802,52.15548465328535,0.45964994902881634
1628749279.1769233,678,30.2794921875,65.55059911914681,1006.9579425604355,52.64097457387467,0.8390480608745923
1628749279.5213645,677,30.2845703125,65.81178405205007,1006.8904745294155,52.82297612310597,0.7259766005566785
1628749279.8593519,678,30.2845703125,65.61978502075314,1006.887557742343,53.32442545114752,1.0063301065246177
1628749280.208123,678,30.2693359375,65.6615326089542,1006.7848360068442,53.71552781731873,1.0275841010944962
1628749280.5556653,677,30.2896484375,65.71382486345465,1006.7374076624358,54.450546537196374,1.4194303903574994
1628749280.8966894,678,30.2947265625,65.51600444476298,1006.7038620792372,54.7673344162862,1.2611345428040648
1628749281.2434926,679,30.2845703125,65.7603061850246,1006.684705008804,55.029528391152866,1.0666882484139881
1628749281.5918047,676,30.2998046875,65.69058396181187,1006.5869339517302,55.41217096627044,1.0751646917189197
1628749281.929756,677,30.2845703125,65.35330702132494,1006.5492689682187,55.83906012058283,1.1636179805251987
1628749282.2758603,678,30.3150390625,65.59815580535928,1006.4934622170844,56.504095108560065,1.4175803778709342
1628749282.6633832,680,30.2640625,65.52127948781553,1006.4191538398543,57.01149528676574,1.281554045053985
1628749283.0099835,679,30.2896484375,65.52181492151364,1006.3782420069335,57.46438493857422,1.3876751728841334
1628749283.3538067,677,30.2998046875,65.54559263863949,1006.2977744518635,57.87430928197489,1.3258321025800208
1628749283.7549129,676,30.3099609375,65.5057208920348,1006.2155949859903,58.340207450255264,1.144209988062899
1628749284.1852918,676,30.3099609375,65.71463431848468,1006.2298045016651,58.75590597552121,1.0307899841842976
1628749284.5844722,676,30.2794921875,65.49302981475903,1006.1572128084347,59.055501950228,0.9823048123058783
1628749284.9250622,674,30.2998046875,65.46978738768348,1006.0659614447343,60.38447021666607,2.136062269000925
1628749285.2646234,676,30.3099609375,65.45315617126687,1006.0176777833763,60.784525945378235,1.7973497286844313
1628749285.6081657,677,30.3150390625,65.45950090143698,1005.9675118713018,60.93222549199479,1.294100791489322
1628749285.951367,678,30.3048828125,65.52261799424363,1005.9298456746064,60.88956403667536,0.786788026985936
1628749286.2957022,678,30.3302734375,65.26773339820203,1005.8603290327827,61.975029203678666,1.6325786003265244
1628749286.6839604,679,30.3150390625,65.49508497065293,1005.8088034373998,62.595596842088575,1.5021233595312395
1628749287.0237193,677,30.3201171875,65.47085575674399,1005.743904821037,62.763760113785764,1.2783519984816578
1628749287.3792698,679,30.2998046875,65.62828364082075,1005.6560687283186,63.47518473997475,1.5009983095760764
1628749287.7256231,679,30.3302734375,65.44841252287482,1005.5976469876609,63.88982546551523,1.4176596491327575
1628749288.0715642,679,30.3455078125,65.57732748806885,1005.5794875105732,64.27274369085788,1.3074274932542342
1628749288.4123373,678,30.3404296875,65.62327905005925,1005.4870306476166,64.90950723991773,1.5212274432258712
1628749288.756124,677,30.3556640625,65.5192153979685,1005.4563630211156,65.60241339400227,1.6897242401331227
1628749289.096525,676,30.3607421875,65.37420689968351,1005.3632342374443,65.94546247924654,1.4561964283561433
1628749289.4346313,677,30.3658203125,65.31027894051249,1005.3433578775009,66.69270573721234,1.732654854548748
1628749289.7855637,677,30.3556640625,65.31662108011179,1005.2217920898407,66.94414095949031,1.327916649508652
1628749290.1328988,678,30.3607421875,65.28094533359676,1005.1396069751245,67.38454246334666,1.3152752555816405
1628749290.522461,678,30.3505859375,65.40298820630143,1005.1144472763631,68.43200194419802,1.7159682135415801
1628749290.869254,678,30.3658203125,65.47380318325118,1004.9752372455034,69.26870139606177,2.101155424224872
1628749291.2092657,679,30.3658203125,65.4331217292393,1004.942319011714,69.79414726332443,1.9290734621973258
1628749291.5545878,678,30.38125,65.38715998611643,1004.8464340198333,70.4830472615435,1.9336274484343092
1628749291.8975081,678,30.3708984375,65.30605771585387,1004.7608226115751,70.97546036455591,1.7639545829580197
1628749292.2403634,679,30.386328125,65.31715149536345,1004.6591433763742,72.01445611971637,2.21791229213818
1628749292.5880046,681,30.386328125,65.2703909940173,1004.599873653479,72.29604671702077,1.693960030160843
1628749292.931842,679,30.396484375,65.43999958564125,1004.5503468201135,73.34845514773079,2.195625966029112
1628749293.2779672,678,30.396484375,65.23710471434964,1004.4549895909784,73.65542839361207,1.7174347253227429
1628749293.6234095,675,30.396484375,65.27118501512493,1004.4185031594224,74.35791008491506,1.8328581781258622
1628749293.9699638,676,30.4015625,65.3649751183901,1004.315768136633,74.71586042792947,1.542513758222602
1628749294.358467,676,30.3708984375,65.45743530208851,1004.2129138797818,75.6081292384518,1.7058350543149094
1628749294.7028744,676,30.4015625,65.17316768998153,1004.1599538489339,76.2667324921593,1.9199375026155812
1628749295.0419707,677,30.4015625,65.46959274348526,1004.0509028373339,77.00905813015892,2.0356764529690015
1628749295.385836,676,30.41171875,65.36022524541103,1003.9785695998512,77.5583651261747,1.8605740216569593
1628749295.7388132,678,30.421875,65.3544127905324,1003.8917775870309,78.65988870230693,2.2811601453740167
1628749296.0846024,678,30.421875,65.24344569617311,1003.7840132055372,78.85301594135204,1.6944654910184074
1628749296.4285538,678,30.43203125,65.22125154081951,1003.6949740413197,79.78677415437457,2.065803466427563
1628749296.772231,678,30.437109375,65.09944271279406,1003.6725907273134,80.30396752316244,1.8658974483446118
1628749297.1105733,679,30.437109375,65.16338616266115,1003.5961735343802,81.28997903020664,2.26042486337328
1628749297.4545887,679,30.447265625,65.30289492652318,1003.4485038243666,81.80725306354687,1.96531080614243
1628749297.798102,679,30.4421875,65.11740754485254,1003.3919973044765,82.66943188515836,2.1622375863889536
1628749298.1857555,679,30.421875,65.22098755404838,1003.2738475628643,83.48856595637915,1.986675255140859
1628749298.5332046,680,30.4421875,65.02413337732945,1003.1916566413607,84.37962492142529,2.341170068992514
1628749298.944049,680,30.447265625,65.19377921011127,1003.0615213564555,85.08390131234601,1.8852381315115612
1628749299.366488,681,30.447265625,65.10212835650576,1002.9295877534538,86.75081047631488,2.5886742171652783
1628749299.7130332,680,30.447265625,65.16312283425678,1002.8381450046041,88.13754611723053,3.4608039641469244
1628749300.0589905,680,30.467578125,64.9731291323004,1002.7622591946281,88.04457521814524,2.1277048765742355
1628749300.402379,680,30.457421875,65.23552790874328,1002.6498682087338,88.50860381421816,1.8598401516377996
1628749300.7458122,680,30.467578125,65.22310930802746,1002.6298649545043,88.58571958377871,1.2737608732306673
1628749301.0843177,678,30.477734375,64.89781034885264,1002.6916652985539,88.70011157653387,0.9506791217712742
1628749301.4281328,678,30.4830078125,65.21201027205035,1002.53062403841,88.85307231959821,0.7596814738966552
1628749301.7664292,678,30.4931640625,65.08411246483622,1002.5751458538027,89.21715784723983,0.8811933873793609
1628749302.1646976,680,30.4625,65.22363710438046,1002.5300779229912,89.51517025653624,0.7484215066910199
1628749302.5085878,680,30.47265625,65.10762955978898,1002.5563096951687,89.10732266845524,0.13134047846763103
1628749302.8472161,680,30.4931640625,65.10789213601994,1002.5084363417996,89.73485937567506,0.7495281942416656
1628749303.1855044,678,30.5134765625,65.02623717025025,1002.5570038575888,89.10609497144624,-0.18440240915332906
1628749303.5288188,680,30.4982421875,65.05661596802538,1002.5650196849793,89.43225900556045,0.22375399886526764
1628749303.8717923,680,30.5134765625,64.99213792422124,1002.5222082244384,89.44144774810206,0.1533325479203858
1628749304.2246535,680,30.5134765625,64.93955023735846,1002.6101636924411,89.23092856531582,-0.11809716733672311
1628749304.565645,680,30.5134765625,64.96385020691531,1002.4654806364804,89.05836262447899,-0.2597333160854122
1628749304.9089212,680,30.5287109375,64.99344406549073,1002.5810514012405,89.2976375062627,0.08414575988223294
1628749305.2536387,680,30.5185546875,64.86500545554813,1002.5844763755907,89.39830447308225,0.15839655172332068
1628749305.597978,679,30.5185546875,64.82508181575713,1002.5491328111889,89.2544948097201,-0.047859980733610585
1628749305.9952872,679,30.4830078125,65.05106375309524,1002.5153583949475,89.59504506006756,0.28046570793056724
1628749306.4598725,680,30.5185546875,64.8945979644805,1002.4724931865794,89.24132987053467,-0.11884412585339582
1628749306.8867795,679,30.5033203125,64.85207800254773,1002.5352886006159,89.39431294438556,0.04537173776707393
1628749307.225077,678,30.5033203125,64.79019315121859,1002.5754391586794,89.51335359213795,0.16287223549724894
1628749307.5693793,679,30.5439453125,64.79574896020392,1002.5440660791386,90.00174840132807,0.6108569050637498
1628749307.915119,679,30.5490234375,64.70400162979169,1002.503581696403,89.70173821917321,0.07950928361709113
1628749308.2544563,680,30.5490234375,64.94319875865382,1002.5087194327654,89.56712211764597,-0.0901585623185096
1628749308.5990605,680,30.45234375,64.93712327719487,1002.5233450972976,89.66262191252544,0.04231336267963827
1628749308.939774,679,30.5642578125,64.71640611634533,1002.536497979113,89.50845651802996,-0.1346298150040659
1628749309.2747474,682,30.5591796875,64.69895989546981,1002.5234131378297,89.79667002726293,0.22037686522185165
1628749309.6182327,680,30.5845703125,64.90856871961974,1002.5034098374036,90.82269062206946,1.208015152915988
1628749310.006112,680,30.5439453125,64.76292892991418,1002.5718457158688,89.08216419550897,-0.9210766520888561
1628749310.4164443,679,30.5845703125,64.84460173536539,1002.4903241638042,89.87835906006913,0.13636917474793042
1628749310.7524607,678,30.5744140625,64.72222150320842,1002.5331406849074,89.73858027115614,-0.04214877535627381
1628749311.08619,681,30.6,64.77508677253283,1002.5229314515833,90.1315382135833,0.3946000660389351
1628749311.4460485,680,30.5845703125,64.75815731769619,1002.5108760882895,89.88241012428753,-0.013166876109381147
1628749311.7885468,679,30.5896484375,64.77030554296402,1002.4452458823924,89.73858027115614,-0.15932676092598577
1628749312.1309333,681,30.5896484375,64.6963812381927,1002.4875137687407,89.76218373674364,-0.07758169049580822
1628749312.4707649,683,30.605078125,64.427416873887,1002.5023790331844,89.5844258149926,-0.2375566953890099
1628749312.8098242,707,30.605078125,64.47950833930513,1002.4927172018869,90.87384809264853,1.2096302481348054
1628749313.1490245,936,30.6,64.52654917242653,1002.5915069817446,89.11901016814193,-1.077491449594913
1628749313.492683,964,30.594921875,64.50807794534681,1002.7317372707004,88.06171090609205,-1.7846829321805435
1628749313.9746733,919,30.47265625,64.54844526329836,1003.082466573403,84.72382474566612,-3.297735249521582
1628749314.4070754,908,30.426953125,64.47712826086428,1003.3941502219589,82.60260869158037,-4.115319486047942
1628749314.760665,899,30.39140625,64.6034933012031,1003.4345070730444,81.71176103474541,-4.134338337216037
1628749315.1037202,920,30.421875,64.5926373755764,1003.5191456489265,81.24128387666016,-3.225078303915566
1628749315.4553406,902,30.4421875,64.4649888965331,1003.5802507911299,80.64342156201738,-2.6284692939556114
1628749315.8743708,905,30.447265625,64.52492167726152,1003.6492782837565,80.33165540097546,-1.6848165784092268
1628749316.2783892,917,30.416796875,64.59186628922043,1003.7000052115876,80.01648114274518,-1.3965827342677197
1628749316.6216455,896,30.43203125,64.52261588610448,1003.7393869646671,79.46432501000338,-1.6329282994507723
1628749316.96204,897,30.41171875,64.43010473839986,1003.7869027328245,78.82428620819454,-1.7304362383317444
1628749317.2993443,897,30.426953125,64.73268065271522,1003.8347387871016,78.56921729186698,-1.3915285619966247
1628749317.638988,895,30.421875,64.4177113844409,1003.8974481010955,78.21644822412404,-1.2589750038526508
1628749318.0394862,896,30.3607421875,64.54833843345622,1003.9616386387502,77.70129183342013,-1.1460122922036242
1628749318.3784988,895,30.3556640625,64.71821020303058,1003.9987736627569,77.46704142565297,-1.1163632210824264
1628749318.7222302,894,30.3607421875,64.67751961340895,1004.058167398905,76.61877286487983,-1.590696248411351
1628749319.0632756,895,30.3658203125,64.52663521924912,1004.0849127913223,76.2166856579975,-1.4512349780994058
1628749319.4066072,896,30.38125,64.66589364030773,1004.1666844192972,75.63139811392155,-1.5358669706742407
1628749319.7483456,894,30.38125,64.54433165359407,1004.2139751301947,75.484351248685,-1.1443549848039154
1628749320.092989,894,30.376171875,64.52030925441831,1004.2578396648667,75.19272709081287,-1.03135164600145
1628749320.4370203,894,30.3658203125,64.69470021920435,1004.3429179815846,74.65259169516368,-1.225488880655605
1628749320.7798307,896,30.3708984375,64.68307443597466,1004.3427934628482,74.06943448620456,-1.398699088998998
1628749321.122363,896,30.3353515625,64.4851740219185,1004.434592733242,73.68624621699539,-1.29909868163225
1628749321.4688396,893,30.3455078125,64.3911323040781,1004.4676505022101,73.41898097861322,-1.1005854889802469
1628749321.857211,896,30.3201171875,64.5061103972437,1004.4905229679875,72.90328139496955,-1.1058135737089403
1628749322.2108564,897,30.3455078125,64.43763659852068,1004.6031235935878,72.41965558260173,-1.269263356813048
1628749322.556584,897,30.3302734375,64.48362822491951,1004.6263488549193,72.1712252375039,-1.090579176845478
1628749322.9022424,893,30.3302734375,64.53013019732262,1004.6885109752328,71.53856704177313,-1.3557846711322998
1628749323.2446568,897,30.3302734375,64.72775641338964,1004.710324072579,71.08041068226369,-1.3576397875132238
1628749323.5869105,894,30.3150390625,64.77877051819522,1004.8146212885721,70.56749003922421,-1.4085436715372999
1628749323.9289377,895,30.3150390625,64.6564593150858,1004.9550075701085,69.44935178955852,-2.0758020299716864
1628749324.2713082,914,30.2896484375,64.72620375245945,1005.0336162461316,68.17794450049293,-2.6611516526146035
1628749324.6236908,903,30.2998046875,64.56243642886434,1005.1301568377238,67.82363936110247,-2.019421905474564
1628749324.9680831,894,30.3048828125,64.46414285790313,1005.1724360632101,67.41632489845557,-1.7497590509677703
1628749325.3119776,898,30.3099609375,64.7605570147553,1005.300688105248,66.57243504148722,-2.003683637596061
1628749325.701782,892,30.248828125,64.63644410433244,1005.3909587157269,65.63701403490097,-1.9941234321276833
1628749326.0446725,894,30.24375,64.37465257302846,1005.464052033399,65.19804630467274,-1.9134528225162983
1628749326.3879402,896,30.238671875,64.52602420039328,1005.4748412458678,64.71909437553913,-1.7263783336932446
1628749326.7311733,893,30.248828125,64.7003697615766,1005.4988077149281,64.64606111565396,-1.1842823787079668
1628749327.083099,899,30.2640625,64.73575585212144,1005.6266831669498,63.829934566766816,-1.5720626606249797
1628749327.4275615,899,30.24375,64.68240873357854,1005.6612740963296,63.20032901666936,-1.6855084317458986
1628749327.771366,894,30.2234375,64.71042964306052,1005.6830537766215,63.01927431092925,-1.2724394014666822
1628749328.1106355,897,30.218359375,64.72153356696235,1005.7941533280641,62.26938468792075,-1.6192740466033562
1628749328.453539,899,30.21328125,64.77938148729372,1005.794836513924,62.29375125970584,-1.0027352897120752
1628749328.8546934,897,30.21328125,64.64018128527567,1005.8266771830473,61.88228000819831,-0.9175301440735473
1628749329.3065467,896,30.177734375,64.75484173768936,1005.8867576334725,61.23427972374821,-1.036283091910156
1628749329.759857,897,30.1166015625,64.7358549208579,1005.9836360042024,60.691003211788114,-1.0926389858808812
1628749330.1028786,899,30.1625,64.96981811620947,1006.0231814295181,60.06887017167399,-1.5761834764364187
1628749330.44534,896,30.167578125,64.72578982251945,1006.0779561713517,59.58580859941035,-1.518556001516048
1628749330.7895706,895,30.177734375,64.77756365743154,1006.1327309871868,59.2274788104734,-1.3423905792328408
1628749331.141156,896,30.1521484375,64.61487445583829,1006.2537529314443,58.62702411519626,-1.4553124524491527
1628749331.4844275,893,30.157421875,64.69570238107644,1006.2672642575129,58.1110913475388,-1.495387790626705
1628749331.8371859,894,30.1470703125,64.63708348601257,1006.3247681453315,57.53940802107777,-1.5138725708925835
1628749332.1834483,893,30.1470703125,64.86922143869639,1006.3915232546165,57.33183976171025,-1.2047154697103628
1628749332.526651,893,30.1267578125,64.82221286204398,1006.4253798876365,57.06966687945423,-1.0536683686621875
1628749332.8699365,893,30.1216796875,64.72925714980886,1006.4339378435855,56.50502693671438,-1.265286189061858
1628749333.2133887,893,30.1267578125,64.92626197997718,1006.5270620519163,55.89477694617403,-1.4481816059105563
1628749333.6027815,893,30.0810546875,64.94845212572419,1006.6427531021211,55.399194012414675,-1.2756708250414428
1628749333.9465728,893,30.1013671875,64.70420441554228,1006.6965127537972,55.196988091539275,-1.1379379952867004
1628749334.2992253,894,30.1115234375,64.80877196667919,1006.7192680351674,54.410728016438156,-1.51067460153266
1628749334.6451957,894,30.0912109375,64.96137973824958,1006.7860190176891,53.82764375933815,-1.5919854053993154
1628749334.9880984,895,30.0962890625,64.96561720202078,1006.8092772184635,53.713087865218895,-1.1504641623964076
1628749335.333216,895,30.0962890625,64.92469276212309,1006.9107610937504,53.05421976178339,-1.4174908458734152
1628749335.6766133,892,30.0810546875,64.95980824958052,1007.0100299367155,52.033147209736924,-1.9795031215431447
1628749336.019776,894,30.0810546875,65.00627958834836,1007.0961080948708,51.341549960171626,-1.9932452710762827
1628749336.3627126,895,30.0708984375,65.14436952653999,1007.112012949618,51.32303415696256,-1.299309331720672
1628749336.706941,896,30.0658203125,65.1736753544858,1007.1768401179444,50.58016975453505,-1.603833012481002
1628749337.0519626,896,30.0505859375,65.03902951379318,1007.2959302956783,49.91734506656967,-1.7151269795604973
1628749337.440192,892,30.025,64.94557163286382,1007.3086924559248,49.41205870943724,-1.444495508561157
1628749337.7888565,892,30.040234375,65.12641676870291,1007.3658834375497,48.84537189564805,-1.6144388008782855
1628749338.135287,900,30.0453125,65.15413646980693,1007.4788368789241,48.039543234936865,-1.876061163377192
1628749338.4781125,898,30.025,65.35740469312566,1007.5414413318197,47.77356481696877,-1.4945438497760908
1628749338.821062,892,30.03515625,65.02662443000054,1007.59007921207,46.5818152934847,-2.203724079832418
1628749339.1596346,890,30.03515625,65.18844379713512,1007.6920442575818,46.2849845714747,-1.7466163560829895
1628749339.511918,890,30.01484375,65.14092555853355,1007.737530486098,45.70837008092023,-1.6636339949177668
1628749339.8492577,894,30.03515625,65.38509728499677,1007.7751363485684,45.246281327000865,-1.6056550775878942
1628749340.1945844,893,30.009765625,65.26394235741155,1007.8905671507704,44.59213909012206,-1.6852203719559602
1628749340.5380046,891,30.019921875,65.2573384056241,1007.9988789153871,43.71927006250411,-1.9980287552535956
1628749340.8811133,882,30.019921875,65.16996277177834,1008.0700306747619,42.80354931662022,-2.239619808958671
1628749341.2689576,871,29.979296875,65.3256941893921,1008.1636082467086,42.127486218458266,-1.8959238688546416
1628749341.6123993,865,29.99453125,65.34972135652269,1008.2467329550819,41.43211661106242,-2.0994048337978386
1628749341.965503,901,30.01484375,65.09393809863894,1008.293670154372,41.35498702592766,-1.388650964588807
1628749342.3122466,873,29.989453125,65.19741041906927,1008.3034527191746,41.38151969475286,-0.880070753512354
1628749342.665209,866,29.9640625,65.3415155241316,1008.2880513064234,41.508189147048085,-0.4262627246659267
1628749343.0108626,855,29.9029296875,65.28605397184704,1008.3127367436891,41.330448181041135,-0.4635580286516341
1628749343.3545241,855,29.8826171875,65.4361973830797,1008.3087560217148,41.392323702383145,-0.23471270711776118
1628749343.7343686,916,29.8826171875,65.40190013027672,1008.2938440062323,41.61301198973847,0.07220381911868673
1628749344.1564763,922,29.8623046875,65.3488495219744,1008.2581511192775,41.45161122704722,-0.09506232779194097
1628749344.5727837,933,29.8572265625,65.41244083146502,1008.2574145028829,41.882761429721214,0.3089949770050334
1628749344.916109,935,29.8419921875,65.28999619704517,1008.2772087018561,41.623239066698574,-0.03043242952281248
1628749345.3126824,941,29.8419921875,65.6087337422064,1008.2671932301921,41.723356573236586,0.07353737368141584
1628749345.6557071,943,29.8623046875,65.5578377837001,1008.2439757515114,41.41070266511839,-0.2719766977616048
1628749345.994017,946,29.8673828125,65.55310921424615,1008.2911577890143,41.37743551606306,-0.2122615197311428
1628749346.3318722,950,29.8876953125,65.39743128946459,1008.2374483895574,41.557235633847384,0.054280250073163824
1628749346.6760418,946,29.8927734375,65.56498905569383,1008.2808913582213,41.51082136141342,-0.01411273944811085
1628749347.0211265,950,29.8927734375,65.52935015740941,1008.2425126878239,41.557235633847384,0.03914695898749921
1628749347.360511,956,29.8927734375,65.84916742108541,1008.2403137111316,41.60220345550847,0.07301786005711533
1628749347.7037046,953,29.9029296875,65.76789913541512,1008.2540021640061,41.33860657141945,-0.2288350843577323
1628749348.0470703,953,29.8826171875,65.94757418932333,1008.2630452073894,41.5884830435067,0.11393376341517254
1628749348.3902817,952,29.8978515625,65.68082379330167,1008.2393302410544,41.31058490223788,-0.21693097848119727
1628749348.7361183,952,29.8826171875,65.46995616745019,1008.264507784041,41.13080913274449,-0.3243865362082484
1628749349.1356738,950,29.8419921875,65.62560750981585,1008.2322372931211,41.864385288402296,0.47758276209044537
1628749349.4781044,950,29.8572265625,65.62115285933162,1008.297016856809,41.44138295444877,-0.08494793410768903
1628749349.8243709,948,29.8470703125,65.81823844299949,1008.279657017542,41.7438115963934,0.25905878431240337
1628749350.1681454,945,29.8419921875,65.66151588127872,1008.2696273040156,41.57834305016439,-0.0050291087679971485
1628749350.5113091,944,29.8265625,65.94347028893844,1008.2757327648563,41.45172296297911,-0.13542190737359355
1628749350.8545988,944,29.81640625,65.85585924056419,1008.2285489924382,41.62544174421572,0.09442059840100663
1628749351.1981113,943,29.801171875,65.85032826736592,1008.2630182004378,41.43952639363285,-0.13333813260054964
1628749351.5435958,943,29.80625,65.92025580549151,1008.2749941804846,41.60090502874133,0.08226357733000562
1628749351.8864365,943,29.821484375,65.83374492586736,1008.2779298262368,41.77462536889081,0.23473438366548965
1628749352.2319481,943,29.801171875,65.82240934960241,1008.2358781912674,41.756259740361,0.13042748038679125
1628749352.5712764,943,29.811328125,65.98989877514556,1008.2862309792366,41.46000188893678,-0.22755538233359193
1628749352.95896,938,29.7859375,65.74894806206594,1008.2604902310184,41.59960031486226,0.0011838020524846998
1628749353.3029249,944,29.770703125,65.87825465022777,1008.2793087286789,41.81217537692842,0.22225996211004304
1628749353.6464365,943,29.770703125,66.15045053851638,1008.261460936284,41.32317431041718,-0.3671774820102908
1628749353.9979558,940,29.770703125,66.11010641881563,1008.2563287014269,42.12272773849033,0.5846085910227243
1628749354.3407636,939,29.77578125,65.92884295629351,1008.2880919550656,41.52404048456898,-0.2409585660545949
1628749354.6942382,930,29.73515625,66.17863509076108,1008.2744062046851,41.60172847007605,-0.07124752962370748
1628749355.0395539,927,29.7453125,66.17283254558406,1008.2614334450885,41.845050655139595,0.20559188407448614
1628749355.3822775,927,29.725,65.99102791734776,1008.1907836548476,42.01259566624387,0.3081151405429388
1628749355.7248888,930,29.7197265625,66.10320122252018,1008.2039838995499,41.749004536250546,-0.07783774076941927
1628749356.0678337,931,29.730078125,65.984951133871,1008.2215738535316,41.652958661759236,-0.15022954481763692
1628749356.4111583,929,29.7197265625,65.9263796306052,1008.2501695871946,41.7471052150139,0.0019353981824147685
1628749356.7989218,940,29.6841796875,66.26177674785036,1008.2290365137945,41.534784276623036,-0.19506666541004702
1628749357.1511633,940,29.6791015625,65.97059286894506,1008.2732870186701,41.75547561029298,0.08665348915254657
1628749357.50086,938,29.6638671875,66.18000173117923,1008.2498232578401,41.60223405786267,-0.100980820689661
1628749357.8435106,931,29.6791015625,66.23857074406158,1008.2503940421534,41.69828119460151,0.03428648607213769
1628749358.1829681,923,29.6994140625,66.14629761166701,1008.2447788334159,41.79432857558061,0.12357665341934389
1628749358.525678,909,29.7095703125,66.09352959216025,1008.2999993790671,41.5798520102191,-0.14565595358007125
1628749358.9353523,909,29.6740234375,66.2421531012641,1008.256403644617,41.76461356478134,0.08338010689911186
1628749359.346438,911,29.6384765625,66.35817095806968,1008.2664035554833,41.966974895407645,0.22961888670891467
1628749359.7382243,909,29.6283203125,66.19436011659614,1008.2526742993472,41.43797819823233,-0.3291540639081517
1628749360.081101,905,29.6333984375,66.16038513957474,1008.2815331151555,41.488929992383845,-0.1880659014500834
1628749360.4244137,879,29.6333984375,66.51310565086418,1008.2358354949519,41.81373569769133,0.2184588246829934
1628749360.8122761,881,29.6078125,66.57578142155839,1008.2477591775295,41.311523452939404,-0.33975057319532653
1628749361.1651528,896,29.602734375,66.3318931679217,1008.272450606781,41.75069081107348,0.20616934158780187
1628749361.5080526,923,29.6078125,66.4777443385966,1008.2478079505464,41.85259502306864,0.24262318439012784
1628749361.85381,940,29.6181640625,66.66942332961746,1008.2086882495674,41.705590885558514,0.002097815173446702
1628749362.1918197,946,29.612890625,66.51310565086418,1008.2424124369743,41.77084337510674,0.07052309807792495
1628749362.5346274,953,29.6232421875,66.47858481430762,1008.2216703485497,42.0549592715061,0.341551440573657
1628749362.867563,948,29.6283203125,66.50290729478512,1008.229476267477,41.97100901294266,0.13535211335695763
1628749363.2185457,914,29.6283203125,66.51422773529418,1008.298682302292,41.78110822151838,-0.11144211929187174
1628749363.5716472,891,29.6333984375,66.35125541065669,1008.2844718874555,41.57068146824658,-0.28458797202542446
1628749363.9150548,890,29.6333984375,66.28137022864003,1008.2517106510644,41.873125981441866,0.12773868361986374
1628749364.2553825,883,29.59765625,66.4429437706018,1008.2783289666409,41.450461804504904,-0.36220546413975985
1628749364.652409,886,29.5671875,66.5580901628205,1008.2391118409422,41.55275852031853,-0.106947923748584
1628749364.9955258,888,29.59765625,66.41281434135243,1008.2934551308848,41.712243709412014,0.08710724010711617
1628749365.3381546,890,29.592578125,66.61552340140183,1008.2785438010193,41.50986995811637,-0.15562469747577617
1628749365.681325,879,29.6181640625,66.35481470890683,1008.2878431688468,41.18910636531657,-0.43456714670998
1628749366.0270529,883,29.5875,66.48709090278962,1008.2929740241675,41.70679596630739,0.259631363473294
1628749366.3700473,887,29.572265625,66.46913187891091,1008.2955485175934,41.768463581763044,0.2323508275389741
1628749366.722411,879,29.541796875,66.55640330358746,1008.2605361543424,41.32933174851724,-0.3013337698978019
1628749367.0619576,871,29.5265625,66.59559016698127,1008.28741787047,41.443690610918935,-0.08001431741743537
1628749367.4046245,879,29.521484375,66.38102233083016,1008.2651866443595,41.216732395303445,-0.2881773367855329
1628749367.747541,874,29.5265625,66.62514875574922,1008.2896685131884,41.306519615004156,-0.09098774153343538
1628749368.0909996,883,29.5265625,66.75215805422722,1008.2774277740126,41.35165342388516,-0.01122137758549307
1628749368.482237,894,29.5009765625,66.66899771417008,1008.2756551501952,41.587151925424,0.2093259113411581
1628749368.8264427,879,29.4958984375,66.60026204809074,1008.2727143160446,41.30527512489088,-0.14070000237065688
1628749369.1750445,877,29.4958984375,66.69798940151352,1008.2584879059773,41.63859338760402,0.2533951955865051
1628749369.5278723,871,29.4654296875,66.60902886466641,1008.2613227362064,41.69264857629063,0.2155522539305782
1628749369.8712869,871,29.4552734375,66.63137393051042,1008.2793777994489,41.317032464856496,-0.24972487351427908
1628749370.2171767,880,29.4248046875,66.94937864449432,1008.2957220140157,41.486859762849996,0.01678591732907276
1628749370.559858,888,29.4095703125,66.97664612853838,1008.2331365709277,41.72815506444351,0.2631319593632428
1628749370.9362648,883,29.4197265625,66.78012443656372,1008.1816535537185,41.73845657156935,0.16349165505601942
1628749371.4078753,889,29.37890625,66.81784695974127,1008.2381857523403,42.27424557722146,0.493125791692918
1628749371.7700198,893,29.353515625,66.86307671352012,1008.204945663616,42.46004263987408,0.590479870161288
1628749372.2063684,892,29.343359375,66.86478761730176,1008.1712294354464,42.18217538714173,0.08818461792267361
1628749372.834246,894,29.328125,66.9262603096881,1008.1733017626475,42.31806908031963,0.11720321430094338
1628749373.2563725,894,29.333203125,66.90393410412722,1008.1745350293512,42.40381877711402,0.1835866228448039
1628749373.623238,902,29.3484375,66.92654621902405,1008.2020030083403,42.12734223392028,-0.13390878294660713
1628749374.0437286,903,29.35859375,66.92854729389498,1008.1866162189738,42.135312631448706,-0.0681650702953106
1628749374.4649255,908,29.3484375,66.99201921239406,1008.1757682072364,42.71824019045092,0.4521627729202182
1628749374.810053,908,29.363671875,66.93956788971572,1008.2004594733492,42.03293818127175,-0.35723795875611697
1628749375.1487947,907,29.36875,67.00854719029869,1008.1873722113589,42.404538949172526,0.1594200338658366
1628749375.4878385,906,29.363671875,66.9679757823956,1008.1993399035815,42.33938922066956,0.03337658332677993
1628749375.830988,905,29.363671875,67.01985201735047,1008.1816535537185,42.33141356180281,0.012834923017970677
1628749376.1735137,901,29.363671875,66.86393221209563,1008.2243942927665,42.096423357135905,-0.2375242536874519
1628749376.5171306,892,29.343359375,67.22878343117935,1008.1750113368029,42.371252519346314,0.13458840038905906
1628749376.9051042,879,29.3078125,67.06420575152463,1008.2042677377628,42.259271834963855,-0.02690759800270357
1628749377.2476797,884,29.333203125,67.12273417159727,1008.2477646472153,41.89566476098981,-0.3997991091184912
1628749377.6011434,867,29.323046875,66.9367075536734,1008.2909784771588,41.348656623420844,-0.8031581772264903
1628749377.9467862,858,29.31796875,67.22675850698626,1008.2586878588947,41.744807157068344,-0.11642557885340905
1628749378.2894187,861,29.328125,67.20328917893448,1008.304654786978,41.48361222466098,-0.3484800600669374
1628749378.6346214,859,29.292578125,67.20386728358838,1008.2753079665246,41.679699916771376,-0.01846887649187438
1628749378.97304,861,29.2875,67.27804380356467,1008.2591626031046,41.48599207714778,-0.2171494791699265
1628749379.3167267,858,29.2875,67.30006196051097,1008.2789156135058,41.71065727563798,0.09696885095742826
1628749379.6598535,858,29.2669921875,67.38726899845332,1008.2508039305371,41.71543592446812,0.06732141097717786
1628749380.0115452,860,29.2568359375,67.5300642261203,1008.2749219136235,41.954387238355025,0.28555711993823285
1628749380.3580449,861,29.2568359375,67.47154250375189,1008.259063817729,41.55429532343668,-0.22766325171305365
1628749380.7424145,862,29.2111328125,67.51209777324026,1008.2452641158716,41.574951042963086,-0.11246022164097275
1628749381.0951312,860,29.2416015625,67.78438476369533,1008.2577027578777,41.374913461087495,-0.2818216868646551
1628749381.4411001,861,29.2263671875,67.6322902078516,1008.1941702372227,41.63210532219974,0.08194079623152836
1628749381.7845757,858,29.2466796875,67.64417050882581,1008.2701410981472,41.48922019445727,-0.09606860738979285
1628749382.1282122,863,29.2263671875,67.71486677872733,1008.252574839558,41.626781990961014,0.08179007148188913
1628749382.471343,868,29.2314453125,67.71918470962522,1008.2577027578777,41.57600274109705,-0.00045026716846673266
1628749382.8174236,878,29.2111328125,67.54568659642804,1008.2463941411438,41.543471206889514,-0.033963253587562664
1628749383.1604445,863,29.2060546875,67.82315889182175,1008.2481033791836,41.882429452062645,0.33202774714531735
1628749383.4997423,870,29.2212890625,67.85212200397541,1008.2539944827101,41.84352170512844,0.1743265163888785
1628749383.8400788,868,29.2212890625,67.80087617543208,1008.2364285983681,41.66568887727146,-0.07566259902528921
1628749384.1856885,862,29.2365234375,67.98015272100515,1008.2603585005667,41.725259774057264,0.013935872090547686
1628749384.5771964,870,29.1806640625,67.99574093883669,1008.2329020677339,41.80945899626428,0.08494290439463875
1628749384.921045,884,29.16015625,67.61285334894139,1008.2018454527238,42.34053908233838,0.6154039808568431
1628749385.2626827,894,29.165234375,67.82138115288129,1008.2158102388581,42.08335683111969,0.12779068712534883
1628749385.5962472,899,29.165234375,67.8845013145449,1008.174499201167,42.0055351294906,0.0004116208905552076
1628749385.932076,892,29.1703125,67.78603553134946,1008.2141010563668,42.10950503615158,0.11117470609750635
1628749386.2710018,888,29.1703125,67.7616724558894,1008.1964258613855,42.19219440857366,0.15809848246548278
1628749386.6140563,890,29.1296875,67.80191979571548,1008.1672402037179,42.2271613929091,0.13678911332310045
1628749386.9598713,892,29.15,67.65044514045168,1008.1962939705054,42.04932225553699,-0.09715299372459452
1628749387.299637,890,29.144921875,67.748314668766,1008.1869830260009,42.156832290587275,0.049888481412075546
1628749387.6413395,886,29.114453125,67.55110101486846,1008.1849791948309,41.94647662224224,-0.18871346393808375
1628749387.9846175,884,29.109375,67.84647365587598,1008.1725449734678,42.156832290587275,0.09898711018736388
