time,cds,temprature,relative_humidity,pressure,altitude,altvel
1628733526.607767,688,32.6296875,62.723344269553365,1009.774198793895,28.806687290259404,0.8620590388899623
1628733526.9520717,688,32.772265625,62.326532279767946,1009.7757575212141,28.931650852615565,0.11810602722310665
1628733527.2985663,696,32.792578125,62.531668205624264,1009.7826329138904,29.21334648191819,0.3755138979900419
1628733527.652513,700,32.802734375,62.39761548356044,1009.7781145711385,28.940676706957497,0.07407312834516001
1628733527.992671,703,32.792578125,62.490277290899485,1009.7810118491718,29.041133187239932,0.15712124492914048
1628733528.3366036,728,32.812890625,62.33305767342909,1009.7999196317676,28.812641715915507,-0.128207022052928
1628733528.6806986,769,32.823046875,62.455871054193736,1009.7796994853211,28.9561541225708,0.0641465809174356
1628733529.0358143,767,32.812890625,62.421008666653556,1009.7717416489627,29.09966844652139,0.1845677749661787
1628733529.3795476,772,32.79765625,62.468484858482064,1009.7819592295126,28.917618199192376,-0.06665698366741127
1628733529.7328205,763,32.8078125,62.40976519096358,1009.7701578454081,28.87456409069812,-0.08532315297021517
1628733530.0792625,757,32.833203125,62.158049756891494,1009.7911911470487,28.879082717603048,-0.05119952869175395
