time,cds,temprature,relative_humidity,pressure,altitude,altvel
1628733616.003828,742,33.3064453125,60.65831142952499,1009.7656462565276,29.029598050566264,4.070482909099604
1628733616.3569794,751,33.47421875,60.644854817231895,1009.7973361191507,29.015368238802107,0.14499648884026214
1628733616.7059407,742,33.44375,60.598388424927805,1009.7572063309731,29.03900620311546,0.21501035170408994
1628733617.0564642,743,33.469140625,60.493116114103536,1009.7853466670873,28.904625052093987,0.06391777713329622
1628733617.4041374,747,33.448828125,60.44644727940656,1009.7778540276313,28.83279692856707,-0.02356982674722547
1628733617.752153,746,33.469140625,60.20596714384664,1009.7199078839888,28.51121395683503,-0.3405843332882369
1628733618.0997193,738,33.458984375,60.505455160304706,1009.8066046830179,29.21603430602198,0.4969534022677908
1628733618.4469173,721,33.4896484375,60.34722845747202,1009.761812838335,28.860639492342976,-0.043328515970763114
1628733618.7903805,716,33.479296875,60.44685354285017,1009.7297293922954,28.917674148921165,0.031196121763666176
1628733619.1324568,511,33.4896484375,60.62913060561914,1009.7745204932511,28.999227815765575,0.10549352912344963
1628733619.479529,602,33.479296875,60.529099548359206,1009.795778128705,29.052048365303193,0.12127917380599533
