time,cds,temprature,relative_humidity,pressure,altitude,altvel
1628746553.2705894,687,31.530859375,59.00376539717813,1008.361092634363,40.848195754507934,2.1621146001092106
1628746553.6152763,688,31.6734375,59.07183980071772,1008.3145834103572,40.9545967606499,-0.05121024627259669
1628746553.959235,687,31.6529296875,59.04245124597134,1008.3488988463819,40.720725161780486,-0.25125644688023246
1628746554.3047338,688,31.6734375,59.0827410389755,1008.3364977343418,40.94138521079256,-0.01389749722189367
1628746554.6481867,697,31.668359375,58.69810491254144,1008.2984788891861,41.25250026838938,0.2992688775990357
1628746554.9885023,687,31.6630859375,58.87329829062777,1008.3409828061516,40.98881328712623,-0.06773931675726044
1628746555.3304422,691,31.668359375,59.00157610876132,1008.3243514859919,40.587251389118926,-0.4617453510005472
1628746555.674857,686,31.668359375,58.978409955758785,1008.3329304121211,40.955726808221556,0.08518943715389243
1628746556.0195367,677,31.6529296875,58.89024615342475,1008.3075839561358,40.74500605828373,-0.16387250238672252
1628746556.3615456,693,31.6376953125,58.82562555126199,1008.3122839686225,41.07713764867181,0.24156985896842456
1628746556.7046673,682,31.6326171875,58.97179818474702,1008.3242150465885,41.08708044670688,0.16499090330123578
time,cds,temprature,relative_humidity,pressure,altitude,altvel
1628746557.1095953,682,31.6021484375,59.12284190768138,1008.3349742999698,40.87751633827765,-0.09564916555695445
1628746557.4569032,682,31.6275390625,58.947104062211636,1008.3557017332519,40.83269000349213,-0.11780609752492523
1628746557.8068738,679,31.6123046875,59.169163900743875,1008.3516054590227,40.68928677499366,-0.22182639933430723
1628746558.1511836,683,31.6072265625,59.23377483189037,1008.3689017491909,40.7241644128347,-0.10840658603827569
1628746558.4928865,685,31.6224609375,58.9358083531431,1008.304092866248,40.84703043166265,0.058718343857018074
1628746558.8363953,671,31.6072265625,59.4665185090238,1008.3366899358663,40.842637862024105,0.03290081986199127
1628746559.176091,674,31.6021484375,59.1450367943067,1008.346983752769,40.88126695744158,0.06209223066569199
1628746559.5192046,675,31.6072265625,59.39082208149511,1008.3279716375409,40.90439233585475,0.063594088316721
1628746559.8663723,672,31.6021484375,59.31434151740688,1008.3296872324744,40.90234100342208,0.038217563899874706
1628746560.206903,674,31.5919921875,59.2970226322193,1008.3279716375409,40.99715687150373,0.12475948296347424
1628746561.801855,674,31.4240234375,59.32053646741809,1008.3333669811094,40.860400161221854,-0.013624764776702747
1628746562.1514585,680,31.510546875,59.42230538877765,1008.3183005027457,40.858520918767034,-0.041815215336759005
1628746562.4909992,673,31.551171875,59.37134925959195,1008.3167284849796,40.94654228070674,0.06524523446816151
1628746562.837049,673,31.541015625,59.23728101308631,1008.3494659596664,40.79757785681138,-0.11313228179616064
1628746563.1805568,683,31.55625,59.20186661964587,1008.3247817433875,41.147296283491364,0.29168434117359787
1628746563.5245235,665,31.541015625,59.015249607683565,1008.3155371355581,41.11542045125317,0.15363540906556272
1628746563.8702912,667,31.541015625,59.21957367186824,1008.3354549601584,41.158438167049816,0.14270645443086924
1628746564.2102697,669,31.54609375,59.15438369497453,1008.2959997189589,41.316171265960875,0.25934671594109054
1628746564.5496595,664,31.55625,59.10203933392473,1008.3206835530013,41.04253402323466,-0.12210271082237037
1628746564.8914301,668,31.54609375,59.40053609049968,1008.3264972432976,41.09550770035383,-0.022304128774185552
1628746565.2347367,679,31.54609375,59.13687133819964,1008.3579001693527,40.914673389299395,-0.20295317570104499
