time,cds,temprature,relative_humidity,pressure,altitude,altvel
1628748891.0247374,0,30.5794921875,59.7775534511711,1008.2796312824145,41.30069721531239,5.477851774967857
1628748891.370577,0,30.7322265625,59.7703681242496,1008.2943278373863,41.194839560414046,0.06620053061959609
1628748891.7108104,0,30.7525390625,59.84170197436976,1008.328983128805,41.21928078994053,0.10953387789179632
1628748892.0516174,0,30.7779296875,59.736825825549055,1008.30771886911,41.352419400631625,0.21972538689043997
1628748892.3934855,0,30.7677734375,59.905791350189226,1008.3048021974662,41.4096658181361,0.21699096008815305
1628748892.7465997,0,30.7423828125,60.07371958263174,1008.2708479579957,41.46433239770709,0.19663097985934985
1628748893.0899029,0,30.7169921875,59.927463016273045,1008.309551871095,41.65213337485197,0.32713341771096033
1628748893.5164168,0,30.7220703125,59.93891004459906,1008.2655131695078,41.38166396334699,-0.05589448266792218
1628748893.878657,0,30.7017578125,60.02547166581343,1008.2761019463587,41.36476180897194,-0.05911403092028412
1628748894.2285223,0,30.67109375,60.053355331196045,1008.2959573174736,41.44389413095896,0.0416566071768759
1628748894.5699975,0,30.645703125,60.314206824317615,1008.3246740733593,41.05310772267106,-0.38249820822137753
time,cds,temprature,relative_humidity,pressure,altitude,altvel
time,cds,temprature,relative_humidity,pressure,altitude,altvel
1628748894.987171,0,30.5439453125,60.270097447317475,1008.3111449145453,40.86119291404453,-0.3657763399370879
1628748895.3284595,0,30.5490234375,60.013056020822624,1008.3008682156656,41.419675108307366,0.29926427800111594
1628748895.670843,0,30.5287109375,60.350361299917374,1008.2732565537619,41.10051155903862,-0.1425064405954951
1628748896.0107174,0,30.5134765625,60.32665325871682,1008.2569242149998,41.278240225516946,0.09521270543254812
1628748896.3481321,0,30.4830078125,60.558690760077454,1008.3036672500622,41.51916885570689,0.31734553777707214
1628748942.1624217,925,29.9333984375,64.2320429617911,1008.4672463337577,39.90210807119467,-0.011145117854566042
1628748942.5016794,930,30.030078125,64.10754284152223,1008.481007361886,39.793265255460156,-1.0805625791537763
1628748942.8421035,932,30.03515625,63.9001601807077,1008.4521558674378,39.678880401168364,-0.8116136992417229
1628748943.1789422,931,30.0759765625,64.1795448563841,1008.5184094465903,39.81991770043434,-0.3763645790734518
1628748943.5157657,931,30.0912109375,64.1464559420835,1008.4670619593405,39.817918284852766,-0.2436751230458169
1628748943.8559434,931,30.0861328125,64.2742814625106,1008.4675523805874,39.94666628873543,-0.019243096492896884
1628748944.1896422,931,30.0962890625,64.16969730676723,1008.4563018509482,39.7279850495654,-0.24736115585474383
1628748946.3858888,931,29.948828125,64.26765643868734,1008.4767843367833,39.90563975659145,0.004859895838609811
1628748946.7218077,931,30.0453125,64.32402299708203,1008.5049650442012,40.07941060358274,0.20570764202296113
1628748947.0620034,930,30.0658203125,64.23891260123983,1008.4905337638103,40.077409184173966,0.12825044421400136
1628748947.3980935,930,30.0962890625,64.28488393354046,1008.4386950349914,39.90785460458253,-0.09742974143426764
1628748947.7399855,933,30.0962890625,64.23967434116274,1008.4570318865013,39.846528818989974,-0.12572462267935952
1628748948.087373,933,30.1166015625,64.17525442276006,1008.4279343220599,40.138258961784146,0.22145098621652717
1628748948.4376178,933,30.1064453125,64.39654785823645,1008.4455414664799,40.118332694973205,0.12057478407229724
1628748948.7815423,933,30.0962890625,64.33870240263806,1008.471454706707,40.04680469222022,0.004290302445353803
1628748949.1240683,930,30.0962890625,64.39680350124821,1008.4741481106325,40.0652160491972,0.022028501108426912
1628748949.4651175,931,30.1013671875,64.54179459713116,1008.4929759655217,39.832223542393116,-0.23048314406717385
1628748949.8075385,932,30.0912109375,64.5188125444151,1008.4878410951396,40.02839456564792,0.05787893972487707
