time,cds,temprature,relative_humidity,pressure,altitude,altvel
30.234068870544434,0.0,0,0,0,0,0
30.73673701286316,973.0,16.459765625,55.65974303501433,1020.8626285570484,-63.04550287283358,0.016051107201126562
30.988449096679688,972.8181818181819,16.46532315340909,55.650679433137654,1020.8646513267166,-63.082860404173005,-0.1481329785518728
31.23760986328125,972.0458015267176,16.47833373091603,55.619982093297345,1020.8643125608626,-63.143482138979515,-0.24196727227089934
31.502898931503296,969.7643852210781,16.495556197001818,55.584482403581504,1020.8731329890398,-63.165753821737894,-0.08377722958393295
31.749700784683228,968.1773214037365,16.5110792919313,55.52493933961939,1020.8724922568267,-63.19600648798937,-0.12277267944547061
32.000808000564575,968.6343095129754,16.52886860554429,55.457914907060726,1020.8713544252272,-63.19542551748859,0.0023066204496910723
32.24988293647766,968.9889191796248,16.545309733507676,55.34604431018325,1020.8794872983186,-63.416794815999424,-0.8909944162040799
32.49691700935364,969.5208899250906,16.559053096801925,55.2823974202289,1020.8847273587634,-63.44284054773585,-0.10549403676233075
32.75942873954773,969.9160215568457,16.56519151430167,55.29374451639033,1020.8838109683169,-63.41820505664276,0.09357215715179254
33.00672101974487,969.9385736989718,16.569713771425878,55.27339648013178,1020.8796545057409,-63.38794941248098,0.12235172059984148
33.25944972038269,969.4165198441505,16.573030842721497,55.23878916552667,1020.8844891915944,-63.402563374272,-0.057964799009631356
33.508986949920654,968.2253900312058,16.57682780506089,55.1739389898342,1020.8772956797006,-63.398174736350846,0.01758633393292042
33.75556993484497,967.8946420116511,16.580973577878282,55.102396288882936,1020.8843508774306,-63.347602366652644,0.20523279503476993
34.01810574531555,967.6530651026893,16.581259177211347,55.011840965920726,1020.8804819433481,-63.25611345433281,0.3474740850698523
34.2648868560791,967.2065936640417,16.58558231110378,54.87573391544965,1020.8808978280385,-63.29250525273648,-0.1480369801933388
34.51687574386597,966.8806693592915,16.588738200341627,54.73687747192889,1020.8785656214028,-63.315294549502575,-0.09009664129232027
34.77342486381531,966.9129049304394,16.595157131631545,54.5961128742036,1020.8720939384406,-63.2290996172641,0.33697789824661417
35.03761696815491,966.1259960308751,16.59984223388823,54.47195109547268,1020.877765849524,-63.251364497147726,-0.0841641459412277
35.28553605079651,966.3621087636858,16.604633596247176,54.32363276425901,1020.8749561930558,-63.259210756678755,-0.031692968077472794
35.6254358291626,966.8045903954854,16.591668139346538,54.23609958066944,1020.8730178120841,-63.298166588002466,-0.11435468154163907
35.87438488006592,967.9379997302963,16.595924083993413,54.15883119038747,1020.8703267277432,-63.23463039004913,0.25594248353163374
36.12089705467224,967.9547494360944,16.603145922190173,54.059967990109456,1020.8742209067249,-63.14399835472666,0.36773817695428473
36.38377380371094,968.5072856635246,16.613957053435303,54.01856189736729,1020.8799500916962,-63.2020329765496,-0.22028213800951665
36.6307258605957,968.9105513574789,16.623219387187362,54.003576769757174,1020.8748988313979,-63.150800035344815,0.20794108988379678
36.882768869400024,968.9347164525171,16.631351335313312,53.99116306205247,1020.8724787511463,-63.19310914109053,-0.16737050086080116
37.13156485557556,968.9523532039776,16.645517709494865,54.04313543235318,1020.8623925226352,-63.20046946301765,-0.029657430442460074
37.378111839294434,968.4249129286469,16.653113178203995,54.12086642788822,1020.8671507083352,-63.26543263477238,-0.2636289578344728
37.64043378829956,967.2294952990842,16.661400458311242,54.16993307096618,1020.8677813616004,-63.25873667905277,0.025452661424703697
37.88779282569885,966.0868709142844,16.664705104655834,54.16156348674077,1020.8685950883568,-63.22192288861675,0.1488237655041571
38.13989472389221,965.5230897848044,16.667116980338992,54.19206592947776,1020.8743136661813,-63.236609993317366,-0.05840148842127194
38.38897085189819,964.8414614136638,16.668877272853862,54.20214017528249,1020.8717427156981,-63.211256699780115,0.1017930380385481
38.64598870277405,964.3439791766918,16.675649559444896,54.23839075571969,1020.8684968018365,-63.240158535848764,-0.11305951153983113
38.89866876602173,963.9808948545909,16.6737328357224,54.26937045684595,1020.875817396368,-63.32169531731548,-0.32014765475936435
65.18196082115173,963.1755875939966,16.668218265782862,54.2828404085631,1020.8787747994344,-63.35476079223302,-0.13184307520393662
65.43461680412292,962.0475266682414,16.73706179746585,54.02858202851916,1020.8724357502373,-63.3071474024223,0.0018115944871644476
65.68627977371216,960.1435935613634,16.829940848620264,53.75700596821565,1020.8722888997596,-63.3045050354881,0.010484537638565473
65.93678379058838,957.943551174344,16.907331256270282,53.534779583843076,1020.8720889316847,-63.32739318470569,-0.0909065439703749
66.18960881233215,956.6080201160644,16.969354477504044,53.346784035604415,1020.8768965114776,-63.3007608214332,0.10510045115578844
66.44576382637024,929.1579823076452,17.02285306232607,53.22500498475963,1020.8807563644287,-63.36652541921307,-0.25714821206635685
66.6991057395935,904.5310871264644,17.066014333174444,53.13634001123915,1020.8849882718781,-63.37901829704273,-0.04916324826770596
66.94492983818054,889.2588627756952,17.101630979631985,53.09477589971907,1020.8875139432249,-63.43728610523056,-0.23772009780800107
67.19312381744385,880.5439306090182,17.128997454816812,53.04918181596246,1020.8794341975417,-63.46565288858857,-0.114307507977132
67.44648766517639,872.8326104438021,17.15176724564554,53.00836160487387,1020.8826850307275,-63.53753197325108,-0.28286485070756423
67.70257878303528,867.4747075347946,17.17112941006576,52.92219229619829,1020.8888189838153,-63.49256715876229,0.17611517130923043
67.95458102226257,860.052244624925,17.18800453951943,52.87456270771154,1020.897546390278,-63.486216508408276,0.02512560481150357
68.20108079910278,855.4454748131507,17.19757697389825,52.809152946607355,1020.9006114483809,-63.458016928509444,0.11468042972869051
68.45697784423828,859.64762641509,17.207307129693724,52.74335259483115,1020.9053774476448,-63.517100825619,-0.2310158885360914
68.70889282226562,873.5207891334034,17.219896171512215,52.72589384011308,1020.9122986890336,-63.56602571700479,-0.19362459947082683
68.96497106552124,884.9968118244184,17.23182797950875,52.72544543299248,1020.9135883398131,-63.5281307924371,0.1484683888598864
69.2175498008728,898.2353275115659,17.241908222469576,52.74661188342444,1020.918193679775,-63.525179903428544,0.01164445445365843
69.46429491043091,908.7078445854858,17.25338088621759,52.763673092820476,1020.9149444171998,-63.45590844658089,0.28191308787802044
69.72035384178162,912.5689591517516,17.26455067749932,52.86010625964322,1020.9166855762201,-63.55194258046819,-0.3746667471879193
69.98534488677979,908.9032205482735,17.272702880280978,52.99318760355886,1020.9131735044207,-63.55018693364951,0.0066060844651238
70.23167991638184,913.7921779320285,17.284140262894375,53.08569386296916,1020.9055836350666,-63.48285480921852,0.27417597506633307
70.48356890678406,918.9812903802163,17.29248776554721,53.17627697119944,1020.9125192587283,-63.49043540491247,-0.030014049058001032
70.73988676071167,909.2607212728435,17.295836364477946,53.246922120126,1020.9135447181608,-63.528866659408386,-0.1503376830646181
71.01843690872192,887.0374764279431,17.28999623164088,53.243146412118016,1020.9068363346503,-63.5341604911382,-0.01895366957297176
71.2866587638855,673.0636321357948,17.284361959954495,53.2694278413859,1020.9177201208051,-63.57671645164851,-0.15910731798371852
71.53817486763,505.27943394674526,17.28299359579038,53.2886534302122,1020.9153981242418,-63.67300730647369,-0.3816745443809507
71.78563094139099,380.9320856692687,17.284791442617255,53.2952336444646,1020.9184941268595,-63.71127251628322,-0.15502478775548692
72.03334093093872,289.3674773231041,17.29021925099609,53.30622872533891,1020.9133358690771,-63.6684890224865,0.1728171931834858
72.28505277633667,221.72914807363495,17.298296364264765,53.32659486340014,1020.9126934729981,-63.629948582260766,0.15265713794695068
72.53313279151917,173.17420226714424,17.31105083027697,53.329294353914456,1020.9087053527661,-63.60294878295415,0.10911209110768466
72.77969098091125,137.4665204754963,17.324475259107103,53.32533653371338,1020.9029458324933,-63.540759317127204,0.2523392080014264
73.03150272369385,111.13533451952635,17.33290110808454,53.327159074219864,1020.8933943944218,-63.51987977976938,0.0826725614891886
73.27967882156372,91.91768201550903,17.3445909745592,53.35151776992904,1020.8926910627298,-63.51888237996948,0.004028870637035305
73.53513503074646,77.62164150117097,17.354494638003192,53.39982070882412,1020.884651315495,-63.45764453850438,0.2423045795009922
73.78673100471497,66.91760892507837,17.360350878234094,53.40149686698049,1020.884831872011,-63.43185995783475,0.10113940881038977
74.03300189971924,59.1053372414936,17.367368792815224,53.44410812848808,1020.890826193396,-63.446426694301465,-0.05915015701064232
74.27926301956177,53.67375549392983,17.37386266119129,53.4905153587793,1020.885953213413,-63.45439519033745,-0.03245812616013181
74.53287076950073,49.4393930838874,17.385461605753537,53.54117419281525,1020.8955434730748,-63.445082562458765,0.036610528352152866
74.78150582313538,46.078813770362075,17.39255513637773,53.58883085299082,1020.8903101583965,-63.480776352192194,-0.14391320548434897
75.02994275093079,43.896272045744595,17.397732305639693,53.600764209736106,1020.8918677935613,-63.418721123755944,0.24992653574069876
75.28186869621277,42.033201313829935,17.400138943452216,53.615398198170375,1020.8904769518116,-63.47376999243462,-0.21785934412866448
75.53520178794861,40.673450713298266,17.39915163908314,53.61243282014229,1020.8943819679638,-63.458104452213234,0.06376651567203265
75.79032278060913,39.681045184096426,17.398431061122377,53.636078671749765,1020.8897841996654,-63.42197159700277,0.13749970889190455
76.03901076316833,39.22690038517587,17.397905151773852,53.66725359086922,1020.8939835884314,-63.47903700026811,-0.23004590273316486
76.28598189353943,38.8954456247729,17.403008868156356,53.75567719853861,1020.8892789699726,-63.46106099419537,0.07282572205765571
76.56234288215637,38.92369163871886,17.39850246177403,53.83977331301594,1020.8852529610946,-63.484874060512084,-0.08593300074719015
76.81870174407959,38.9443068165367,17.403444811149573,53.936621827366885,1020.8838487907565,-63.48067918682459,0.0164108295312126
77.07006597518921,38.68919646413658,17.409795728166895,53.97535120521134,1020.8854588617019,-63.47205777219256,0.03419638816241077
77.32659101486206,39.0433181818934,17.419918453554548,54.017352831215774,1020.8888118192984,-63.581039548270354,-0.42607784131486853
77.57844185829163,40.382396565326125,17.424562687770834,54.107809923894635,1020.8935477468808,-63.558459105385936,0.08939455672544686
77.82439398765564,41.900027029034746,17.432067914304437,54.18141273515527,1020.8940435164722,-63.47120145859888,0.35579201160896234
78.08020186424255,43.00766019564684,17.43342989622825,54.23808685795803,1020.8869577871403,-63.51141534749573,-0.15724085264455798
78.33168172836304,43.545903169951984,17.43442393027489,54.32360897125812,1020.8894487482399,-63.44242823933042,0.2734891647262445
78.58869194984436,44.20889267312396,17.433777532835606,54.40133424125113,1020.8838464439019,-63.409210900814216,0.12924688260552158
78.841148853302,45.50324007922326,17.437421424720114,54.47647115245921,1020.8876384432648,-63.39722966080128,0.04756987902459422
79.08767795562744,46.988223916988176,17.444249322501996,54.532980244892144,1020.894438754202,-63.411398648123054,-0.05747956332977458
79.34334182739258,48.342186358323545,17.45609205635113,54.60936907709095,1020.8868189043001,-63.36678494943782,0.17459483843392332
79.60503077507019,49.330367435491276,17.46199162805856,54.6592116705315,1020.893732932793,-63.36537469109931,0.005373700253051533
79.85116791725159,49.78142904433649,17.466297393821844,54.681757581118426,1020.8961442426626,-63.43643043378954,-0.28955554282773605
80.10584092140198,49.84047734574371,17.46669615619049,54.689056368712045,1020.9011037485996,-63.36614166767924,0.27518232191751796
80.3613429069519,50.69404201734022,17.47247473848183,54.69748382560017,1020.9070088612056,-63.43009594214075,-0.25105329679929456
80.61260795593262,50.506542255055834,17.46846087879089,54.75212417098208,1020.8987328473119,-63.46631555527833,-0.1437194600176579
80.86101770401001,49.5592280826621,17.465531388229035,54.81646562395666,1020.8981536625815,-63.4862717272735,-0.08053628993056432
81.10747194290161,49.13799293040623,17.46339331774009,54.92282832301084,1020.8936411254898,-63.447687880789815,0.1566321928396192
81.35899806022644,49.10071328306261,17.46183286027515,54.989878142317714,1020.8957011728121,-63.53210663829907,-0.334628646125964
81.62110376358032,50.15412981151183,17.46618151814137,54.99008740050898,1020.9126647116549,-63.526528015421654,0.021346312497305932
81.87236976623535,51.193115532983875,17.462443159119537,54.951895614946835,1020.9136990590977,-63.604776505469104,-0.3104753981242514
82.12045073509216,51.681256595882665,17.459714741009662,54.90118390310144,1020.909664946169,-63.62028105774683,-0.06265378373553182
82.36679077148438,51.76736710649808,17.45635153498734,54.82745153794538,1020.9135765737334,-63.58039355783911,0.16201786978643595
82.61857891082764,51.28990190402001,17.448409371910113,54.72008648917031,1020.9101400517311,-63.58153870064535,-0.004534246133776379
82.87454390525818,50.671270680072304,17.443984720537305,54.614306076058,1020.9083037656053,-63.58816216869816,-0.025964832217632756
83.12642884254456,50.21976652413183,17.436639755177996,54.52937841299938,1020.895429880377,-63.52402791512232,0.2541075970173624
83.37482690811157,49.349926596861245,17.435394738876717,54.449269829535176,1020.8884537471662,-63.52839273460386,-0.017595467207505027
83.62114787101746,47.904610693661866,17.439973619516753,54.374110903391234,1020.8918076358767,-63.48888654515674,0.16042087571940172
83.87276601791382,46.579599647957025,17.443315487108464,54.250576025529845,1020.893341301346,-63.49898808034867,-0.04002795459317464
84.12271690368652,45.61254856704789,17.449922954336387,54.12845326347584,1020.8992733113719,-63.46853633365485,0.12182789992030632
84.3776798248291,44.906752342843546,17.457489147274767,54.0074488689296,1020.9008602590932,-63.471006354638256,-0.009687683937800964
84.6301109790802,50.33506801409969,17.458895625150394,53.88698777750041,1020.902260256367,-63.44054912806887,0.1209522534396686
84.8759937286377,286.6312326963783,17.466781569358112,53.7562376988841,1020.9058091846242,-63.446797581812234,-0.025412108926479954
85.12493395805359,467.4653632163156,17.469793302724824,53.66561208245918,1020.9022154838682,-63.489182602461554,-0.17040578198447845
85.37799501419067,602.1475921766009,17.470619510600606,53.58101720902871,1020.9010715998559,-63.545703105759266,-0.22262243319951996
85.63327074050903,699.6341117189314,17.47533817432668,53.490532878104574,1020.9049416510534,-63.55180248508696,-0.02396537195092609
85.88471293449402,771.3243548568984,17.474666400695188,53.346496039158964,1020.9069597069347,-63.585840798743774,-0.1349638312903212
86.13110399246216,823.6470334805551,17.48103554595027,53.23229613640461,1020.9091313090753,-63.64472577950502,-0.23979998052991985
86.38023781776428,861.8344154522674,17.482940253023557,53.087743710545986,1020.9112546326521,-63.64943778724218,-0.01890753533036075
86.63268184661865,888.6246141217199,17.477470956582145,52.904117982724586,1020.910492081462,-63.61594371112817,0.1322831772795008
86.8888189792633,907.0966493558578,17.469310798623585,52.73955992551307,1020.907781413318,-63.674902995298034,-0.23086525184035028
87.22090697288513,921.1186619493249,17.449636287893277,52.61607573813364,1020.9072816585726,-63.66008564868781,0.04451844116159216
87.46705269813538,931.622696949596,17.446252064559584,52.46965607442727,1020.9048500266952,-63.604803509999535,0.22514632556220493
87.71500897407532,938.4785330092119,17.449322423120623,52.32312767859529,1020.8962193074894,-63.560673874399946,0.17814594952044885
87.97712087631226,943.7523785816205,17.45013865334518,52.15670355280413,1020.895405036575,-63.43877678850215,0.4635487712277065
88.22366786003113,949.222399283421,17.447990599877436,52.019887667158415,1020.8964206120295,-63.402538024096174,0.14704366962282114
88.47631883621216,952.6743474898204,17.442307195357202,51.87402213602863,1020.8997691981556,-63.47643023519054,-0.2930626901808725
88.72195792198181,955.1937304452018,17.43404353683246,51.76603581671687,1020.9002497878747,-63.46205273347566,0.058533330893204914
88.96859788894653,956.7623302332318,17.42938424400437,51.633691222110464,1020.9029929246522,-63.44110102685712,0.08499513198071038
89.23004388809204,951.4234139596655,17.420496140023076,51.52946369660159,1020.9009889239651,-63.446258840662956,-0.019671287193399296
89.4764518737793,866.2098193087013,17.408521664490447,51.511162447722796,1020.901675832066,-63.48872712069929,-0.17287786087411472
89.72860479354858,654.0805089998457,17.399782167906864,51.52983405611931,1020.8996492352398,-63.403564422803385,0.3367297875684432
89.9846568107605,489.26346975172396,17.39060716170201,51.546555737384196,1020.8958850945565,-63.40083979069748,0.010677050415728187
90.23877787590027,367.35184020754474,17.38391084041736,51.62896080300535,1020.8903958105955,-63.41776038256679,-0.06645296580894333
90.49503374099731,277.8350822603767,17.384563884863223,51.68006192389952,1020.8810358353363,-63.46148814798287,-0.17096584402825557
90.80209374427795,212.23167632737466,17.372640757289577,51.75223717236645,1020.8780745442275,-63.42528435865738,0.11758296517420516
91.04785490036011,164.08128181523844,17.372170058775357,51.76079373890464,1020.8825597118696,-63.4491915078704,-0.09752036409262649
91.30258989334106,128.93901548462605,17.377366835327443,51.78411193429012,1020.8746221047303,-63.39366171991864,0.2181028965902031
91.55388188362122,103.29065070247628,17.3839034444391,51.773642980644965,1020.8791541333231,-63.33156083553497,0.2464767625345792
91.85874891281128,84.57135099057413,17.392789809034895,51.7797461797833,1020.8782081298424,-63.32004248381787,0.03786016902193596
92.11087369918823,70.9091863777294,17.391044144953717,51.81626885988635,1020.8717166270509,-63.310093112918416,0.03934860057920703
92.35753178596497,61.47825282640088,17.398001404948374,51.8704910221942,1020.8754478705508,-63.30283162637166,0.029512253847830308
92.6069438457489,54.865300769584096,17.407194778978102,51.971347369192536,1020.8780910756658,-63.33558141083583,-0.13138757080716093
92.85904288291931,49.76872257785408,17.41253261889223,52.096749631959575,1020.8763365087025,-63.34902588786849,-0.053169833330828406
93.10587882995605,46.04901664390947,17.417800295208988,52.21117647705552,1020.8808901667956,-63.388206923595014,-0.15913289274747822
93.35110688209534,43.3342123743558,17.420272989033233,52.30694652378783,1020.8819283822975,-63.39032763957018,-0.008652796298680175
93.60441398620605,41.35282934223771,17.423449556274214,52.39970386052231,1020.8846490758324,-63.38141771483711,0.0350890894600207
93.85031390190125,39.63657303247175,17.425767954142614,52.47045577053299,1020.8811228243866,-63.36178998152913,0.07997773372835545
94.10874605178833,38.383974025952966,17.42883190943869,52.473277164682784,1020.8812914810857,-63.401304886906445,-0.15373597319987925
94.36096477508545,37.46977242202948,17.42832434415181,52.44323043377592,1020.8785648903173,-63.41412693246026,-0.05053719180287388
94.62994694709778,36.80254806030894,17.42795390078011,52.41218054503322,1020.8900716677945,-63.442396049324884,-0.1050435476196041
94.88210988044739,36.3155785046193,17.42768353498642,52.30247942098998,1020.8911569175121,-63.438330403366535,0.016122267997683834
95.13183903694153,35.960166799391594,17.427486210191375,52.23619853093651,1020.891142300136,-63.408887846140075,0.11800814128479611
