time,cds,temprature,relative_humidity,pressure,altitude,altvel
35.347792863845825,0.0,0,0,0,0,0
35.83750915527344,300.0,26.1826171875,39.487495340504076,1020.5015932010994,-60.171893347224035,-0.00022587046471606194
36.083648681640625,302.54545454545456,26.18815696022727,39.493795769721075,1020.501763860631,-60.16123844432564,0.04313576342587827
36.33841276168823,302.2977099236641,26.203581226145037,39.53079555003507,1020.5051343695524,-60.15781663586347,0.013382078216443693
36.58233714103699,304.09509388249546,26.22236617958813,39.699898062178086,1020.5016942223857,-60.25727802937904,-0.4071803367452054
36.825926780700684,301.96119790459414,26.246446183533447,40.0084305556436,1020.5068022042036,-60.28971848516676,-0.13317562200169308
37.078693866729736,318.2679451598001,26.271283248396312,40.52041838956865,1020.5072192388508,-60.27799946079434,0.04636096873719572
37.32447123527527,324.68977046045495,26.291874663811914,41.07241184688887,1020.5100604788445,-60.255441053295804,0.09178266198529693
37.57010889053345,327.68155039221244,26.311434753818247,41.54075158136372,1020.509026441764,-60.239563396537115,0.06463984677003201
37.814003467559814,326.16377269908736,26.32731996936908,41.93651190396654,1020.5079385629855,-60.1885049767884,0.20934647372369544
38.05708456039429,325.85124526554046,26.339022827507566,42.28238957831895,1020.5003864707542,-60.17244308437925,0.06607867001915527
38.30218720436096,328.8535816681592,26.347606862811542,42.55013531284419,1020.4977805349798,-60.25112080653709,-0.3210003246570336
38.54565954208374,329.70216671052344,26.356627698802427,42.721145763889396,1020.4941623610861,-60.33417265514084,-0.34110141231558955
38.798137187957764,329.2427307316754,26.361850197913434,42.855476589882905,1020.5001553562258,-60.33603362739212,-0.0073711320313501645
39.04144477844238,333.2275821561893,26.368407143481534,42.983281755949534,1020.5038856405939,-60.34755945984719,-0.04738802387654512
39.28483700752258,338.0276816501914,26.374566152407123,43.10159375174927,1020.5059839728573,-60.29843396722647,0.20176281678658337
39.536985874176025,331.53733973146547,26.384549030494686,43.20982049283753,1020.5121506037345,-60.29460417039914,0.015188159996736655
39.780298948287964,317.61521904374143,26.38909222990686,43.35755320132805,1020.5220521251732,-60.316489313154136,-0.08994678405512116
40.024821519851685,305.02231553448496,26.39657652215246,43.63877709239537,1020.526095029588,-60.309441031885925,0.028824215562114543
40.26798152923584,290.9684536277819,26.40478278089408,44.184492232003045,1020.5236226058548,-60.36397528023878,-0.22427485613821657
40.51164484024048,279.63053970920083,26.41763153101458,44.941843896967384,1020.5222588176568,-60.383248715673616,-0.07912588835865116
40.7569260597229,275.9481862798017,26.428381076722797,45.88005487841156,1020.5138229185037,-60.39961806995589,-0.06671309458406191
41.00032353401184,283.52653439282017,26.437598487062644,46.89559124549765,1020.5156860304652,-60.332321483278605,0.2764919555740609
41.253220081329346,300.4041011859872,26.45118519797998,47.68665403452338,1020.5150882888929,-60.290685182123994,0.16463519792106618
41.49664521217346,312.1817936480997,26.45835761672969,48.353008097670205,1020.5019130273762,-60.27364429219652,0.07000402816271276
41.74184846878052,322.12845611892146,26.466336138611094,48.7864344161379,1020.502091947884,-60.26186574561229,0.04805584769732122
41.993897914886475,330.46859337591235,26.472159215541744,49.02785129499774,1020.5094779368885,-60.316505642882014,-0.21670414908173907
42.23768711090088,335.7451234968027,26.479205691498592,49.07768079426167,1020.5083778495853,-60.216880584537876,0.4086508764662666
42.48177528381348,340.1364790447248,26.485720405695268,48.926940590037844,1020.497375282892,-60.23627640601512,-0.07948937653434807
42.72639727592468,342.8011704006702,26.49184701662801,48.635917020647426,1020.4879542634135,-60.167146475005566,0.28250648767054704
42.969656467437744,342.58472924453343,26.499062259672957,48.3407401715734,1020.4869428563079,-60.13473642740063,0.1332342689917223
43.221760988235474,342.69691721752423,26.501584486080933,48.04108750339414,1020.4916055904835,-60.213156067546485,-0.31115890510470184
43.48308873176575,343.0489531237754,26.50891286539583,47.697530371080596,1020.497302503445,-60.17329944846534,0.15256483024972367
43.737879276275635,343.3058843443842,26.503233576582776,47.29216233570462,1020.4906828738216,-60.182588622709105,-0.0364359192040036
43.984445333480835,342.9530915773366,26.508744556874287,46.86049707477398,1020.48983719223,-60.2286894719012,-0.18694357705659598
44.22779440879822,342.9657641790972,26.51825425966091,46.43462850694769,1020.4842827169521,-60.22166841973494,0.028881681940430923
44.47914457321167,342.7048569870314,26.52107919613338,45.953501477645375,1020.4907297152978,-60.25222955661699,-0.12158535568414933
44.724111795425415,342.7845917053558,26.523140958470464,45.43525548323279,1020.5025279177213,-60.24517819481265,0.028784471394052668
44.96772885322571,343.6532542297438,26.516414400825706,44.91326024739348,1020.5077549551845,-60.20070877152408,0.1825391099198218
45.21111273765564,342.9364611179538,26.51699261256591,44.411937531273786,1020.500930642917,-60.18973335157124,0.04511861072382777
45.45483088493347,338.63112715184764,26.51878650382611,43.952292930808085,1020.5051982839041,-60.19458280483383,-0.01988752079389449
45.69982361793518,329.81562545157703,26.521467651232367,43.54024229881313,1020.5016837971515,-60.182770896792995,0.04821405034392202
45.953125,320.1398117538674,26.52479635702531,43.1785518655631,1020.50326709908,-60.17798786952516,0.0188835877331426
46.19677782058716,314.428760290795,26.517622583176994,42.90204792107807,1020.5007135405407,-60.16931278965856,0.035601653362864596
46.440213680267334,309.45011622115817,26.527477606043814,42.784679186825656,1020.4991259665294,-60.25717544769962,-0.36094784656425716
46.69728708267212,306.356796197365,26.530554572224816,42.772504625520654,1020.4993582502236,-60.2357233977897,0.08344547518460058
46.940918922424316,303.2886871576892,26.534172163891714,42.77769851277917,1020.5035378512671,-60.21104281854655,0.1013469002907165
47.18602395057678,301.31960304565126,26.535440553684374,42.78772915326709,1020.5139020408546,-60.224875915823624,-0.05641262467621296
47.43208575248718,299.61232302630606,26.544597602175937,42.76691537856657,1020.4990645027523,-60.265676216814484,-0.16587172712758527
47.67593050003052,306.47096166573925,26.549908930121685,42.71891071829416,1020.5080980440024,-60.25458383587236,0.045472937758835916
47.92131042480469,310.12591541238913,26.555157256843014,42.73548155430048,1020.5119091201201,-60.27383368319868,-0.07848652060660474
48.16485619544983,309.0112737340753,26.558987715498642,42.805396345759156,1020.5122922584578,-60.24047632858791,0.13690419592252678
48.41866636276245,316.57260199718974,26.56869555190632,42.89082265381191,1020.5154916913065,-60.21229247755002,0.11103959190262538
48.666964292526245,328.304783333071,26.568868556052447,42.86720291459577,1020.5227642788561,-60.28632728001993,-0.2983216221833447
48.91085195541382,329.03291285798184,26.57179136096577,42.790536373747365,1020.5205155483026,-60.28413821160353,0.008965286062489008
49.16375422477722,328.2135526093327,26.57392455197567,42.68146288156113,1020.5098439741652,-60.28071378231192,0.013549478396760068
49.407328605651855,336.530702613381,26.571313022257772,42.60808491554744,1020.5113864391152,-60.310536870291365,-0.12243419310826628
49.655778646469116,337.19779864133454,26.574947326454428,42.58582618503973,1020.5143669072252,-60.32348722385979,-0.05212777962370009
49.89937734603882,339.575768016523,26.574856026769705,42.45857305045624,1020.5208275368888,-60.31737565138503,0.025086726629585887
50.14479088783264,347.2547508545399,26.57336474036341,42.30315858426642,1020.5267963009728,-60.33231661000816,-0.060882221087853475
50.390278816223145,362.8549886172616,26.576444760168815,42.183476112470366,1020.5183578853699,-60.3366842622362,-0.017792012706146075
50.63406252861023,373.16010039422287,26.578692693491103,42.13990873716607,1020.5067725944485,-60.28229822587532,0.22308872716054118
50.887972354888916,381.761847058093,26.588564655742967,42.13155953392209,1020.5021640469241,-60.19768193331263,0.3332517553013883
51.13166785240173,386.4188411565426,26.590282098015486,42.087960312646,1020.5091133746192,-60.217667840087266,-0.08204583568166936
51.37541747093201,388.4669383112883,26.595651223629783,42.015485438099724,1020.5027819084656,-60.25393371755785,-0.14872047780817443
51.627769470214844,389.9617292971628,26.598197959593648,41.98604803024249,1020.5072716420118,-60.174492785859634,0.31479969047686923
51.87102508544922,390.78253700088186,26.60691611408393,41.931732262254236,1020.4975649701424,-60.20820499606174,-0.13865309490189914
52.116435527801514,390.03081734533095,26.611907117969196,41.852991161731325,1020.5009564301245,-60.28270896750958,-0.3034483313907879
52.36362028121948,389.21202321244147,26.61143411011115,41.80491282694428,1020.4958752193799,-60.19911759935112,0.3381707057858107
52.60812067985535,389.6950562482827,26.613832662291042,41.7276018096499,1020.4858382097552,-60.20044249787661,-0.005418688078410805
52.853495359420776,388.96697006146564,26.612839456673214,41.649278399552635,1020.4880872001839,-60.18221671620867,0.0742786520174296
53.097097873687744,389.2460495164101,26.610742684709297,41.548320443408734,1020.4966581239594,-60.19848844820568,-0.06679787436648928
53.3497896194458,390.26020255861044,26.616071803783367,41.432408536568616,1020.508967737079,-60.2552891678001,-0.22478688922518564
53.59341311454773,389.9197510091853,26.613101793168717,41.30558525987859,1020.5074238269611,-60.24684594048986,0.03465659666565892
53.8371844291687,388.0503372894488,26.616421697424585,41.17079283675862,1020.5062970137521,-60.267336753353426,-0.08410235222896885
54.09881854057312,386.95611351052884,26.61610093489609,41.02861941150037,1020.5002627132164,-60.246610561457416,0.07899356977339476
54.34538006782532,385.34703244704684,26.618610602384024,40.885744820317406,1020.4936773842464,-60.203262499564914,0.17624866407902384
54.58855128288269,384.98312326388447,26.62181415462377,40.75174977136763,1020.4931815938818,-60.24185274890839,-0.15869828474676295
54.83183789253235,384.9876826189822,26.626896021352717,40.65551606412403,1020.4870919142437,-60.220116846134985,0.0893700209351713
55.0753653049469,384.72085402410653,26.62923310320352,40.64002961564183,1020.4837117503514,-60.204253032516455,0.06512311767640683
55.31905150413513,386.417204314743,26.62956692086127,40.66470514665659,1020.4858819342115,-60.23219413060123,-0.114659148306346
55.57168698310852,389.006056096212,26.632554329631965,40.73120647713422,1020.4955423839795,-60.22728721803804,0.019431734744739377
55.81516146659851,389.27457621607226,26.64164687131804,40.78287079279736,1020.4898792731948,-60.22213543299265,0.021149111165187175
56.05804657936096,387.5794604744383,26.64411458046056,40.847168611922754,1020.4956211297626,-60.18518079109915,0.15215163658542183
56.301531076431274,386.0721345683765,26.647340274547677,40.91286580143207,1020.5080518673525,-60.22890290769901,-0.17964225956111757
56.554701805114746,383.3510848479225,26.656553962406615,40.97802083428655,1020.5067853716156,-60.165067868189844,0.2521605442404755
56.80874037742615,381.63529982413235,26.65916285421598,41.036527143435165,1020.5050970381263,-60.17989690137403,-0.05820174855688387
57.05668568611145,379.03226372339725,26.65969505068354,41.151178876932576,1020.5155683032639,-60.233855158957326,-0.2176180539096146
57.3046498298645,377.13245399500187,26.66282724499627,41.19262580450063,1020.5170183854142,-60.26285028796676,-0.11693308640368645
57.55104422569275,376.5563583017216,26.669228918598858,41.25259384919283,1020.5190042214944,-60.257364836641166,0.022270841903203605
57.79477858543396,375.05527359112693,26.675273027324742,41.31356800975147,1020.5173709161462,-60.28000868018521,-0.09310441651120538
58.047765254974365,373.41940381590166,26.67694050850628,41.35806962207154,1020.5187977625343,-60.36043981847629,-0.3179293851328872
58.29124617576599,373.5762554816248,26.68090128331527,41.356138393305486,1020.5264682607923,-60.34891417332572,0.04735847146378535
58.53491735458374,373.15042027176713,26.679676369165552,41.295289633865,1020.5326667818031,-60.428569490560896,-0.32675352325160845
58.78732371330261,371.21868981785633,26.682898034222625,41.177357077693436,1020.525187303222,-60.384637380352814,0.174041760637855
59.031227111816406,373.3208591000625,26.679761798398317,41.05374002853582,1020.5171363868482,-60.38079883068243,0.015746026326784707
59.27719521522522,375.66558292788983,26.67884472317725,40.96508328635202,1020.5138525409369,-60.331932609613595,0.19857923702892116
59.52213931083679,379.80827095535096,26.679547288537318,40.86752626381736,1020.5074457441535,-60.317946311209155,0.05711925374887982
59.76580762863159,382.02131744273225,26.678688164487706,40.76033832203111,1020.5083346633578,-60.30412243506533,0.05671098607355582
60.01148056983948,383.90665188625843,26.676689251123456,40.64769022688832,1020.5028181753363,-60.31706508668257,-0.052706026654068996
60.25481557846069,385.01249530653877,26.67248658259473,40.538885574693836,1020.5092676116782,-60.309803118156516,0.029829676441829992
60.57259821891785,386.63005689308795,26.65564765605624,40.42662822099827,1020.5132072148548,-60.31712412050387,-0.023038993994260536
60.81671214103699,387.81062416894594,26.652961079217246,40.333734874833524,1020.5184047615351,-60.312552913364144,0.018725767435778348
61.060711145401,389.21256628544177,26.65379683671193,40.25498974028423,1020.5199061605119,-60.25749576803259,0.22572656767964455
61.313841581344604,389.9656088186101,26.65989435718145,40.203776464032174,1020.5124912355136,-60.248486952378975,0.035577688996708164
61.5630989074707,390.78536844551115,26.664344594619113,40.21488720341916,1020.5101350946562,-60.232880831803996,0.06261053885573638
61.80710053443909,390.84335249322,26.67033634679551,40.235518183727095,1020.509806733274,-60.23142866040464,0.0059513428805473565
62.05187678337097,392.236452849609,26.674709389901455,40.30376477111192,1020.5137136786603,-60.27620893911189,-0.18301734767443828
62.298192739486694,391.0919487959858,26.67927291526096,40.35670116031278,1020.5207116698804,-60.29240727149808,-0.06574402520649718
62.54451060295105,391.6074206813194,26.68260357589656,40.36561326099369,1020.515207225455,-60.3053582934119,-0.052571826357111065
62.79838299751282,390.63285357542674,26.682290663844995,40.36116127660425,1020.5133449535516,-60.34077721655445,-0.1395120487928618
63.04226994514465,391.27235288643493,26.680690399914518,40.337574948063846,1020.5127767870842,-60.29617556529478,0.18294938802826372
63.286712646484375,391.1987750623434,26.680894344238904,40.30315136875269,1020.5057331321549,-60.261139047740876,0.1432865302667678
63.540529012680054,390.0644498969996,26.683786965764003,40.25142597553056,1020.5110678947631,-60.264923781795034,-0.014910719908220158
63.78460693359375,389.50672593322736,26.684526240602093,40.20115442456309,1020.5123425364275,-60.26520157635618,-0.0011381477314885546
64.03119206428528,388.289205927163,26.68369390873698,40.155080401880554,1020.5140367074373,-60.25117891712894,0.05689172942391488
64.27559971809387,389.02154378504474,26.683086436495568,40.16369828822779,1020.5005967776436,-60.28678467234295,-0.14561918941645727
64.51950979232788,387.39478632645785,26.682643076653715,40.191891456996075,1020.5108383411865,-60.32677155566113,-0.16395070510072013
64.76578760147095,388.0986009836182,26.690550815307695,40.19681567819471,1020.5173855429048,-60.37131122762288,-0.180842412034538
65.01000618934631,385.3704011966807,26.693578455215626,40.178509501175164,1020.5065872011172,-60.33607352471518,0.14428276579895138
65.26347637176514,385.2703350125127,26.695788159395118,40.17610181533431,1020.5095088737047,-60.338582997886974,-0.009900504231702658
65.5076470375061,386.81823960082585,26.69740089826412,40.17903472392941,1020.5151876496557,-60.36073735574038,-0.09073087050834028
65.7491409778595,389.5689054204514,26.699949832722947,40.179608566322564,1020.5176134766208,-60.35635640808839,0.018141777428160925
66.00284481048584,395.35864874832515,26.701810156704067,40.190978677285884,1020.5176926355219,-60.350675746037005,0.022391445395167194
66.24736857414246,394.99160134921345,26.704539789619005,40.18050201502829,1020.516822869811,-60.315818236102075,0.1425443085817506
66.49383068084717,394.7237140850231,26.702416334205612,40.124346824206704,1020.5206894120528,-60.37234973933723,-0.2293750938551518
66.73947238922119,376.6978882458067,26.70498220450301,40.048932089838274,1020.5244389088693,-60.39441473834699,-0.08983143969045822
66.98374605178833,363.27169501929933,26.704111114973887,39.97199505755866,1020.5236290340936,-60.39267951060846,0.007103275247334721
67.22763872146606,355.9040772015667,26.69935969465192,39.89236946017189,1020.5227378426135,-60.43634860730269,-0.17904889291953033
69.51036715507507,357.01061618891015,26.694520013031738,39.85929367909995,1020.5322900262397,-60.5027684908809,-0.2626239501757237
69.75877571105957,360.78993512573265,26.627722704192443,39.90879459992252,1020.5297776285769,-60.454490320617005,0.021207821896444184
70.01395964622498,362.73777893951353,26.61474569539133,39.93861574363482,1020.5280390647067,-60.41774928117139,0.14355402144501705
70.25836133956909,363.8892444353741,26.61762148925005,39.950970946104846,1020.5224638299458,-60.36160829691661,0.22886235236282504
70.50185871124268,364.1893219510288,26.630748230526187,39.938072189419934,1020.5240696183437,-60.363991197190224,-0.009775299309227952
70.74578213691711,364.9486440855296,26.641700588118358,39.908310477624674,1020.5300157271197,-60.38605487402551,-0.09042173989145871
70.99849009513855,364.69236199296853,26.652437872299185,39.86780491582702,1020.5346556225604,-60.391771717184305,-0.02262333449537743
71.24418354034424,361.53359776911617,26.66164629947334,39.835112472262416,1020.5397334496444,-60.41378346196999,-0.08958880304463127
71.48796272277832,362.7402240765068,26.67248267388506,39.80185606016312,1020.5374105564266,-60.386492242389075,0.11194904190826616
71.73188662528992,362.54024794406155,26.676275873395056,39.76036990968115,1020.5303137587975,-60.414897999854034,-0.11649366568170431
71.97930216789246,359.96289069917765,26.68041620350797,39.73634413568121,1020.5331545630532,-60.45234012096263,-0.1512810409234194
72.22392129898071,359.1624473716981,26.684809884735092,39.72819535993004,1020.5364555184867,-60.50518385433818,-0.2160329545414104
72.4723858833313,359.9290298407465,26.689388472699132,39.73632931630857,1020.5385646207842,-60.55255788475713,-0.19066329284582434
72.71602630615234,363.1900774125861,26.692730126683088,39.768872744402984,1020.5368575723303,-60.58464985270422,-0.13171328491740464
72.95900869369507,365.2999765138126,26.696540899098764,39.81922452861419,1020.5402219989835,-60.551844364161816,0.1351023377625869
73.22182059288025,366.56971705454873,26.70343782871455,39.868494877780044,1020.542541182748,-60.57012878293397,-0.06955749804200789
73.46706509590149,369.1173665719696,26.70298396189814,39.89663035323436,1020.5391323553105,-60.52701834129865,0.1757003230817442
73.71266555786133,369.3558154753576,26.70265271002155,39.90308115893837,1020.537435613941,-60.52400877402375,0.012265596059035279
73.95603466033936,370.88062698563954,26.705154721923936,39.88587779788304,1020.5320233961778,-60.55478054185911,-0.12645002436484248
74.19937205314636,370.91287634699887,26.705608912755306,39.83107169204256,1020.5342658716369,-60.52123799089825,0.13783974861911844
74.44454431533813,371.746881978673,26.707312288125618,39.75822226026619,1020.5358752902259,-60.54395209133395,-0.09264628482031423
74.68815875053406,372.35557580821444,26.705811712031668,39.67687542773547,1020.5351948347574,-60.50949608702467,0.14143261419153008
74.93335318565369,371.9893585829624,26.704716525890884,39.59872864483949,1020.5399633503729,-60.52138194725295,-0.048474867563793926
75.1769392490387,372.80270206349314,26.7052890981026,39.52132446093296,1020.5415885564123,-60.50837868326348,0.05338633712320866
75.42033958435059,372.045534691015,26.701591325334345,39.47423163753839,1020.5347543218894,-60.50385606158329,0.01858023580661576
75.66570591926575,375.545263965713,26.698892528849523,39.4680415905666,1020.5299027546241,-60.54910512959027,-0.18441074519722825
75.91039299964905,368.6440522214748,26.698294716013063,39.46665391115072,1020.5354735164084,-60.52228931603017,0.1095902451385351
76.1636745929718,353.3413096482617,26.69923029304132,39.4797263861995,1020.5356927581157,-60.43248986438067,0.35455127301927875
76.40718269348145,342.71301046361805,26.694425570070067,39.50334843071633,1020.5269049278868,-60.422952209867404,0.03916851473047016
76.65036296844482,333.3350750541063,26.69640642090946,39.5471936410307,1020.5404057449258,-60.42118507517205,0.007266647112146906
