time,cds,temprature,relative_humidity,pressure,altitude,altvel
81.80566310882568,0.0,0,0,0,0,0
82.30255675315857,7.0,27.3330078125,37.2090150594917,1020.4980413539598,-59.943286321357625,0.005614179953554536
82.54685950279236,7.090909090909091,27.339026988636363,37.21267894963162,1020.4951028064327,-59.93401123283476,0.03783204533694223
82.7897834777832,7.076335877862595,27.352746302480917,37.219429055232986,1020.4885156296245,-59.96102982290678,-0.11081282926381904
83.03171420097351,7.060569351907935,27.36758900855542,37.221934781897346,1020.4820336405294,-59.98118866474163,-0.08319473918918655
83.27185320854187,7.046358536924575,27.38577871295663,37.21598928391037,1020.4773655192128,-59.92015568912264,0.25432325617987206
83.5228841304779,7.034735368594363,27.408295482410225,37.21550469207981,1020.4650466476004,-59.91465727088524,0.021890730300582494
83.76982283592224,7.285372077587601,27.420493588168835,37.218133129030086,1020.4568271053977,-59.83618116566256,0.31778422903058473
84.02083468437195,7.474405330137573,27.42426882484529,37.220126723305896,1020.4517020684668,-59.828316343599404,0.031327236417592434
84.26667356491089,7.614813460044523,27.43119486472999,37.2169084681447,1020.4578296882127,-59.823853580958755,0.01817197011695138
84.5092625617981,7.449707273133195,27.443115945243466,37.22235732451264,1020.4583166037518,-59.79348137485797,0.12520813810643247
84.75315046310425,7.32860204220754,27.45049251797816,37.22320375614203,1020.4633022392509,-59.77642572091149,0.0699288630792743
85.00552225112915,7.509677221782677,27.457260181467948,37.2191018613654,1020.4744944596381,-59.74092137018024,0.1406860472135462
85.24739980697632,7.642021441751875,27.462206531087325,37.21925010903437,1020.4740286944849,-59.73661940776509,0.01778561552755499
85.48961591720581,7.46865874095568,27.468561778272807,37.21776739523076,1020.4806088473433,-59.73871369202374,-0.008646243718307967
85.74062252044678,7.342080095039787,27.46908737687123,37.219833100568216,1020.4753690280949,-59.74129559351472,-0.010286638972180729
85.98220658302307,7.249677639708405,27.47221446375003,37.215078206871915,1020.4684626658667,-59.74947135825701,-0.03384038127731471
86.22642159461975,7.182230576061768,27.474497009457142,37.2084238813398,1020.4665030131872,-59.83965199693363,-0.36927820026507
86.47047924995422,7.1330017596396305,27.477534846561486,37.20514732209994,1020.4657055945913,-59.85445480982265,-0.06065287486252832
86.712069272995,7.0970712489709,27.47700834752857,37.20431315913321,1020.4717097228269,-59.84988414951337,0.0189185918259841
86.95632815361023,6.80069389149904,27.482111566625225,37.1989861963814,1020.4727144799281,-59.773516340258546,0.31265995666893537
87.19803714752197,6.854537359754614,27.483092395668997,37.179409344053916,1020.4742078233412,-59.836592305994444,-0.2609562307988384
87.44207000732422,6.893834873142298,27.487923899375264,37.168259053047045,1020.4725116706201,-59.873888918975965,-0.1528337915561162
87.68438911437988,7.192671757431735,27.49007826681009,37.15543786987755,1020.4722024306275,-59.95318187535841,-0.3273931834933666
87.9262809753418,7.410776304318392,27.493022506486042,37.146056841812744,1020.473961053463,-59.96492735665727,-0.048532683126335734
89.04064869880676,7.569958670910041,27.497915115850073,37.12820382546348,1020.4700098358087,-59.958124203736055,0.027730150757200065
89.28866457939148,7.415980834086813,27.43959276308096,37.10147465013721,1020.4609091503809,-59.90276415195856,0.0496377775938155
89.5426242351532,7.303601042758051,27.432801134596872,37.07858814710072,1020.4581591569514,-59.85123314656154,0.20230888946574554
89.78904318809509,7.221581340965283,27.444359714051995,37.06021909854606,1020.4551411482527,-59.814334594540405,0.149206834209974
90.0375907421112,6.891563565911694,27.456911332854023,37.04680045729898,1020.4555142585477,-59.83423632756623,-0.08040068274009568
90.29268956184387,6.920858341582118,27.47155960210137,37.015029709724686,1020.4630473945418,-59.78236502837874,0.2025322561482182
90.54564619064331,6.672082743026651,27.48087866360058,37.015278789119684,1020.4775361482757,-59.801106976743796,-0.07387659858367641
90.79915285110474,6.490515416146906,27.48493634879716,37.0123346022724,1020.4749408226273,-59.83471701772081,-0.13290461530272765
91.04499983787537,6.357999629860581,27.49892568610503,37.00861675775802,1020.4699230643794,-59.80856393636242,0.10640716289905094
91.28932785987854,6.531440017595585,27.50222351712437,37.0043342613387,1020.4610669689814,-59.79681433788304,0.04801971783406954
91.53517770767212,6.658024407366952,27.510170731545387,36.996489303482086,1020.4564185252326,-59.78194909827403,0.060549617667103636
91.78027153015137,6.750411237982626,27.515970956627697,36.98918237366816,1020.458429393241,-59.82980822250678,-0.19520649231118076
92.02344751358032,6.8178391924384,27.51883232786233,36.97759769541297,1020.4626407765539,-59.84796325820484,-0.07465589019477502
92.27657914161682,6.867051066154278,27.523664455910346,36.96754892669065,1020.4594246295554,-59.86750312406946,-0.07719367384740476
92.5201051235199,6.632811834639105,27.523075493510074,36.95706428292425,1020.4544175643123,-59.890850979251894,-0.09587268378806438
92.76329278945923,6.461853786571811,27.52676130400085,36.949399743968655,1020.4537184040595,-59.88238117735648,0.03482921048961944
93.01594281196594,6.337081117155465,27.530823256905226,36.94537497881345,1020.4584427104063,-59.828671336462385,0.21257871178280807
93.25946879386902,5.975860347583448,27.537903509040394,36.939286816926,1020.4625240445524,-59.862157448756705,-0.13751377795712727
93.50436162948608,5.71222561276604,27.54169910006627,36.9411324158211,1020.461914171286,-59.88939498859178,-0.11126441884560341
93.74768853187561,5.519813439223783,27.54309740158539,36.93619040868024,1020.4600759114858,-59.87327792065133,0.06620740831912991
93.99083757400513,5.379382609603339,27.54411794326305,36.92786352181126,1020.4559479743502,-59.88946973159958,-0.0665944085713249
94.23459434509277,5.27689004094301,27.550350327320658,36.921761259796085,1020.4614204556726,-59.86004472163592,0.12077204609299769
94.47784924507141,5.202086476376896,27.554898994110335,36.915750813296505,1020.4573507530345,-59.7798605905962,0.32946861636527874
94.7225341796875,5.147491559448438,27.55547503628423,36.91765339353614,1020.4494413494907,-59.70107318447422,0.3220019182694628
94.96602201461792,5.107645798464812,27.560011118126777,36.91275271262422,1020.4532518123821,-59.721500643682894,-0.0838937977465387
95.2110550403595,5.078564617327662,27.560577975255182,36.893445657502504,1020.4557375583228,-59.68538951509511,0.14737134878025582
95.45594501495361,5.057339897923276,27.560991692409104,36.90134928527831,1020.452612581359,-59.71249829077739,-0.11069777653090888
95.69880986213684,5.041849168311217,27.561293641303934,36.89455124511685,1020.4447592050219,-59.66448606593906,0.19768860199782765
95.95138549804688,5.0305433555302805,27.56288590384257,36.88961485622441,1020.4468790691694,-59.67942068974254,-0.05912886637031335
96.19206476211548,5.022291878302371,27.564048006765464,36.887543662967325,1020.443656214482,-59.71407260613629,-0.14398091576943894
99.09116053581238,5.016269588904699,27.564896160364903,36.876603631626516,1020.4409656901639,-59.64989923234686,0.2658023648816669
99.34820818901062,4.741718046525854,27.50499385675537,36.86284965808034,1020.447316208736,-59.62474110230171,0.008636674772696858
99.59508800506592,4.541338308799594,27.494305350663492,36.84943282442357,1020.438025937247,-59.601161549517876,0.09526332563017496
99.84578776359558,4.395092401953295,27.50439170694743,36.85362249367748,1020.4382090685672,-59.65662334598123,-0.221437076521712
100.09790468215942,4.288355735302324,27.518612606493168,36.833078830736774,1020.440791018919,-59.70199160366803,-0.17883798392967845
100.36034822463989,4.2104546421815865,27.52761975467481,36.81965442170824,1020.4426327145819,-59.76061327247527,-0.2233185741928011
100.60604596138,4.153599013279007,27.539681113877574,36.80512313750832,1020.4528835520878,-59.7659996353838,-0.021945187156091672
100.84983801841736,4.112103285704328,27.548484021968097,36.79290951528336,1020.4612938720292,-59.79788443775057,-0.130786367803128
101.09270977973938,4.081817886700082,27.563192856721027,36.78551269235369,1020.4555268075393,-59.87530361341392,-0.31876314994168675
101.33604574203491,4.0597142763658445,27.571131469484108,36.769089007350665,1020.4578589201454,-59.9457839452229,-0.2896525705061521
101.58237481117249,4.043582093668191,27.57835006859414,36.755532786770026,1020.4674126836245,-59.974157236041584,-0.11518227096036032
101.83496165275574,4.031808120337358,27.586362292340407,36.753525238650056,1020.4751449827191,-59.94628920420606,0.11036633367375386
102.07822465896606,3.7530587471686174,27.593581851084124,36.74576925539287,1020.4790999617854,-59.98710067709811,-0.16773037437694976
102.32122445106506,3.819771460588381,27.594735340146023,36.744816965,1020.4748943603814,-59.9043557358032,0.3404733643335334
102.56470561027527,3.868461320066983,27.602436642039578,36.744095955858974,1020.4790428096078,-59.952651343206895,-0.198423379158909
102.81764817237854,3.633841099680641,27.601197954320035,36.742026265124686,1020.4808465941547,-59.95714378965141,-0.01775454550698687
103.06274127960205,3.462604989262363,27.60578145383614,36.740489692781566,1020.4713556219289,-59.90659913670746,0.20623235228963396
103.30549907684326,3.6077855896419635,27.61324235352609,36.73621620035644,1020.4736296405895,-59.920728318604624,-0.05820256466090268
103.54849314689636,3.7137447489857607,27.617315757805237,36.72680602279016,1020.4774859483716,-59.98870824861861,-0.2797574294886186
103.79929876327515,3.791078383228134,27.617544932588086,36.712050669224254,1020.4747272364498,-59.9907862205808,-0.008285275749392414
104.04183197021484,3.8475198557933203,27.614968420352923,36.699751666433464,1020.4724188035278,-59.97063803474064,0.08307196673306053
104.28558278083801,3.8887133139378385,27.615831742929874,36.68763619647012,1020.4603910401632,-59.9405546632329,0.12341734241191646
104.52831292152405,3.9187781034761406,27.623321268616866,36.66786034023461,1020.4608573207776,-59.872462983902224,0.2805335720086237
104.77064681053162,3.940720703362057,27.62192801734849,36.65177710180188,1020.4687541725586,-59.881474735896674,-0.03718521509260319
105.01538181304932,3.956735373584179,27.6250268226052,36.6322312210899,1020.4684798959964,-59.8408778139106,0.16588582967729087
105.25798964500427,3.968423581164719,27.625916579359018,36.61793878451258,1020.4628759485831,-59.82522386146876,0.06452470416109173
105.51161742210388,3.976954146861731,27.63205351085238,36.59964584043268,1020.4623319437871,-59.89417140266335,-0.271841298263089
105.7539472579956,3.983180127244916,27.63516062516757,36.58943413495533,1020.4670437651516,-59.839648312847096,0.225093693270398
105.99662160873413,3.9877241203525924,27.6360564462361,36.580357220419344,1020.4590411705883,-59.826767866281976,0.05305357507246783
106.24884223937988,3.720884313623886,27.639454029705067,36.562826640167394,1020.4548887388772,-59.823652998577636,0.01234996046011711
106.49434423446655,3.5261329382575677,27.636446186840896,36.554672683980286,1020.4500003465338,-59.82522433245685,-0.006403465860871463
106.73814105987549,3.3839948567170066,27.635622818424224,36.54873522288094,1020.4478259081086,-59.90186101442795,-0.31419687475929475
106.98119592666626,3.280256260848146,27.640509436153618,36.54440180378034,1020.4648980432,-59.954986830080806,-0.21857883434471503
107.22390007972717,3.2045432910641,27.641332129721555,36.54437845790061,1020.4612716003431,-59.82636275374838,0.5303432390433475
107.46870708465576,3.149284650386464,27.644676341538467,36.54437503390556,1020.4671546605304,-59.93692800296766,-0.45131988202906403
107.71127700805664,3.1089544747474744,27.645745206745815,36.54119223778264,1020.4719128284879,-59.92046865175233,0.06785598210297464
107.95623707771301,3.079519746583232,27.649269085404566,36.52629760976445,1020.4683742279532,-59.81618061028961,0.4257298897164401
108.19928288459778,3.0580369930773132,27.64772530531354,36.53743039199432,1020.4631745340126,-59.81311814070377,0.012599898213194113
108.44189476966858,3.0423579388791255,27.65345802207092,36.55023764972429,1020.4624611018202,-59.85140257729984,-0.15780239937166815
108.68696188926697,3.0309146785688506,27.653526348745167,36.55800170779977,1020.4618152957637,-59.899972916929684,-0.19819391618330248
111.0829496383667,3.0225628861154603,27.654948103557338,36.571516918668266,1020.4636662406658,-59.90081846292387,-0.003510001015060347
111.32938027381897,3.0164673822736163,27.589976891176136,36.60394822950137,1020.452955558893,-59.837587616055615,0.026348595863607962
111.59181213378906,2.7418624047874913,27.578332647531486,36.64931210220263,1020.452270610337,-59.813089656445456,0.09325075686887134
111.8353340625763,2.5414436677801158,27.583605803659225,36.653962313016656,1020.4606732824325,-59.851078326539216,-0.1553106885042855
112.09024596214294,2.665325509422394,27.587454383902887,36.671469071063726,1020.4625821085353,-59.90535183504653,-0.2124002972958794
112.34744763374329,2.755739902006912,27.60261022940753,36.66852411838925,1020.472460718999,-59.8939445155449,0.04434680305399945
112.5914134979248,2.821728284792121,27.61367162910293,36.68989266605929,1020.4700423671626,-59.8992275753082,-0.021677475388866545
112.8427164554596,2.8698894960565418,27.621744722958624,36.68036100953042,1020.4774352393496,-59.89642965293212,0.011133620494088644
113.08458614349365,2.905039656926617,27.63312436841382,36.663999718305156,1020.4740059213659,-59.834274819064596,0.25707941797835376
113.32694721221924,2.9306937834893536,27.648341931912583,36.65203174936477,1020.4717977553485,-59.768281745460236,0.27218688856761425
113.57095527648926,2.9494172884010257,27.65670460207578,36.65267478250482,1020.4661756682546,-59.81899351132297,-0.20782661268446317
113.8220362663269,2.9630825221528005,27.664179931959968,36.64999127714145,1020.4589081318123,-59.93009223275013,-0.44247615110181837
114.06416416168213,2.973056008119855,27.66546732911479,36.64022465869126,1020.4561339775881,-59.91402022559791,0.06641080359523506
114.30637311935425,2.9803350948988956,27.670575353856453,36.63930815709531,1020.4639431061329,-59.826796308345756,0.3599313919816839
114.54817819595337,2.9856476911678254,27.675675300997174,36.64020905448695,1020.4636493509469,-59.8987435928622,-0.297557159205085
114.79947590827942,2.9895250565535374,27.679397465737612,36.63776707890474,1020.465587514829,-59.87435464644696,0.09704767586208071
115.04410910606384,2.9923549275946035,27.6807421775384,36.63597144984421,1020.46594830915,-59.934487032934655,-0.24592831912305543
115.28608798980713,2.9944202913951297,27.68309549410644,36.63464754996364,1020.4562876734345,-59.86968151487921,0.26769739309106516
115.52862501144409,2.995927684335169,27.68481304758512,36.636807539322994,1020.4643950168334,-59.894032692139284,-0.10039686450901303
115.77066206932068,2.9970278457087254,27.690182254362547,36.63680083471158,1020.471241083847,-59.920527575874125,-0.10946676703906323
116.01456928253174,2.997830791653154,27.692729049562818,36.630503209303654,1020.4626428733845,-59.92204605141102,-0.006228105637427665
116.2573459148407,2.9984168167628984,27.69595969923278,36.62593378943898,1020.4663711148526,-59.94097295212321,-0.07793083021132892
116.503249168396,2.9988445235489323,27.69694568181261,36.632017653055485,1020.4627591941286,-59.855189895478695,0.34885793948638955
116.74558997154236,2.9991566826898595,27.697665295073705,36.63173514516632,1020.4638389743286,-59.89077169295683,-0.14682097222552054
116.99008893966675,2.9993845100997727,27.70093427436899,36.63154233533102,1020.4596875913255,-59.88251018320879,0.03378941672974125
117.2348210811615,2.9995507885196635,27.699204457560942,36.63138823747773,1020.4586402983396,-59.905459152933496,-0.09381245444821198
117.48703479766846,2.9996721457915205,27.703429509562632,36.63436201578113,1020.4703720353367,-59.862469378952795,0.17038342749588004
117.7295298576355,2.9997607176425296,27.703769363493763,36.63653240940313,1020.4599807845708,-59.88070425629361,-0.07519320587573894
117.97190976142883,2.9998253612577916,27.7081330648145,36.63500345001451,1020.4511279082195,-59.8723492649624,0.03447077944312861
118.22654366493225,2.9998725409988327,27.708574111089867,36.62758118128094,1020.4491416134537,-59.8022914962899,0.27513495285025286
118.46912980079651,2.999906974839757,27.70478034493399,36.63155674593961,1020.4518723687465,-59.80217777957807,0.000468743049915716
118.7170422077179,2.999932106164657,27.703383375284922,36.59366701620809,1020.4529364066874,-59.781838254277545,0.08204847913502267
118.9592809677124,2.9999504481060226,27.705107579691166,36.600565267700084,1020.4536674577641,-59.76558652163633,0.06708999263200946
119.20175552368164,2.9999638348579905,27.70910975359335,36.6103095438982,1020.4508250828103,-59.78410939911143,-0.07638966312234667
119.44432044029236,2.9999736050957577,27.712030715354867,36.60797510251865,1020.4420775488963,-59.8140384556827,-0.12358266309607699
119.68640232086182,2.9999807358431005,27.71279067413846,36.61096765650767,1020.4454477273017,-59.86279844493914,-0.20110132735175246
119.92944383621216,2.9999859401747533,27.720204760402954,36.61315175344719,1020.4460494281791,-59.85890410096728,0.016022992129340666
120.17134046554565,2.9999897385238814,27.72561588520774,36.619455593008524,1020.4416734745472,-59.84940071370002,0.03928953263567712
120.41321754455566,2.9999925107253977,27.72819327401989,36.61620674786129,1020.4344693037932,-59.801575119772245,0.1977229562511419
120.65654635429382,2.999994533999454,27.72870247822062,36.609112247679896,1020.4313637761842,-59.86767502101927,-0.27163384137558094
120.89873123168945,2.999996010673456,27.73181789177023,36.60080799158141,1020.433572162413,-59.85336499870499,0.05908619474909776
121.15048456192017,2.999997088414803,27.731347882970045,36.5900373118945,1020.4450629732593,-59.85445656546645,-0.004336153946702621
121.39247679710388,2.9999978749976304,27.732376736980275,36.57432656164636,1020.4500735497544,-59.84512545996849,0.03855789089851477
121.63715124130249,2.9999984490802207,27.734499526701942,36.59894228183491,1020.4534360374257,-59.80370828458899,0.16928023578421425
121.88801336288452,2.999998868070833,27.733305057566984,36.57610211313027,1020.4515394971918,-59.81577751449622,-0.048110094996823616
122.13145804405212,2.9999991738685288,27.73243328168872,36.561002356282955,1020.4546303141437,-59.8213898073757,-0.02305299078512442
122.37460327148438,2.9999993970530774,27.734540795506152,36.542104220263504,1020.4497482772362,-59.829331239728134,-0.03267379887421279
122.61650681495667,2.999999559942934,27.7360789513742,36.52990919576185,1020.4574577811973,-59.8928066636792,-0.2623058824604052
122.85855674743652,2.999999678827084,27.738573451893078,36.519397239176186,1020.4555280095822,-59.93841051111091,-0.1884052914616143
123.11015272140503,2.9999997655939423,27.739022160587854,36.51330902856411,1020.460659636461,-59.889229657620696,0.19547792672061498
123.35310816764832,2.999999828920195,27.736605873814593,36.52610813752939,1020.4532197101028,-59.84705346980737,0.1735970690122241
123.59899187088013,2.999999875138467,27.737586135949613,36.51662306043691,1020.4575813576798,-59.84806170433451,-0.004100476687427299
123.84199237823486,2.9999999088705858,27.74247000010496,36.50968606987231,1020.4565472320775,-59.90019484386178,-0.214526592011003
124.08602786064148,2.999999933489763,27.740494145082028,36.499955079151725,1020.4570158702389,-59.944830081535805,-0.18291828581139316
124.33035278320312,2.9999999514579168,27.73768019255389,36.4912406975368,1020.4679085544974,-59.92639029136743,0.07546924097824874
124.57241940498352,2.9999999645718622,27.742538646733323,36.48017026995081,1020.4676304572895,-59.962921313161985,-0.1509132382911226
124.8233802318573,3.270156186014636,27.746084559336087,36.47211903749112,1020.4589420131896,-59.960952918877744,0.007844177629360134
125.0654525756836,3.1971718141872314,27.7445040956971,36.461532689779794,1020.4640803797149,-59.972765435002344,-0.04879385821496334
125.30790686607361,3.414060835650192,27.74335060412782,36.45533386160961,1020.4660965263665,-59.888794905995155,0.34633243950157044
125.55906200408936,3.3021997288065292,27.749420935423508,36.45085220466753,1020.4593401719183,-59.83520020507066,0.21339463426123975
125.80140256881714,3.22055859484352,27.749682903086185,36.44602522971432,1020.4626369151517,-59.852659085836066,-0.07204126180663681
126.0455904006958,3.160973320364862,27.74987409855748,36.44090418602816,1020.457022018639,-59.819256446428746,0.13679743950745626
126.29120969772339,3.1174853779226908,27.754182067309888,36.443446974743736,1020.4617500296905,-59.82179568197643,-0.010337592952602625
167.80456924438477,3.0857459732727883,27.75595432452987,36.44681657936818,1020.4600446068786,-59.79673098284129,0.1026062896050963
168.05326199531555,3.062581165950165,27.673351628094263,36.4657462026818,1020.4511976411402,-59.72980711485735,0.0016120007180835975
168.29714226722717,3.3158306870942003,27.651530164478714,36.483941906982395,1020.4518254041562,-59.711998614996574,0.07280639244398497
168.54013586044312,3.2305070650760133,27.648003652816865,36.49236259722508,1020.4586529652355,-59.71889330073954,-0.028270753303036366
168.78417420387268,3.4383903614370697,27.65645771117912,36.493757279547125,1020.4492375291804,-59.77910273032225,-0.2464618594253745
169.027193069458,3.319956482070191,27.663999740172695,36.493205366011594,1020.4635547144686,-59.832801616563586,-0.22088226941325506
169.27124738693237,3.5036744627819734,27.674991791237183,36.49430345751561,1020.4590156400972,-59.81713084678918,0.06420753785153131
169.51345872879028,3.367603677900311,27.68301427142539,36.49668856284322,1020.4559973776055,-59.76968095246786,0.1958980381102987
169.76165390014648,3.2682932608086794,27.69435697680978,36.49999919660251,1020.4513474583503,-59.75915143058192,0.04245119495040722
170.00651836395264,3.195812169797916,27.69989160584832,36.502387934396715,1020.4542413132439,-59.74274552605925,0.06696303720998606
170.2488145828247,3.142912295766944,27.702559133458287,36.5025614248763,1020.453101895608,-59.75346595373089,-0.04423655473732227
170.50050687789917,3.1043036513126667,27.70450601191408,36.502632925659505,1020.4592377563064,-59.75603728416568,-0.010227055642655811
170.7420997619629,3.076125371989656,27.705926929061285,36.50897875122704,1020.4584364988563,-59.72996781079105,0.10790854444613274
170.98395037651062,3.055559629865611,27.708335863628026,36.504204228205886,1020.4504653102823,-59.72875948098878,0.005001719699151904
171.24577236175537,3.040549850728127,27.71009400955757,36.50697188475707,1020.4569734936894,-59.78696200609099,-0.22187016551829203
171.4968900680542,3.0295950566634557,27.70726152040264,36.49648744682434,1020.4615989208062,-59.82521873156084,-0.15234347625046893
171.7579174041748,3.2917559801367724,27.701078584747737,36.485723402294035,1020.4559001920162,-59.80737564737136,0.06835833409139894
172.00932908058167,3.483092501623766,27.700681668607842,36.47464379304963,1020.4584930919929,-59.803450439010994,0.015612303135173304
172.25867772102356,3.352582061401494,27.703135755855556,36.460319421904686,1020.4606800152865,-59.75444397340779,0.19654281596357084
172.51174592971802,3.2573298273193716,27.70355496917541,36.45614473276053,1020.45611315946,-59.764818585573444,-0.040994817792939495
172.7609417438507,3.457966787840829,27.70386092941281,36.440566278868936,1020.4498230816804,-59.664725381018755,0.40165987531433706
173.02166652679443,3.3342442152747265,27.7054561196049,36.4307804582859,1020.443668746593,-59.635377881990955,0.11255998244494192
173.27463102340698,3.2439460642360967,27.70799224627089,36.418914422326736,1020.4413751245929,-59.63177726171187,0.01423926761775869
173.52591848373413,3.1780425196210764,27.70847133555056,36.403945839869394,1020.4438360145436,-59.71721086765082,-0.33986908771929497
173.77742457389832,3.1299432269681637,27.710192882898696,36.399315214658785,1020.4524296197312,-59.737267147553744,-0.07973956859254018
174.03761100769043,3.0948382570120674,27.711449343536703,36.39119728959105,1020.4554500509213,-59.67678652705032,0.23245386048412867
174.28652095794678,3.069217112757178,27.70962258950156,36.38207552262569,1020.4460876387213,-59.660591553070596,0.06506358610028788
174.5370478630066,3.0505176797780065,27.715148779483624,36.378615007451444,1020.4466864898927,-59.730172017976095,-0.2777386110814985
174.79557299613953,3.0368700147766354,27.715066373873817,36.36978077364172,1020.447542397981,-59.74531882889785,-0.058591316057944674
175.0455038547516,3.026909351252928,27.710890569611163,36.36496018765864,1020.4460602578229,-59.68125545446327,0.2563285451009855
175.30352139472961,3.0196396228545135,27.713330432863266,36.35511901528251,1020.44421952445,-59.74806946149088,-0.2589344269542683
175.5546431541443,3.284490068613193,27.710995490861464,36.347950810868966,1020.4407235992373,-59.7636342993275,-0.062002666494595786
175.80409169197083,3.4777895212331913,27.71066323495922,36.35216769081134,1020.4356797030487,-59.72397686017988,0.15899199248949783
176.06201648712158,3.8890241378481516,27.709048853039487,36.36466518809592,1020.4401893034469,-59.676184249751785,0.1852228948769578
176.31136679649353,4.189161168247927,27.703754945383473,36.400516780219,1020.4379521051924,-59.702824634508566,-0.1068403124253307
176.57324266433716,4.408214315472495,27.697147445738985,36.47854023464932,1020.4315498579599,-59.666372588760424,0.13919564133436738
176.82308506965637,4.838245106115955,27.690900351269853,36.57000476637473,1020.4238828910916,-59.56358831658093,0.4113924984512522
177.07400727272034,5.152100407371011,27.687765600076247,36.65084854123672,1020.428078790585,-59.532585215892404,0.1236242848249995
177.3264660835266,5.381165749363167,27.6895933824305,36.717700310291,1020.4235848204216,-59.550471670188216,-0.0708141576903588
177.5767378807068,5.818503878163283,27.688183604000976,36.77118818501423,1020.4143913782872,-59.49328238098622,0.22849892923920473
177.8352837562561,6.137692394779727,27.688526572984962,36.80551689155997,1020.4140143482065,-59.51550357889182,-0.08581973107478577
178.08544635772705,6.370650150874144,27.684608460842085,36.83686275074337,1020.4081653943388,-59.45097281989566,0.258746103756522
178.33718276023865,6.270516710184332,27.68728916397219,36.85501876358148,1020.417491172827,-59.47065067119504,-0.07792985917784644
178.58971071243286,6.197434940512954,27.69061754551292,36.87453610858645,1020.4259855309604,-59.504237933853474,-0.1334032728073876
178.84842109680176,6.144096664892872,27.691674857091535,36.895059516036056,1020.4250932038605,-59.4623530269688,0.1614285710875522
179.09909391403198,5.835011843890434,27.68833086833907,36.93360776798707,1020.4151977535355,-59.42896953661423,0.13357931267111814
179.3490149974823,5.6094282072770385,27.68446562702197,36.9507913388472,1020.4152373002794,-59.47663010215555,-0.19012369815397656
179.60854315757751,5.71494360326299,27.674785169590017,36.97429542406717,1020.4131137008852,-59.47437074495496,0.008731269481267234
179.85789585113525,5.79195335957524,27.674579382934116,37.00561238527987,1020.4163784094765,-59.49194691359167,-0.07027357814537072
180.11819577217102,5.848158451845015,27.674429190821627,37.03318933632446,1020.4108274583206,-59.42756199030099,0.24806835618765505
180.36728858947754,6.699648024914219,27.67020391300107,37.06746504844053,1020.4053827530178,-59.38716592712153,0.16168108472734477
180.62103080749512,7.861414824218129,27.669863894257443,37.111244356333096,1020.397817991576,-59.332895416498836,0.21451257877105753
180.87142515182495,8.709323105943852,27.67515604662833,37.17460849389968,1020.3979080080422,-59.32051223297983,0.04930899046883614
181.1228334903717,9.32816369826396,27.67485006523669,37.25222068525481,1020.3937559951374,-59.32685507377894,-0.02530482971147778
181.38414430618286,9.779820660410465,27.67605139851726,37.30263183615774,1020.3906009552471,-59.26721382427304,0.22765837925500396
181.63903975486755,10.109459688598015,27.672759758224192,37.34727079047842,1020.3915871483655,-59.2544457390729,0.0502237008060645
181.8881356716156,10.350044685645369,27.6648698269499,37.38770759158937,1020.3910380761024,-59.25666221388821,-0.00887104299345671
182.1397020816803,10.255477939385615,27.667342731701062,37.42819458379513,1020.3916986821623,-59.31382854811533,-0.22792997095337714
182.39735054969788,10.186458987064425,27.66777567885892,37.4608823565246,1020.4002843201687,-59.26436406757801,0.19797271345653747
182.64865803718567,10.136085933449676,27.66397600161244,37.48942577658238,1020.403299198844,-59.24748785652186,0.06513116094783185
182.89751267433167,10.099321473179895,27.663946604804025,37.51183822878697,1020.4078219434264,-59.29772431903457,-0.2012565899678092
183.14837336540222,10.072489160228104,27.666668923752834,37.53761157523423,1020.4004400156367,-59.31163034802929,-0.05560168602321102
183.40133571624756,10.052905763299123,27.67008044322547,37.57842220870062,1020.3969973650787,-59.329469796827546,-0.07031339673816932
183.6626455783844,10.308769154571696,27.67114566762211,37.60190019518177,1020.3979434999877,-59.28694114066198,0.16322033025963392
183.9126706123352,10.765665673173082,27.667807453990726,37.62846105637037,1020.3974105296192,-59.248211622808675,0.15444042335248664
184.16371893882751,11.909597394706703,27.6722832794606,37.654113186600284,1020.3940272627681,-59.316383236736414,-0.2720593505223811
184.42047500610352,13.554957491325922,27.67138150695117,37.6822402720049,1020.3810452986841,-59.238938581083744,0.30153244457435724
184.67321181297302,15.025969548949377,27.67351989279881,37.721579839306166,1020.3760825528259,-59.21104864489358,0.11034816031686795
184.93194460868835,16.099578561467766,27.67091215450097,37.77539903740859,1020.3739864299251,-59.165905947923136,0.17448159686862175
185.18221402168274,17.153301642004575,27.667637025889817,37.915135144780415,1020.3642662485147,-59.08194029905923,0.33549401072705537
185.4314842224121,18.192511098613487,27.666618580631056,38.11595940293208,1020.3588599484927,-59.09615450538716,-0.0570228512027795
185.68463397026062,18.680815453212105,27.66724716169881,38.29862460113751,1020.3603178065908,-59.12959915778257,-0.1321610304412786
185.9346330165863,18.76704514126029,27.664962153659626,38.44762182824355,1020.3578360380402,-59.12709292588448,0.010024898910888667
186.1912386417389,18.829979343434502,27.661922567722993,38.56578502855379,1020.3551409692593,-59.05989626507314,0.2617755124437148
186.44108271598816,18.875911479952165,27.66107603182207,38.65986251502853,1020.354986673269,-59.00213136632333,0.23120269435363391
186.69472861289978,18.909434764465047,27.659086305839942,38.69242407935033,1020.3635289377047,-59.017274129215124,-0.05971999650978749
186.9470090866089,78.36826813718577,27.65763411669181,38.749171186607505,1020.3626718299821,-59.04126809496024,-0.09507891263655684
187.19763779640198,163.63814116372964,27.651086697409212,38.81409182777202,1020.3629751858693,-59.03852211456822,0.010956399332364433
187.45679926872253,228.5733904253629,27.655911313211412,38.95401845195869,1020.3514605824149,-59.04908557668394,-0.04076161875412495
187.7083580493927,275.15551009391754,27.65668875505793,39.11732038647383,1020.3503180444668,-59.08023888905474,-0.12384049826615308
187.95936822891235,308.8830245599923,27.650396731093192,39.21456695380366,1020.3525300623758,-58.98208368615307,0.39103589781340586
188.2086579799652,333.49884148206627,27.64031698843413,39.25419517746637,1020.3530460012296,-59.00028204225009,-0.07299970234797323
188.4696798324585,350.38391770486027,27.63021657684166,39.245488819750506,1020.353636496359,-59.0918619191509,-0.35084304701325725
188.71901679039001,361.62676085065374,27.62284485418336,39.236014455955285,1020.3605692730209,-59.12165719433262,-0.1195053430335197
188.96963024139404,363.6186872084648,27.61609276117998,39.230651418266156,1020.3728903251681,-59.213645776973934,-0.3670421298374517
189.22923970222473,359.93951426156116,27.6111647880446,39.19223946005803,1020.3777077265374,-59.258795405916494,-0.1739120529715992
189.47873854637146,352.39148092712406,27.602027824524903,39.128163158824016,1020.3812236770017,-59.298395648564046,-0.15871535103005122
189.7382366657257,345.8019708379128,27.5953592684577,39.045311947286415,1020.3813419648969,-59.276277743876996,0.08523644525141971
189.98911333084106,340.4523454087495,27.58637660319603,38.95661835532917,1020.3897439951204,-59.28948959098193,-0.05287295317351474
190.2379755973816,335.46732967297464,27.579820660753967,38.874639848718516,1020.3872218941532,-59.3812325762991,-0.36773682050061424
190.49620985984802,331.5588906926256,27.5750358468873,38.79283476397903,1020.3877031366351,-59.36609022345925,0.0584635383989766
190.74677205085754,328.4361845696675,27.571543680209363,38.71433754373221,1020.3829460082676,-59.31519173955831,0.20375171758112165
191.00537037849426,325.61678447993285,27.570366831065773,38.64135391824851,1020.3912531928846,-59.358778509671666,-0.16806091966932757
191.25797057151794,322.74859420257656,27.570879802042167,38.5896167137091,1020.4007321572175,-59.28855006153655,0.27884989442471503
191.50680232048035,318.76416986237643,27.5739979647496,38.5738475743787,1020.4054148122104,-59.266288650822744,0.08919697324557299
191.76228499412537,310.7231944828527,27.577645623445406,38.56389959608439,1020.4138543983129,-59.27835463064431,-0.04736612856322432
192.01173663139343,306.2053196109725,27.57756407045893,38.547227846569314,1020.4103914802729,-59.34727096096012,-0.2754378421188744
192.27234959602356,303.4482891239328,27.574760775491526,38.52095073296231,1020.404951850335,-59.424805831793925,-0.29837603895871495
192.5212094783783,299.2748378543132,27.575458582100097,38.487671216710595,1020.4008557946287,-59.43389300206264,-0.036405237902919274
192.77233695983887,302.4424632431727,27.573224097891856,38.444551460145085,1020.3928840101554,-59.4761673802599,-0.1688464755200922
193.0229730606079,318.8024579736749,27.570221386459387,38.40053189634422,1020.4018830893497,-59.34871544551808,0.5069821889715266
193.3294711112976,339.38769728143717,27.561170441105805,38.33554052888941,1020.4008118607278,-59.30078533428955,0.15676443493586498
193.58052372932434,358.4640494954178,27.56005221291645,38.288055240409825,1020.3996485444464,-59.37028810310931,-0.27602233176736013
193.83164143562317,370.49571317583866,27.560607968032148,38.23612572249531,1020.4036126351131,-59.34168262557323,0.11425345707594046
194.0905532836914,375.4947612076404,27.55689792141083,38.201406609001005,1020.4040578132763,-59.32536228947371,0.06285127138065308
194.343195438385,379.1432853602062,27.55144639290377,38.174489681976944,1020.3899040418503,-59.324628734427,0.0029122707281695006
194.59477019309998,385.318168803124,27.547467628687087,38.17053053902155,1020.3988655903753,-59.326893105250164,-0.008973683634685155
194.8471963405609,390.36518155009753,27.544563752339116,38.15822940967843,1020.3935014398627,-59.369432951174744,-0.16903322203797488
195.09792232513428,395.12933729956734,27.546560037265287,38.13201455707988,1020.377681939295,-59.296684053153385,0.28926948054012286
195.35915303230286,396.98548950776404,27.546645126404577,38.11915617801494,1020.3706106981681,-59.24358872183931,0.20385390901638686
195.60859847068787,399.15065930235204,27.541219680130684,38.216406360343605,1020.3691647888995,-59.22650326429974,0.06828354752066329
195.8709740638733,404.2429257815066,27.53863183888327,38.39876960232853,1020.3535880413971,-59.13330046190707,0.35625317766211934
196.12036752700806,409.04010968629836,27.53399934499736,38.51146647490392,1020.3397283657247,-59.007609112660205,0.5024692563162952
196.37325525283813,415.51302289030804,27.536105896164827,38.63604711392007,1020.3234503705544,-58.844228575193775,0.6479986475995585
196.63100337982178,421.0477070189635,27.530731149496592,38.73640488721089,1020.3089530669995,-58.72394516535002,0.4653025191941656
196.88464307785034,425.8976304851302,27.529604962939974,38.753196059764,1020.2952475503229,-58.54284534542332,0.7164360399929917
197.13491034507751,429.7074732116816,27.528783022677352,38.79681493274553,1020.2833872022811,-58.42184317307633,0.48273713637638194
197.38589787483215,433.56868810688763,27.530926908709283,38.78941776921701,1020.2734634964239,-58.38559060796087,0.14439430536854378
197.6446750164032,435.8464593890392,27.535235384638966,38.79027881276883,1020.2708205616279,-58.29517368456013,0.349510219333128
197.89690613746643,436.4282517626081,27.539751786045958,38.78307911344371,1020.2692305183652,-58.37492001012617,-0.3160719838930088
198.156800031662,436.0424006768229,27.545791827584363,38.77624254017286,1020.2834764158033,-58.39851975536978,-0.09080430890248674
198.4097981452942,432.5189151162603,27.551572001394618,38.766527262625154,1020.2989820496981,-58.502769456207155,-0.41205606087428465
198.66183757781982,432.3787269741685,27.555790625344336,38.75789573380291,1020.3095829502199,-58.616261484201246,-0.450285358192322
198.92090487480164,428.7643807751622,27.55063823974802,38.776682599184035,1020.3257219561056,-58.73965364901321,-0.47629956583553273
199.1710329055786,424.50553538244225,27.54962157715333,38.806096343910035,1020.3495316949372,-58.92161861682968,-0.7275046443887347
199.4319257736206,420.58677489235157,27.548879572273975,38.822859060183994,1020.3759013839302,-59.085178581385335,-0.6269141231325696
199.68165802955627,416.6460670440095,27.542850476568372,38.81940400372594,1020.3921918066368,-59.19581761127967,-0.4430069103386568
199.93105387687683,412.95949726445343,27.543937726573247,38.81534067167698,1020.3906999839932,-59.34156474793045,-0.5844326622684807
200.18497586250305,411.3495020588293,27.52547206616257,38.802979460664815,1020.3874180411561,-59.29558922131806,0.18110566459370414
200.42925715446472,410.98492569470295,27.5271385406508,38.797066974526764,1020.3983605168235,-59.34276067126821,-0.19323822506473828
200.68238759040833,412.8800915950201,27.525611032677286,38.777075878503034,1020.3986216502768,-59.33245762370762,0.04070283036755753
200.9250454902649,415.0737352904542,27.521699651559548,38.751514524668394,1020.404046659334,-59.399357646220466,-0.27579712822617863
201.17224192619324,415.86428387931875,27.52712904131336,38.712434620560515,1020.4172082303788,-59.39401105953841,0.021621537363118764
201.4183008670807,414.0098549492704,27.525604099644863,38.651036696261606,1020.40507414806,-59.4187717816924,-0.10062845158623329
201.66578841209412,421.03125408217,27.529978678494494,38.610907746412046,1020.3991733617095,-59.365202736790465,0.2164539802551786
201.90853548049927,425.07515377580006,27.529055776653344,38.58003634184035,1020.3991723089101,-59.393548754926904,-0.11676758141267918
202.15113639831543,428.8370374826251,27.53386975053117,38.55279983416011,1020.3945278704083,-59.31604000533466,0.3194825883378145
202.39383673667908,431.85278114958425,27.533267538421885,38.542324283380324,1020.3946840374915,-59.271003462293635,0.18563789376030282
202.64609599113464,431.89255323652867,27.528659591729422,38.55038478916792,1020.3980912397408,-59.31117342300161,-0.1591864677373708
202.89107584953308,426.24830019782144,27.52392462344649,38.59078445418968,1020.3866070727362,-59.30729254236993,0.015841723963851966
203.13384294509888,418.07653400082177,27.519096949244798,38.617133427876304,1020.3915226483098,-59.267082568238266,0.16569975431886105
203.3769223690033,410.2213277208027,27.515573501217585,38.645794098782844,1020.3954479738919,-59.30413293341899,-0.15235581624709557
203.61985754966736,402.3270045178908,27.515745708588952,38.66983454734434,1020.3919808861399,-59.29133475904298,0.05268272942009261
203.8655903339386,397.375850402383,27.51175573202898,38.67797107708746,1020.3817255551224,-59.25788190785125,0.1361350757121906
204.1214349269867,395.1130623864716,27.512959333462142,38.67291037203823,1020.3957678517781,-59.25932655240908,-0.005646549554353122
204.36614680290222,389.6793936430044,27.511094000464695,38.66296542204602,1020.3931430290087,-59.30476238158148,-0.1856631185138648
204.60961318016052,385.44350805196603,27.51110448577713,38.632145783652454,1020.3922826165074,-59.2295908925811,0.30875874201913545
204.86964774131775,382.3519732661243,27.509740251403862,38.62694064177472,1020.3984510227418,-59.274323609545945,-0.17203061858139118
205.12354707717896,380.90610444250984,27.4977694773137,38.616875953030295,1020.3955656656887,-59.22554624958471,0.19219925726626652
205.38804244995117,373.90740940197026,27.494520230258548,38.57190701426189,1020.3938392682109,-59.25284587505934,-0.10292620094883463
205.63284969329834,372.8517984797023,27.494892561506074,38.535957901218055,1020.4031752302335,-59.27242423660689,-0.07997164113412071
205.8779239654541,371.2708987697897,27.495164305154205,38.49086945444973,1020.4032346075039,-59.23674147062952,0.14559867078689356
206.13122487068176,373.0888072674441,27.493990748554346,38.44231069000516,1020.3995633030846,-59.27744313066682,-0.1606925786764574
206.37491250038147,376.5768461868161,27.491762348546512,38.38021694375981,1020.3972212416523,-59.266607780388306,0.04446392247223816
206.62286520004272,385.06600638604584,27.49150785165674,38.33958648165317,1020.4049254195043,-59.33383583299402,-0.2711270948898136
206.86705207824707,389.91098616452194,27.485834560628998,38.26917156201393,1020.4051449940787,-59.41504851689291,-0.332587066719246
207.11057376861572,394.52768940693676,27.483065831427567,38.228775912608235,1020.4034479434252,-59.47397624320561,-0.24198095388540466
207.35649132728577,393.0343497763557,27.481045091618892,38.24002850077335,1020.4054596468912,-59.528515897716986,-0.22177980723896895
207.6002562046051,389.7831954284371,27.48231404124893,38.30157205927406,1020.4035088844568,-59.537570238807746,-0.03714400196234895
207.85295963287354,386.87004819961896,27.48324017625386,38.39198218875323,1020.4110343760377,-59.597992682252986,-0.23909943263758002
208.10073471069336,381.50203124830296,27.485287997147587,38.486180186651126,1020.4200728126132,-59.64103996126278,-0.17374667480761868
208.34485268592834,375.1528115149725,27.486782586506074,38.572179424379506,1020.4194505107398,-59.63891469504911,0.008705362453758707
208.59815907478333,369.97856050939595,27.486501516251757,38.6443736272199,1020.419756322341,-59.62617704008048,0.05028513937609675
208.84211564064026,368.36341524973216,27.483552604845794,38.69707063137631,1020.417995187181,-59.563410979302994,0.257280986928025
209.0879762172699,362.8621121250953,27.47591281212077,38.74335846140046,1020.4313996491253,-59.573862464889125,-0.042511002196358456
209.33154559135437,352.0931149161769,27.473080730884647,38.780290221528816,1020.4285188863361,-59.499718619823845,0.304405152610531
209.5756480693817,330.18530618155074,27.473757528013806,38.8088190133012,1020.4358300156945,-59.60006528811581,-0.41109261715562073
209.81961369514465,312.03477837010655,27.470135823154116,38.820226123582614,1020.4428960303674,-59.665615200891196,-0.2686784710834581
210.0628502368927,302.84007157374765,27.471608205400067,38.81913018213738,1020.4526551322762,-59.65998677611412,0.02314017078832695
210.31596612930298,296.39952814663513,27.467195266382383,38.81207796884839,1020.4489710247576,-59.7208797386715,-0.2405727665160942
210.5595760345459,293.04971859354436,27.4722058323334,38.80532954257415,1020.4502925548272,-59.715353173702084,0.022685548598039732
210.80322074890137,292.49597438290954,27.47860653679458,38.79726799645739,1020.4430261739428,-59.70992356312921,0.022284776759471374
211.05641770362854,292.0918276105657,27.483278051185216,38.77255967593087,1020.4360342130315,-59.66507481659524,0.17757097247873138
211.30171513557434,292.87748844676497,27.488059413957785,38.77491923874206,1020.4463395773462,-59.655059638739296,0.04082783756017132
211.54689288139343,292.37027328015415,27.490177174862723,38.76408257833345,1020.4414922547307,-59.70540824931161,-0.2053657338166227
211.79033780097961,291.7299292296871,27.493094696517343,38.759316677805685,1020.4470726499105,-59.73831103047226,-0.1351493713136136
212.03355312347412,291.8028905259321,27.493852144560286,38.763672350205226,1020.4530028638442,-59.80041745927337,-0.2553567418832231
212.27764081954956,292.3964532985136,27.498520624349492,38.77311062795433,1020.4511256645227,-59.80346242726227,-0.012475453942741313
212.52127504348755,293.910286248433,27.504724424235597,38.784716852579464,1020.4564661377856,-59.865078670832055,-0.2528930818366289
212.76505947113037,292.04342949260763,27.505083803119902,38.79945360783946,1020.4573681361852,-59.90096359772415,-0.14726610563667197
213.0084319114685,288.51966599106987,27.509514519491557,38.80548465009977,1020.4524542205515,-59.924707502954796,-0.09751988230195273
213.25147438049316,289.7300560548421,27.511323598413828,38.83654560462395,1020.446250540281,-59.88577490159991,0.16018862753933652
213.4955644607544,291.6940765715852,27.515440482339432,38.86548789882804,1020.4439163101484,-59.832898307012705,0.21662335985540968
213.74844121932983,292.8573485336151,27.521188938525803,38.88502436416243,1020.4403552314891,-59.879923236839005,-0.18595864538614473
213.99118518829346,294.2466677727498,27.522640639537933,38.89459087715707,1020.4402469172912,-59.902712088840964,-0.09388527022467108
214.23469281196594,295.26065378915945,27.523700154503853,38.887433319371354,1020.4438404167676,-59.80157648991924,0.4155259904646725
214.48722076416016,295.7305489726134,27.528589095960392,38.85241841470253,1020.441355025608,-59.782627857444524,0.07500044823355696
214.73010683059692,296.61381147707203,27.53215725951297,38.81433029117025,1020.4390767071154,-59.76635279177934,0.06700620664514646
214.97537302970886,297.52861134110947,27.536133348530257,38.77395709843449,1020.4442105101228,-59.838340381027166,-0.2935088464793191
215.21809005737305,297.6559599155146,27.539035272400568,38.746052291494074,1020.4480837693959,-59.84859393611912,-0.04224302667233938
215.4611840248108,298.55937311708607,27.54664077156458,38.69274157234798,1020.4502772139622,-59.81659015518104,0.1316600278395479
215.70593452453613,298.6784112066229,27.55219159788505,38.625607770256096,1020.4450383869513,-59.82223124562152,-0.023047455037258753
215.94869875907898,298.76529041682204,27.55487094698061,38.538949179556454,1020.4487712522882,-59.79314988765905,0.11980247963934557
216.19029927253723,299.6391673043183,27.556826453274233,38.444337769858706,1020.4441084333321,-59.87536443599423,-0.3402647546098038
216.4332356452942,300.547117134118,27.55962555440869,38.34546370234589,1020.4419722979493,-59.84590573902786,0.12126048063140758
216.67674493789673,299.85899761797134,27.561668460984016,38.23723814757756,1020.429141971694,-59.776185801144145,0.28630512447894696
216.92174363136292,300.43740271110835,27.560415689630926,38.15669095076925,1020.4305847366198,-59.822451850902006,-0.18884496684316088
217.168114900589,299.77892322786965,27.562245136267748,38.11672879206407,1020.44092537883,-59.78353308956094,0.1579723711544134
217.42047595977783,299.8386484911612,27.560836572504524,38.057756686764506,1020.443997632644,-59.741150956229845,0.1679419691210118
217.66321349143982,300.6927072391838,27.55843665397834,38.00686290198029,1020.4443395541404,-59.74830667263144,-0.029479088836375122
217.90641403198242,300.2354118636382,27.560800749390225,37.99324996565607,1020.4570848356157,-59.764706365153714,-0.06743094540644076
218.19755458831787,299.36134525071316,27.554294847660668,37.994314109192075,1020.4628408145821,-59.766897950567866,-0.0075277087350887235
218.4408311843872,299.80403801034595,27.561893538817873,37.99507250435402,1020.4618902248632,-59.769185953491444,-0.00940486170844774
218.6933832168579,300.9376032066283,27.564695622330042,37.99247937137799,1020.4527544548063,-59.7173922147662,0.20508881399174878
218.93673491477966,300.9544600879585,27.56948447960204,37.9858435822509,1020.4468031071237,-59.66665730353574,0.20848206242142595
219.17978048324585,302.0473878255712,27.57297959733424,37.98728497694158,1020.4430932099033,-59.71384700572222,-0.19416160973393912
219.4324460029602,302.03458571012607,27.582442687252044,37.98989662815502,1020.4342224682391,-59.71997637765854,-0.024258288729722657
219.67511892318726,299.3236800469771,27.582437064692872,37.998059481332824,1020.4388898895285,-59.69682256497306,0.09544817668607516
219.91946363449097,294.91373648168104,27.58797327404176,38.00556779816715,1020.4371878055432,-59.68096442315381,0.06487594468947719
220.16248154640198,291.6951665645531,27.593385729058237,38.01733219467353,1020.4394915262635,-59.711680230794414,-0.12639529199235525
220.40549659729004,287.9953322445223,27.598707862743947,38.02904710113935,1020.4410035012432,-59.755400512065584,-0.17990841590031623
220.65018033981323,286.10549978455856,27.60122030194064,38.05329444713003,1020.4386866063888,-59.745382209162656,0.04094372495957561
220.89301657676697,285.26652972679403,27.604425877094805,38.06471592160244,1020.4461147735576,-59.66642576138633,0.3251692723365234
221.14586687088013,286.0049937010671,27.608137333221862,38.06834531053612,1020.4427558830724,-59.61929379446426,0.18619583839742346
221.3886604309082,289.7858315879066,27.608102342394286,38.047470494926735,1020.4453692649038,-59.55798288873545,0.2527943577054059
221.633296251297,293.62587748102334,27.606704917542725,38.00239776724207,1020.4497681873569,-59.566696984671744,-0.035620825654675746
221.885320186615,296.15835491037075,27.60568501569544,37.92874763211241,1020.4406524919534,-59.55279430355494,0.0551632949782791
222.13053512573242,300.16791752572834,27.602144107755745,37.846742487971106,1020.4316774000864,-59.63491564366629,-0.3348898034505735
222.37300276756287,303.0942718936588,27.600984449990165,37.77278062640394,1020.435005371677,-59.65116021194702,-0.06700126433073313
222.61593437194824,303.8792723915969,27.6001380809736,37.70935409288936,1020.4351121743957,-59.65917167413173,-0.032976223451366464
222.85860538482666,305.53282497618125,27.605007911858042,37.6489191397603,1020.4367089914597,-59.70658213289505,-0.1953694624696958
223.10386514663696,306.4695038465121,27.609934014691696,37.60011434097353,1020.4424747787912,-59.691568715591835,0.06123798498735952
223.34870529174805,307.9636017371091,27.61490118725793,37.567622020637295,1020.4460489517338,-59.69458679109371,-0.012321906826718881
223.59397768974304,308.5137473776737,27.615782673273138,37.54230623545856,1020.4454064486523,-59.71320624347321,-0.07594746942057162
223.83694744110107,308.9152677560057,27.61916979439248,37.51913281148371,1020.4347641462738,-59.69219310840715,0.08644775690209953
224.07981133460999,310.28893975742477,27.62301375071448,37.49124622487294,1020.4337496165112,-59.57970065753653,0.46317269173864084
224.3223922252655,310.75119331084306,27.62444735134452,37.461455942226856,1020.4317854411985,-59.554903011831044,0.10222875525778742
224.574471950531,309.46762892411584,27.630981203912654,37.44128295279875,1020.4286193059157,-59.57281173866242,-0.07107381396461734
224.81733798980713,306.36957773482703,27.63163423458182,37.42811806183703,1020.423227059026,-59.55268341022866,0.08284123250978574
225.06000804901123,300.3262973528179,27.63348273197258,37.43735168837695,1020.4260886133345,-59.600177971394594,-0.19571718616439515
225.3027422428131,292.40361595175926,27.63757562033742,37.45661252121266,1020.425854857396,-59.59254819048733,0.03143395478893448
225.5553958415985,282.8391091796735,27.640562789485998,37.467552807387754,1020.4253448747857,-59.63274784930549,-0.15910782932045683
225.80036163330078,278.8302316561432,27.64411484334659,37.48961826707224,1020.4259015792362,-59.53313602559737,0.40661269584917353
226.04331278800964,277.79547078132873,27.648079174805247,37.507291880497576,1020.4239856064422,-59.54465252883522,-0.04740449964280254
226.28645420074463,302.70509711245313,27.655088178534665,37.53902194648937,1020.4217832538403,-59.56631164499646,-0.08908067478738317
226.53887605667114,315.48210891739,27.656087995327315,37.55432328400158,1020.4222035031756,-59.53566649214578,0.12139591482715371
226.78350925445557,310.48905238486884,27.6568177054027,37.57024010023126,1020.4175709414983,-59.57866381404556,-0.17577252322211004
227.02875423431396,310.6270880570375,27.655978392754943,37.573990004622274,1020.427024991018,-59.62542457508678,-0.19066811234079362
227.27180647850037,315.3204881367279,27.651250164592447,37.56731134703339,1020.4243410655959,-59.557145425355536,0.2809292690752697
227.5145103931427,320.3668743013209,27.649171183652605,37.55934077304036,1020.4284646212958,-59.472043028508104,0.35077311969266045
227.7593765258789,332.15463425219525,27.647653852328027,37.55665133768543,1020.4367526086355,-59.48157879568887,-0.03892814630436787
228.0021321773529,342.91910732326227,27.641058889432607,37.55003378813798,1020.4368079382691,-59.52350678526673,-0.1727088700268452
228.2544105052948,351.3158035503988,27.629386161663394,37.59701364115333,1020.4312751573,-59.53244278926949,-0.035436683779226416
228.4972403049469,363.92782921749466,27.62361066783734,37.678322577934516,1020.4227623326573,-59.47360501081118,0.24219371641895465
228.74005722999573,369.35045084013694,27.622139233571843,37.75963102692539,1020.4168441889345,-59.38068071208952,0.3827037376810863
228.99396634101868,371.95733648743476,27.622437203426944,37.84409429690167,1020.3958054030041,-59.28210196356153,0.38840361215549374
229.23687529563904,375.48089305470586,27.62128278786133,37.93394416224276,1020.3957321523559,-59.20631003764687,0.311894770231381
229.48191356658936,380.2137886224207,27.620440244831844,38.08269917514646,1020.3853359750549,-59.21214315072742,-0.02380400302606014
229.7249789237976,385.0188441117358,27.622569094062367,38.19437389453086,1020.3769891928123,-59.13181243933607,0.33061826827879137
229.96833062171936,388.79594022409617,27.624122821449124,38.31195960819488,1020.3731748837009,-59.10394311605774,0.11447515669482938
230.21272373199463,391.2824741469945,27.626628686744205,38.422891445133835,1020.3646927951935,-59.102827415545065,0.0045654196733542225
230.4560148715973,392.0166306371057,27.624341915923473,38.51799213445252,1020.3484991683492,-59.06777792983689,0.14406396289406
230.70096468925476,391.47182534344097,27.626788591485322,38.56858514798404,1020.3402260397506,-59.094252176589514,-0.10807797333456258
230.94378399848938,394.8563895503233,27.625830508418883,38.67292416866547,1020.3395913674867,-59.02935570268105,0.267394735027474
231.19027829170227,388.4114377204737,27.619643709390687,38.76790349032582,1020.3391281558775,-58.884832415339595,0.5860553229524635
231.4346423149109,376.6835681540088,27.620615860605202,38.8717350015038,1020.3355391054405,-58.81358709513446,0.2916564899638431
231.67994928359985,375.1481169116075,27.615837831076593,38.988303595125345,1020.3248994402776,-58.75951952507911,0.22032000846539074
231.93106484413147,372.406540089137,27.61646627694588,39.101614167586234,1020.3293341951943,-58.78645782499351,-0.10727543146063818
232.17321944236755,361.4904622838161,27.61418117023293,39.16863076952983,1020.3348930016817,-58.81765322905484,-0.12882318925176875
232.41611099243164,365.41030402922905,27.609769625266452,39.211274474411816,1020.335868724473,-58.806185058363845,0.04721440215820167
232.6679744720459,372.5936755675112,27.60929366060344,39.22514154041612,1020.3390725502857,-58.87226915562223,-0.262385841212248
232.91055750846863,378.91703951003103,27.60203408079859,39.22115302048575,1020.3398922844005,-58.92818961638048,-0.23053064625974756
233.15555238723755,387.85460679350024,27.598107608587004,39.18533059612398,1020.3434075930037,-58.99034596065182,-0.25369824846091676
233.39851331710815,396.268728239421,27.59112623619389,39.13724167363061,1020.3564850255061,-58.99518345305752,-0.01991008897972521
233.6418011188507,402.67987872115555,27.584659037906754,39.089604080678306,1020.3629914660477,-59.09378254440559,-0.40526923891715533
233.8864929676056,410.060579193722,27.582682767437113,39.0469820273942,1020.370821633536,-59.10038986761575,-0.027003207835673584
234.1292908191681,412.20546304320095,27.57438096364413,39.004908956103776,1020.3684725095771,-59.06676760657843,0.1384800442653519
234.38096141815186,413.770893197,27.571065717742385,38.96324343105477,1020.3669273263962,-58.997495890448306,0.2752517235300518
234.62350273132324,416.2641937298573,27.567274219101467,38.92026104841556,1020.3616635447834,-58.97244859854459,0.1032711218224738
234.86612915992737,418.89438227131524,27.567250791397516,38.874775090620126,1020.3610290681455,-59.00622944172969,-0.13922862660602336
235.11058592796326,419.1930717686748,27.56723369283332,38.86196648058049,1020.3591728330717,-58.964485749258365,0.17075754481871364
235.36256980895996,419.9513808666452,27.568593100565867,38.8181064210277,1020.3559605167214,-59.002860327916046,-0.15236492381711256
235.60572004318237,421.5854528987667,27.569585255855,38.77198645734614,1020.3560636847429,-59.00535779254657,-0.010255122741485833
235.8482813835144,421.69744537327824,27.56893748721622,38.73046930782762,1020.3531831969576,-58.99460612525722,0.04437205293501217
236.0909628868103,421.509026173246,27.572580378339296,38.69233306699426,1020.3501520915235,-59.00702268798657,-0.05116508153090043
236.3422451019287,421.64166580241,27.573867232782888,38.655095975498874,1020.3510650105034,-59.118809773986186,-0.4448611977002441
236.58187651634216,421.73847201181496,27.57480643550477,38.61850769698796,1020.3588619503143,-59.0875402089216,0.13049181586313766
236.82439422607422,422.6195940580164,27.57823568080395,38.59022789657842,1020.368267789243,-59.1013999221532,-0.057173114685969174
237.06673502922058,422.4522068744045,27.580738494183525,38.563298641949444,1020.3789734583713,-59.097539358206724,0.015923682583048784
237.30938172340393,421.51957174261815,27.57982138295463,38.538923063516236,1020.3796951689135,-59.14642685539448,-0.20146852635422818
237.55325531959534,422.4598310563235,27.5791520350212,38.51957208596341,1020.3749050832114,-59.128281910526816,0.07440372719358028
237.7994031906128,420.984823780688,27.58140728961671,38.49445260855616,1020.3667650343516,-59.14299026527641,-0.05975454678911186
238.04215216636658,422.06954857809444,27.58168138616048,38.48397033644508,1020.3624255263376,-59.09501604309413,0.19762835529377248
238.28466987609863,422.8612282333103,27.58604985974566,38.460617623617274,1020.3599789243254,-59.040457647222276,0.2250527122620367
238.5277178287506,422.08824965249903,27.586441624143454,38.438875688705494,1020.3630456588091,-59.05478563102557,-0.058929643209323083
238.77112078666687,422.6047208844242,27.590895976880958,38.41672466674946,1020.3651144172511,-59.02923703542939,0.10496769105571435
239.0239782333374,423.2518204166634,27.589978532631193,38.405280003326794,1020.3710989631797,-59.00642520617081,0.09025233244279522
239.26795172691345,421.83300850746747,27.5921054805565,38.389075729582856,1020.3709920714199,-59.0285441534664,-0.09061920806513549
239.51046109199524,421.60796608463323,27.59365782028746,38.37094983159192,1020.3658054948864,-59.11981309553831,-0.37635852729168734
239.76179027557373,421.9840326940056,27.60027833385081,38.34362676640264,1020.3660303185009,-59.25422650080041,-0.5348193096548763
240.004643201828,421.7181901490352,27.599622726495596,38.31740185169795,1020.3642113534934,-59.19646273343945,0.237951649746475
240.249764919281,420.98385419522504,27.599144235539942,38.28569450798502,1020.3667245184589,-59.19659632826789,-0.0005447789803775852
240.49238634109497,421.79868472029557,27.601538785915103,38.25001115379306,1020.3657722251888,-59.144270962210676,0.21566205685179
240.735102891922,422.123227505524,27.604658320645186,38.214572471562896,1020.3698467369727,-59.135436134500935,0.03641737453972337
240.979918718338,420.1988433463318,27.604191319662966,38.1855613414143,1020.3693999046052,-59.02485981585459,0.4514590905453915
241.22225832939148,418.7943435217727,27.60247859488363,38.16125009277085,1020.3605945560356,-59.07275612545027,-0.19764691354276157
241.46688842773438,414.7975597188028,27.605344234382894,38.14978197934426,1020.3656034212787,-59.05388695946368,0.07713729444406993
241.70962715148926,409.17896976899675,27.603320042530214,38.13670557671209,1020.3644895809267,-59.07087324642763,-0.06997394488372144
241.95206379890442,396.16312180432624,27.601842698680557,38.12404192560682,1020.3668021446979,-59.084308455628,-0.05541669373342675
242.1946563720703,378.8290558758107,27.597967929537,38.11795502666125,1020.3761764765452,-59.16335845728813,-0.3259716069059253
242.43715929985046,361.8553961449299,27.593768066333734,38.09313659501351,1020.3787563053545,-59.248322351413684,-0.35025249494950456
242.7292139530182,342.71337073175107,27.57007175217755,38.031230588589764,1020.3982035125081,-59.34460441527254,-0.3296703148415588
242.9719398021698,316.31549664565176,27.554149031502533,37.960951240066926,1020.4037431636016,-59.499432455619626,-0.6378639270036374
243.21446895599365,286.78323617299526,27.538412271687534,37.887677217393126,1020.4031428306873,-59.52892562866041,-0.12164808919077401
243.45839047431946,264.9591431057666,27.52692689529129,37.83420867222506,1020.4161286874084,-59.563032163247826,-0.13977188956666864
362.2882785797119,249.5712767728579,27.521288138700996,37.81558739350137,1020.4256469744811,-59.541796299636204,0.08743283753812972
362.545334815979,183.49882710729162,27.42367335077835,37.81040964412455,1020.4198917822051,-59.44917408105334,0.0007793714334116958
362.79115319252014,135.27626015245448,27.388204396302484,37.811104148908676,1020.4167702749565,-59.374039512873615,0.30462491854058676
363.05065155029297,100.08131921286278,27.381576783279744,37.800557071634216,1020.4115031028321,-59.34997692955508,0.09280267823469109
363.3032455444336,74.39451019455736,27.390458531219085,37.78810602600828,1020.4045371177965,-59.38555745749052,-0.14005113712049086
363.5468764305115,55.64715219570767,27.392825158740102,37.78213568112957,1020.4059124730519,-59.3538743487101,0.13002313993232367
363.791522026062,41.96450941642875,27.39455242713513,37.76990733526635,1020.4039217710379,-59.326570942011294,0.11178628400422959
364.0421826839447,31.9783175787927,27.399928724283907,37.76882420542663,1020.4063107438693,-59.36709453760173,-0.1611748989428252
364.29700326919556,24.689957499035927,27.409340129414716,37.76645558320932,1020.3958553069707,-59.328193863056555,0.1534204378293061
364.5404851436615,19.370593169182744,27.410721436933354,37.74903332184431,1020.3874232820557,-59.31272763810623,0.06335454510068703
364.7833340167999,15.218131944376191,27.41864177559751,37.728465763111544,1020.3946070667489,-59.294098016852075,0.07671522747512934
365.0353846549988,12.4576401258789,27.424422385571418,37.7071501789907,1020.4012430319139,-59.36472160568624,-0.2801833111603495
365.27834153175354,10.442912319969498,27.427216675953925,37.68845615857694,1020.3971371568618,-59.336942625072574,0.11433315621481417
365.524621963501,8.972475746057045,27.44028393242424,37.66380205774323,1020.3995023450223,-59.38935718346194,-0.21315527157560812
365.76743721961975,7.899286746750297,27.44707721436016,37.6520724070191,1020.4004270106858,-59.3612147974675,0.11571735768964155
366.0109555721283,7.116026422118579,27.454779023008918,37.64196352255228,1020.3944743800613,-59.3494150361673,0.048458789994152394
366.2662613391876,6.544368739698719,27.460400140208566,37.637681816573235,1020.3947730416983,-59.3306675226028,0.07342982729109374
366.5095434188843,6.1271479312487305,27.46313079066566,37.62357656557095,1020.396215354418,-59.32956798317174,0.004519664748293064
366.76489543914795,5.822641915923615,27.466495625952728,37.6195769391102,1020.3933847943115,-59.29591085476283,0.13184950112313265
367.008784532547,5.330243880319219,27.466207656058252,37.61037317800758,1020.3881955089964,-59.26576210955138,0.12357614986646838
367.2521028518677,4.970870232746744,27.4659974830196,37.611478332988824,1020.3838169800049,-59.26297776638626,0.011443032818870243
367.5046982765198,4.438427396577302,27.47407541161337,37.61383305581989,1020.389570438983,-59.32070535458013,-0.22862168525862073
368.66505765914917,4.319983511937232,27.47997103761848,37.61239374295147,1020.3958805459021,-59.426787113581234,-0.43334964324639724
368.91027092933655,4.233537978490885,27.423752600389975,37.64311258005726,1020.3970140155321,-59.43810613112535,-0.009765323728058033
369.1604902744293,4.170446242893626,27.419868402332813,37.676254541341486,1020.3909690438277,-59.44186529060729,-0.015006812529008805
369.4061300754547,4.394555343457372,27.428061405501353,37.69252173152096,1020.39094877492,-59.45405870444796,-0.049399859792653864
369.65688252449036,4.2879637664952135,27.435412904983437,37.70123732718356,1020.3919041775043,-59.44373856863997,0.0410668232398643
369.9107241630554,4.210168566182577,27.45038156030774,37.68716602838133,1020.4010029987718,-59.45368203003618,-0.03921161017321802
370.1609573364258,4.153390222488198,27.464050114439637,37.69728878525596,1020.4079392893115,-59.419702861045735,0.1388052304720067
370.4085042476654,4.111950901042638,27.472654136752087,37.70622562088095,1020.4116086624775,-59.50147423760118,-0.3224145999753769
370.6526417732239,4.081706669701342,27.48167750301657,37.704924710111094,1020.4167756955275,-59.43676144236935,0.2650615384762947
370.8965034484863,4.05963310533018,27.48963503784612,37.70237612378362,1020.406111396202,-59.36435458046202,0.2969314023848371
371.1444282531738,4.043522851492036,27.499611221135645,37.69891717959429,1020.3977775986507,-59.34855186366592,0.06376105142791656
371.3978681564331,3.7616086709314533,27.505520389525323,37.68700035852092,1020.3955364543378,-59.27551078744387,0.28810312826495493
372.2945477962494,3.7616086709314533,27.505520389525323,37.68700035852092,1020.3955364543378,-59.27551078744387,0.28810312826495493
372.55281376838684,3.826011569335658,27.44793994910866,37.66925929826794,1020.3925878473599,-59.293832339889015,-0.015896753178191277
372.79745960235596,3.8730156246734286,27.443008936600087,37.65296951061292,1020.395844830297,-59.32016066195046,-0.10729281748064938
373.0473883152008,3.907321242478542,27.45455358978417,37.637861116584425,1020.3921016645334,-59.318409005563524,0.006999102975177707
373.29899978637695,3.93235898453151,27.465723157223486,37.62522436778232,1020.3952777912586,-59.18782698700551,0.5171153766959047
373.54505348205566,3.9506326250376285,27.48078739658734,37.60813708371002,1020.3938809899262,-59.17498290363461,0.05219117351582516
373.79090309143066,3.96396952804751,27.49035728621138,37.583094341456885,1020.3960693989519,-59.20998648741375,-0.14260663658052383
374.04340052604675,3.973703383862142,27.498766462605108,37.558541781090014,1020.3868599249126,-59.17193476111971,0.15024094749586
374.2861166000366,3.9808075780629886,27.509019508799575,37.53588362767165,1020.3867657815941,-59.166874393304454,0.020903599867822035
374.5301694869995,3.985992530070134,27.515130743860592,37.513071157138164,1020.386232701035,-59.20022426498904,-0.13664444301769865
374.78167939186096,3.71962052321265,27.522334764834486,37.49174743229716,1020.3762610101669,-59.22596403295764,-0.10234106836783888
393.1203942298889,3.5252105686764312,27.52622068777842,37.46827458218883,1020.3813091084982,-59.33245803509342,-0.42582453401842446
393.37737941741943,3.653477882879498,27.496025986408075,37.58150980767679,1020.3884580302412,-59.340295789195864,-0.0004272697374528065
393.6220133304596,3.7470929853705144,27.51387882433771,37.68123062108294,1020.3926547732879,-59.32567824743709,0.05957250517550841
393.8740530014038,3.815417386398582,27.542052129233767,37.75232100648848,1020.392628855827,-59.2978586993124,0.11051429213351695
394.1238384246826,4.1354397379381505,27.568101788856843,37.81045408519371,1020.3964505246637,-59.342489182329984,-0.1776302032970734
394.38679337501526,4.098849851399891,27.591229632155834,37.8466059354571,1020.3904150887289,-59.32232621691546,0.07663678010752578
394.62948775291443,4.072144950001622,27.616393431886003,37.869805730562504,1020.3857078796494,-59.266346938238975,0.2308988488891223
394.87329626083374,4.052654543603515,27.634759074804773,37.88826020451109,1020.3844247391154,-59.274002060274384,-0.03139747823361249
395.125381231308,4.038429591565759,27.650906899230844,37.89705909798941,1020.3867395920353,-59.262148571083,0.047023446046063684
395.36806893348694,4.298203810556221,27.66406417559341,37.901855000035106,1020.378675040749,-59.24439950587848,0.0731327541754363
395.61324405670166,4.487798410602306,27.67778259305555,37.906924544264484,1020.3946531081951,-59.23106672864113,0.0543790418592007
395.8560929298401,4.356016639836978,27.686423007809832,37.90433784471302,1020.3961414088743,-59.27722677176541,-0.19008843551376034
396.099244594574,4.259836533055349,27.689985386818275,37.89930177125235,1020.395029329749,-59.320015867517675,-0.17597560005304244
396.34831714630127,4.189640079579255,27.69670102804878,37.88465049536098,1020.3982280445855,-59.31804582892886,0.007909300106846819
396.59086179733276,4.138407634061086,27.704346171110984,37.87236861356814,1020.4025907980775,-59.34211673591454,-0.09924602783082283
396.84592366218567,4.101015951949027,27.709925931284285,37.79749914124336,1020.3937439128922,-59.34430334303072,-0.008572721818301203
397.08867835998535,4.07372586503187,27.711254510559193,37.805632723339,1020.3931093235465,-59.30603612022098,0.15763927193239677
397.3312222957611,4.0538083646178995,27.71222416589002,37.80214290520025,1020.3949687097748,-59.342069827545004,-0.14856700497985778
397.5759975910187,4.0392717006657195,27.721163184890315,37.79013963157638,1020.3834898619006,-59.265951327671296,0.3109675151890487
397.8282480239868,4.028662206780112,27.72631538536623,37.78768668965906,1020.3840152664952,-59.25128733101668,0.058132032381456034
399.730144739151,4.020918933572515,27.727331912851948,37.77806923893,1020.3881612461959,-59.299675384482974,-0.19359966403919462
399.9786009788513,4.01526755372217,27.6675524958774,37.75571001013083,1020.3716704559856,-59.3023175338071,-0.0013915750243761447
400.232980966568,4.281299141115684,27.656953677832707,37.750133493512514,1020.3611825842853,-59.321266070294875,-0.07427968688854047
400.4819321632385,4.475460642620766,27.669849266407578,37.73973592866054,1020.3704897737834,-59.42137276318299,-0.400340486009159
400.7352375984192,4.347011996516283,27.68749235370367,37.72427025253921,1020.3863566024604,-59.408429696899915,0.05107249841557968
400.98791694641113,4.523420761935071,27.69762527734331,37.70350470786289,1020.4035016689766,-59.40667403239309,0.0069461007851182545
401.2334258556366,4.382015391675724,27.711880163784333,37.683650945940755,1020.4153800525823,-59.44761139844726,-0.16692713813278345
401.48647451400757,4.278811560583948,27.72508054301574,37.664421117581924,1020.4067017526152,-59.44116912076708,0.025459179512603444
401.7319641113281,4.203488885550568,27.73191821888677,37.644097246812805,1020.4058081381909,-59.37280272086168,0.27848486912771764
401.9750084877014,4.418671310943886,27.736908654146475,37.626124834323,1020.4015633431526,-59.42109358413124,-0.19875549859478836
402.89301800727844,4.575720867431594,27.74334743123278,37.60203167912773,1020.4036988230766,-59.391350376489356,0.11849279156363458
403.14183950424194,4.420186298790818,27.693012957500542,37.576909776050876,1020.4030560698184,-59.38105728939647,0.011259826416107382
403.3849608898163,4.576826571900767,27.69067935962389,37.55365252104555,1020.4075080143637,-59.36118776460032,0.08152059204563329
403.62987422943115,4.42099329032915,27.701323180830318,37.52876598967735,1020.4090133826287,-59.37211272714954,-0.04442810476762011
403.88570737838745,4.577415549662091,27.713207168660013,37.50896740796772,1020.4028499698074,-59.39405793054975,-0.0857069936368462
404.13728046417236,4.421423152089599,27.723252510369118,37.4819710860213,1020.4077660122356,-59.46352580963655,-0.27599039059041636
404.39077830314636,4.577729281597708,27.73338057952709,37.463804604935774,1020.4045563456021,-59.477181507664454,-0.05385531322075997
404.64147663116455,4.421652127393946,27.74626003594141,37.444233674991935,1020.4117048354515,-59.50214228023074,-0.0996660141311143
404.8832333087921,4.307740185929578,27.755660027199873,37.42841351091548,1020.4130822306402,-59.40639958270904,0.39603542378443274
405.1266357898712,4.224602263058168,27.76114866541491,37.41684503062324,1020.4082189128916,-59.48611588808744,-0.3275081873651533
405.3696005344391,4.163924566492575,27.769270174961672,37.40679864579661,1020.4075801584825,-59.54288434898385,-0.23365744772400865
405.6115972995758,4.11963932657624,27.783428930335067,37.39788535498592,1020.4054263408166,-59.58777051518003,-0.1854717239564742
405.85522508621216,3.817161807445886,27.788275061938325,37.39453087683526,1020.4073529140433,-59.56708149451862,0.08495478151023808
406.09690380096436,3.8665566809317635,27.790440093972006,37.38265236158599,1020.4137458935563,-59.60158483715039,-0.14271507282697934
406.34081840515137,3.902607222510817,27.79887966421994,37.3645750048838,1020.4151598530019,-59.668049408737794,-0.27250899912250026
406.5828495025635,3.9289184863409523,27.79955168408622,37.34664896447319,1020.4156798771887,-59.66373816846584,0.017811314748731193
406.8266270160675,3.6779653869335407,27.80141404062454,37.33512427795439,1020.4206575761759,-59.66828329073887,-0.018644149803819655
407.06901121139526,3.7649650380911255,27.8014013829619,37.3220147156537,1020.4246319608195,-59.62929617018682,0.1608519243643324
407.31116795539856,3.828461193057823,27.80413591887227,37.31870367721132,1020.4245744676194,-59.61237927339971,0.06985887146286228
407.56186866760254,3.8748034673303025,27.804759815906458,37.31313585133129,1020.4299842062504,-59.55042971944414,0.24710373615609849
407.80357480049133,3.9086260883358124,27.80384327626788,37.31225758790888,1020.4263286262968,-59.55481908423343,-0.018159779811124474
408.0452709197998,3.9333113181749035,27.807290006546324,37.303744236989395,1020.4190148828189,-59.542929189096604,0.04919580303458935
408.29609274864197,3.951327679831485,27.8098055812294,37.30374173572544,1020.4249849429339,-59.49448316517096,0.1931416263035485
408.5380656719208,3.964476809471215,27.807525896745183,37.3053445124745,1020.4245733125352,-59.50103581041291,-0.027080289830402948
408.7813997268677,3.974073620058066,27.81409340526595,37.3206775645827,1020.4366459773103,-59.54072139852941,-0.16309097436100947
409.0229640007019,3.9810777926507237,27.820311312461854,37.334951761462634,1020.4329132217126,-59.583655425117975,-0.17773106527739085
409.2657949924469,3.986189744508454,27.82622130041735,37.346917332563336,1020.4239435937461,-59.57025299284105,0.05519427153085204
409.5194754600525,3.9899206708170296,27.830534668414586,37.35881261864879,1020.4313696907916,-59.629698444324376,-0.23432297133258828
409.76164150238037,3.992643664207308,27.828142440314505,37.37378524230111,1020.422694072426,-59.58988746395202,0.16439652048634393
410.00631046295166,3.9946310240183176,27.83193680043465,37.40353034350948,1020.419737281381,-59.61043265109141,-0.08397554058021271
410.2489457130432,3.9960814862311587,27.837449864625082,37.40638900865081,1020.4288872559874,-59.56287407693772,0.1959986890592757
410.49113488197327,3.9971400970671156,27.834561340325834,37.41477733604293,1020.4241212427424,-59.540718518395686,0.09148272703787745
410.735239982605,3.9979127176097844,27.836621594734535,37.422458479456225,1020.4141384496279,-59.486087390663364,0.22390619800618738
410.977596282959,3.9984766099134315,27.84086903264351,37.42959062577886,1020.4153380183118,-59.507353340121895,-0.08770427035184064
411.2330102920532,3.9988881632084214,27.839853337776606,37.463131028952624,1020.4105156450591,-59.525704636884385,-0.07185029088528336
411.47578477859497,3.999188532824254,27.84185581321418,37.47342703660842,1020.4113001253536,-59.50832945836,0.07156752449246565
411.72046971321106,3.9994077557225114,27.84743296851341,37.47776903198361,1020.409085050859,-59.45334071791948,0.22473612544154123
411.9716639518738,3.9995677541930204,27.851503420663978,37.48097053940287,1020.412456305214,-59.460776276723394,-0.029599850072593203
412.214515209198,3.9996845280828315,27.85035855384071,37.484866294968754,1020.405453872623,-59.444141904193,0.06852290942758096
412.46025800704956,3.9997697547809254,27.848151092888106,37.49557025905971,1020.4073121902796,-59.40123190487696,0.17455130534211405
412.7022907733917,3.999831956957112,27.849283765251133,37.50182326504397,1020.4027512074252,-59.34825291154832,0.2188903131451152
412.94469833374023,3.9998773548290103,27.852854213166093,37.507913988665635,1020.4047040911779,-59.442385940040985,-0.38847294761020407
413.1891393661499,3.9999104881838092,27.854088195384254,37.517047921614186,1020.4031707389628,-59.45096534644079,-0.035085262949865414
413.4314422607422,3.999934670356989,27.859104470681068,37.51902560968979,1020.404081076143,-59.48273438787365,-0.13111047460669858
413.6758863925934,3.999952319565868,27.86002179401917,37.525157669194705,1020.4037677226873,-59.39923729446271,0.34159011674511863
413.9181270599365,3.9999652007313333,27.863435070786007,37.53279450668231,1020.3889647455652,-59.387287433809476,0.04933096757480908
414.1602945327759,3.999974601969932,27.865926229631448,37.54466935207872,1020.3945936219202,-59.41945834904262,-0.13283945456858562
414.40296244621277,3.999981463405524,27.867744386440034,37.558003881196086,1020.4113690172093,-59.43524557809386,-0.06505539433582702
414.64548087120056,3.7298302593100265,27.871815130919448,37.583415350960756,1020.4098449023088,-59.41356785593884,0.08929414229609095
414.8970012664795,3.5326620811455314,27.872042364463983,37.60513277201887,1020.411520247758,-59.446331445124905,-0.13040233017005945
415.1394691467285,3.388760111095589,27.87632387049515,37.627232202566674,1020.4071675664528,-59.46639750309179,-0.08275002501751899
415.3814506530762,3.283734152155206,27.87670492704901,37.64964136357884,1020.4103243367376,-59.4782093047479,-0.048815377152247964
415.6260371208191,3.2070816084303435,27.87972681283459,37.67382632994687,1020.4103051745724,-59.481970857500535,-0.01537918997438315
415.8781704902649,3.1511372255485153,27.879188543376806,37.689948005157824,1020.4076746080138,-59.50880691424318,-0.1064347503441067
416.12043833732605,3.1103065652215385,27.880167577770116,37.71738393025653,1020.4125528873042,-59.48750056146968,0.08794976912916916
416.3623251914978,3.0805065614167155,27.88362589396726,37.74683754623855,1020.4077500691741,-59.57539592823865,-0.36335275803666844
416.6048312187195,3.328913425625206,27.887521811574537,37.77146418128958,1020.4167408139402,-59.51929775976435,0.23140334500164206
416.85913729667664,3.2400554205245755,27.88899333582586,37.780027866047156,1020.4142300932751,-59.52835713984063,-0.03561343875347892
417.10377764701843,3.1752029574764022,27.888695431646354,37.80826683615188,1020.4233287539748,-59.54650793771045,-0.07422128942961435
417.3462345600128,3.127870790175869,27.8898498951449,37.81630776227967,1020.4253230188139,-59.56461389626274,-0.07465205615348527
417.5890715122223,3.0933257018929226,27.893436247184752,37.826846839429464,1020.42977132091,-59.59706003171002,-0.13360352923667942
417.8312346935272,3.0681131837992686,27.897425610956493,37.828288504647375,1020.4286311858093,-59.527009797099936,0.2892690094328796
418.07588624954224,3.0497119840855413,27.898965336310468,37.82303076974823,1020.4233575875513,-59.529001484729534,-0.008141082046358454
418.3276889324188,3.036281982780368,27.900089095295492,37.80821358392969,1020.4157915589633,-59.521344153956306,0.030410879466371995
418.5698962211609,3.0264801797532317,27.900909263810064,37.789589570765386,1020.4080349090068,-59.463322982792256,0.2395498275892192
418.81223726272583,3.0193263947014186,27.902879745719055,37.77280593721078,1020.4060023191843,-59.41955804842772,0.1805893138550446
419.0551083087921,3.0141052491197473,27.90431788969995,37.75583610088795,1020.3978424881275,-59.346723136713514,0.2999911242875916
419.30666971206665,3.0102946284500507,27.905367510150842,37.738750735641815,1020.3934523977476,-59.34984449362297,-0.012403688699563447
419.55001282691956,3.2776696824970015,27.90755822101536,37.726270837709826,1020.3984405361999,-59.37762965347448,-0.11418524981049041
419.7922012805939,3.20265549292201,27.909157097731413,37.71557181670253,1020.3984858125266,-59.40134472344018,-0.09791672235176675
420.034122467041,3.4180630645108616,27.910324027970606,37.70308375041402,1020.3959023726325,-59.43930500520677,-0.1569863427111401
420.2857093811035,3.5752769425507998,27.915291365797096,37.681387660551685,1020.403016502539,-59.3943355868875,0.17866011235361526
420.5284767150879,3.6900185148458178,27.91200454650111,37.66712305185616,1020.4037335885488,-59.456259030423,-0.2555731936640609
420.77443623542786,3.7737619386254173,27.913774107780593,37.65358230141593,1020.4091473115436,-59.447602599431114,0.03514122530229925
421.01641273498535,3.834881556267559,27.91369372407473,37.63427881693299,1020.4068865005139,-59.47306602865076,-0.10519109770600507
421.2586479187012,3.8794893295364563,27.91912260457998,37.601305067479835,1020.3998320583202,-59.420992096368366,0.21496627337539273
421.5016403198242,4.1822022476306415,27.93131616137369,37.563106996352076,1020.3992801361228,-59.420033140488144,0.003946560072607425
421.7460994720459,4.132979178616249,27.933356117987717,37.52115139694012,1020.3930581185149,-59.40293910951696,0.06992387350328773
421.9978702068329,4.367210239335122,27.927985532583463,37.46849026101,1020.3942145847099,-59.375076650164374,0.11066767366679493
422.23964071273804,4.268006112115867,27.925437731200965,37.42063377979257,1020.4009773502371,-59.38794159706246,-0.05321250114337038
422.48183250427246,4.1956025961081975,27.930437669255618,37.37942458536208,1020.4005806867922,-59.34489758561288,0.17771838995843292
422.7261667251587,4.412915551582991,27.931343068959013,37.33049196530841,1020.3948867574248,-59.319755805361766,0.1029029517477584
422.96824312210083,4.5715200622160825,27.932003869308307,37.28226303406608,1020.4035701717927,-59.354846662710905,-0.14495763829851124
423.2198712825775,4.687276579070783,27.935229924365256,37.2454453691046,1020.4025228649186,-59.39868373869441,-0.17421041111013486
423.46198296546936,4.501604541960919,27.93484066658191,37.20758108773031,1020.4044966703649,-59.436951640505036,-0.15805623559061777
423.70329093933105,4.366092959047147,27.941416004273805,37.17363996209122,1020.395814311545,-59.42014113887309,0.06966581585986184
423.9551467895508,4.267190672038089,27.94347119961626,37.13944517215187,1020.4001867190445,-59.48095783865333,-0.24156044856314882
424.19708156585693,4.195007452232841,27.94497117117034,37.11450055684374,1020.4092969832287,-59.40225169854303,0.3251946812051041
424.4410128593445,4.142324977650876,27.95018157713169,37.08683477743226,1020.4094407185336,-59.430442539213935,-0.11556357879578683
424.6829047203064,4.103875000833999,27.951240585529387,37.065097243991175,1020.4104249524881,-59.451017449159714,-0.08506282523969193
424.92570543289185,4.075812524100522,27.95475727025684,37.04609115811887,1020.4091630838691,-59.4891139087473,-0.15690639007394894
425.1699788570404,4.055331299777097,27.95458012673316,37.03376545494124,1020.4163846403436,-59.46833159414999,0.08507700327431536
425.41231775283813,4.040383205431382,27.958566500673022,37.0247820043805,1020.4181093979796,-59.4464765398054,0.09025790619983429
425.6633069515228,4.299629643500448,27.95873215690337,37.03078987387427,1020.4298843344712,-59.44975946684723,-0.013069797837636902
425.90553188323975,4.488839045919558,27.957481173060643,37.01472003091123,1020.4205773718027,-59.44688822510955,0.011853524360731898
426.14772272109985,4.626932352930625,27.9593119243008,36.99829220259082,1020.4196037499169,-59.47899782304052,-0.13257373501309658
433.64724588394165,4.727718895234754,27.960648086721037,36.98474438704448,1020.4095283849979,-59.47976793079812,-0.0029347295407791793
433.9145452976227,4.531121115190716,27.899730066304503,37.01142789491977,1020.405530369969,-59.42338712797397,0.007514904056300552
434.1583409309387,4.657791658537392,27.896531567691003,37.01809896115021,1020.3990633505535,-59.45640079202764,-0.13494577408775615
434.4020791053772,4.750241367737808,27.902481250312196,37.01963012509613,1020.4016286620097,-59.49262901867929,-0.1488035136099425
434.65218567848206,4.817715213712004,27.920542459348717,37.020710678131216,1020.4009555897493,-59.512648806445426,-0.0795669545776984
434.90576553344727,4.866960581057401,27.93783998161034,37.01203835443593,1020.4023552788613,-59.524149938521134,-0.04534807758334302
435.1512818336487,4.902902006508538,27.953261009694952,36.996284840935644,1020.4031540613757,-59.51742184878628,0.02744688659518117
435.40383791923523,4.929133632610529,27.965887838262468,36.97846612331898,1020.392807027963,-59.44468780572323,0.28723566169894604
435.6471405029297,4.948278621973572,27.979219111696462,36.95602395500528,1020.4006605651523,-59.49605238878352,-0.21158757081176635
439.7439844608307,4.962251473533973,27.990320745813516,36.9412154615728,1020.4059277019836,-59.49264604237776,0.014035125363047143
440.0004053115845,4.972449472447772,27.933786220226228,36.96383735947151,1020.4023277828705,-59.49068590079269,0.00047705365861234474
440.24986934661865,4.979892418606347,27.931043214057322,36.97534070649776,1020.4019808771205,-59.51338884204328,-0.09091138313132713
440.494686126709,4.985324606625557,27.942760118178256,36.98833653067463,1020.3973553138663,-59.44032129919475,0.296541071415196
440.74857473373413,4.989289255307323,27.965083262886253,36.989918337094394,1020.4060805321618,-59.40580564916353,0.13587527686599374
440.9909167289734,4.722026617648178,27.977260010342643,36.99260630113244,1020.4110543785735,-59.363801935851406,0.17350933083563275
441.2358145713806,4.797122853625495,27.993006568900352,36.98984317892452,1020.4103298150391,-59.41066225285452,-0.19134787595353142
441.4783790111542,4.581775163093718,28.007242870874915,36.98464729487506,1020.4165483178925,-59.486755124598005,-0.3137047612789143
441.72092723846436,4.4246049888713115,28.02312069549061,36.97293702432998,1020.4158542210897,-59.531004397624756,-0.18252896384744535
441.9889545440674,4.309895313536037,28.031965253128547,36.953432060192625,1020.4182565124272,-59.47014012940363,0.22644702641872058
442.2400424480438,4.496331381426009,28.037048511565928,36.92821256564603,1020.4153622935062,-59.41132649765137,0.23494509862120444
442.4918284416199,4.632400587458581,28.044874157200134,36.92395751775661,1020.4103411672124,-59.438905378265105,-0.10920130209218186
442.7435324192047,4.461553640365369,28.050585656054352,36.887809280341834,1020.4122534592295,-59.44364396143933,-0.018883630018733777
442.9936857223511,4.336862057308695,28.053382271000594,36.84727393629215,1020.4210641753053,-59.447102386933565,-0.013787641312279532
443.25541496276855,4.516012891854532,28.055423363046895,36.808262887722876,1020.4180791772068,-59.474136963081484,-0.10356867424175921
443.506085395813,4.376608803714181,28.061081467323252,36.760910324794565,1020.4156976180416,-59.47562601369051,-0.0059218542177952695
443.75900197029114,4.274865595945247,28.067954773608754,36.71852177837896,1020.4144548801083,-59.40361021883588,0.2856068930250632
444.00901341438293,4.200608947770838,28.07022743947831,36.67504360069049,1020.4195897933508,-59.46120050479218,-0.22963975277140658
444.2605826854706,4.146413194373512,28.074629904572518,36.62912858632679,1020.4124755564313,-59.46190373888017,-0.002803927532500321
444.5200254917145,4.377014972285179,28.073727355333745,36.59403260205719,1020.4008289822176,-59.45515528221194,0.02593538830347041
444.77341055870056,4.275162035553723,28.07718429641858,36.55899056651784,1020.4007621126743,-59.40548679309938,0.19661420395690038
445.02732825279236,4.200825302377639,28.07833543638186,36.52398780899465,1020.4078572842895,-59.353412407843265,0.20446361426690848
445.2788805961609,4.146571099439319,28.079175588733328,36.514111717615314,1020.4165290520212,-59.33991910269561,0.05380419990496018
445.52954387664795,4.106974006444931,28.081160655721536,36.47552047034796,1020.4060061511069,-59.41285561494307,-0.2900875380278486
445.78929376602173,4.078074314095035,28.0826094445319,36.44734051303254,1020.403318750282,-59.40595410255043,0.02664820682456219
446.04089522361755,4.327138265026286,28.086410608072278,36.4236020908587,1020.4068821230729,-59.40333685603401,0.01037083375797443
446.29194951057434,4.779072254331808,28.08918486366988,36.400020297827,1020.4075038287834,-59.45529310434493,-0.2075878237749229
446.5406641960144,5.108913469070511,28.08709397584424,36.376553049726496,1020.4062709011196,-59.41284881349286,0.17012989166498133
446.80418062210083,5.079489818844622,28.086939841366434,36.35625384284198,1020.395610889575,-59.303926442630676,0.41476146819678134
447.0531165599823,5.328171362374838,28.086827347275268,36.33516786233168,1020.3896898251163,-59.28270058304494,0.08509146183103848
447.3034782409668,5.509670042142538,28.081204931222857,36.31974906896615,1020.3822874608076,-59.165186349880955,0.46940379912731073
447.5530278682709,5.37197951425285,28.079897984704683,36.31326827663258,1020.3702583690334,-59.02455987701444,0.5635027649678522
447.80592823028564,5.271486937788446,28.076147578995027,36.32899415770801,1020.35325568488,-58.906284495366585,0.46769653297475594
448.05729961395264,5.46829926697453,28.073410368684872,36.349927376054666,1020.3366636951644,-58.757406681174345,0.5922359801567442
448.3074064254761,5.611941522858066,28.065925084689564,36.3934859661129,1020.3216457680667,-58.69448599766687,0.2516057101108594
448.5596446990967,5.9869341428990515,28.059090109649798,36.46456760879292,1020.3171690030505,-58.569189257312594,0.4967015762608274
448.8114981651306,6.800932600973227,28.059589193628657,36.50383683583757,1020.3057085951053,-58.50852427343028,0.2408894061132437
449.06140995025635,7.93533674288801,28.05720967294356,36.54505202792217,1020.291857086651,-58.48131566282629,0.10886153903241556
449.3133397102356,9.30358698283488,28.05821676857964,36.62068071301753,1020.2884565530132,-58.41770286057588,0.25251742932569743
449.57170605659485,10.57235213293688,28.054836130033454,36.66024664057691,1020.2704885693923,-58.33925499421101,0.30360066147212855
449.82261300086975,11.498352496332567,28.052368791990613,36.71582965773579,1020.2632965399002,-58.18096634428594,0.6308971323915328
450.0744104385376,12.174188109361511,28.04782424662001,36.78469779220869,1020.2481156043276,-58.03366647627089,0.5852207061774005
450.3251483440399,12.667442533326607,28.045879325424817,36.8537614106858,1020.243316705093,-57.992127160850124,0.16560496926218052
450.5746293067932,13.027441210624364,28.044459836772106,36.91045055444943,1020.2426027556807,-58.04360513508204,-0.20640124007763927
450.83727645874023,13.290184008984557,28.043423831796606,36.9659624720635,1020.2409128636117,-58.10085167483306,-0.217891238922204
451.086909532547,13.752101420114847,28.04541148402759,37.03320501123456,1020.2379402556631,-58.07051596728499,0.12152757116330186
451.3363914489746,14.089228973256622,28.042746498621103,37.12152711520836,1020.2408828807811,-58.097406036541315,-0.10778003574228084
451.588543176651,14.33527942372406,28.04628902363037,37.20801168875483,1020.2490721895481,-58.09438053526278,0.011998699054248045
451.840815782547,14.514857816563904,28.044758852462436,37.293131456561866,1020.2448775411298,-58.09316490256316,0.004818717424977761
452.1004116535187,14.645921991060137,28.04638584056757,37.34422854832769,1020.2402494277707,-58.02059808995126,0.2795306909810031
452.34983468055725,15.011734576534026,28.04620140071605,37.38153240559945,1020.2351323407587,-58.02205807167555,-0.005853665405943544
452.5999367237091,15.278720619661318,28.048810562462958,37.40869215615314,1020.2368316875521,-57.98992166468896,0.12848803614856116
452.8528823852539,16.013891148498026,28.047971068929336,37.430129515808545,1020.2482966072916,-58.035728400289386,-0.18109728218950652
453.1039893627167,50.86028969988312,28.050102143815472,37.46617251429903,1020.2471668056513,-58.09777050461434,-0.24725281112001907
453.3619794845581,144.10192640103878,28.051657495583154,37.52077076168782,1020.2473245811726,-58.10047840675946,-0.010489080158327274
453.61148977279663,214.04484922539982,28.05279265940915,37.57161301586568,1020.2481967148112,-58.09574971201191,0.018952210734226243
453.86214780807495,266.1728818197874,28.05362115167606,37.62126413118857,1020.2494176483038,-58.128604204927484,-0.13106810705387667
454.1140549182892,306.6496085029985,28.058394247535944,37.660602031986286,1020.263643889193,-58.22426294881249,-0.37990428307562374
454.3747487068176,330.51801558720496,28.06599352293965,37.672087133910566,1020.277332966844,-58.33615582441779,-0.42918559896223674
454.62429904937744,350.0994739251051,28.06599949394855,37.663245212878756,1020.2908914658026,-58.52741005477103,-0.7664136886086148
454.87307953834534,361.6893175367993,28.053656868731608,37.644185154866086,1020.3158307607237,-58.68666074948393,-0.6398806600857162
455.12508845329285,369.6077804784302,28.044648680387827,37.6036388244738,1020.3304176700393,-58.85817443577539,-0.680615409219517
455.37852120399475,374.57655283228917,28.036702223069415,37.54735758914778,1020.3436801271571,-58.971811086927545,-0.44836487717135004
455.6373362541199,376.31188698627557,28.032274437571356,37.493704909683174,1020.3545817992987,-59.08594876646244,-0.4410045929435258
455.88899874687195,374.8768477201731,28.030414732843845,37.432522921078295,1020.37381237633,-59.20729936456824,-0.48214829971361395
456.1314241886139,369.50699383614165,28.022198003833665,37.369103510629664,1020.3863327181492,-59.241006802150665,-0.1391877294810224
456.3870449066162,364.50721448823776,28.023060510273904,37.31805788329904,1020.3949546710791,-59.307502423183806,-0.2601463009810539
456.6294023990631,360.0476879535428,28.02231811822812,37.26353667168564,1020.3989749800464,-59.255432442048395,0.2148459269831459
456.8750777244568,359.49449233291847,28.023148175018562,37.217376786686664,1020.4014444592095,-59.25647589675815,-0.004248726336200689
457.11768794059753,359.36090215745764,28.02375398681086,37.17116953126596,1020.3960524434125,-59.240423821011504,0.0661413057588848
457.3598837852478,361.4246518927157,28.026939908811062,37.153177575144554,1020.3936834238035,-59.309500078651226,-0.285209672923553
457.60396242141724,362.3905543935021,28.029265134192375,37.149470662804,1020.3819541036436,-59.21941801830095,0.3692364597454517
457.84606099128723,366.0672306642267,28.02547463743928,37.160913458772306,1020.3872837215279,-59.26723878488863,-0.19742647262287139
458.09912109375,374.42391045067853,28.026823827970347,37.1676705172874,1020.3783333195356,-59.13756101822242,0.5124666114282063
458.3412001132965,381.33344991781314,28.025064752271625,37.178896768430384,1020.3745892531308,-59.12085989892264,0.06898845998059099
458.58329796791077,389.61820891918876,28.023780901800063,37.26562154793869,1020.3687757106864,-59.07404567033417,0.19337798591226024
458.8350353240967,390.2616645750504,28.017356343454868,37.347806336458724,1020.365926886103,-59.12066966956152,-0.18526540082788945
459.07697224617004,386.9490997222141,28.0181549675088,37.40461533754091,1020.361868201213,-59.13019096255307,-0.039346960224279116
459.32129168510437,392.0958187740052,28.01462217727338,37.44607703409052,1020.3627956509027,-59.09382173752978,0.1488349175173993
459.56333470344543,393.9610262200953,28.01341567927871,37.47956438772242,1020.3719581397279,-59.01842714906092,0.3114860715264483
459.805894613266,392.62077416947847,28.00979135018509,37.503940515502975,1020.3792819709698,-59.11997120983749,-0.41864525828642546
460.05767488479614,389.48134984083634,28.00714615610998,37.52332306387248,1020.3793945482932,-59.14665246349348,-0.10596697867139424
460.3004107475281,373.95240611456734,27.99967526470709,37.53436087597753,1020.3859825599718,-59.21497861242057,-0.28149846643645343
460.5454776287079,354.5140166436058,27.99559456803832,37.51412690153753,1020.3838202282852,-59.31485692069814,-0.4075509467123464
460.7884624004364,335.734373235187,27.993988183936793,37.522927202829464,1020.3866853026542,-59.25041867294032,0.26535706463015
461.0411419868469,330.6731659301794,27.985956339411892,37.538868025865106,1020.3877047884453,-59.29412135904043,-0.17242151875771763
461.28609466552734,323.73740067573,27.974606799524537,37.515934447221206,1020.384681521924,-59.335130612695984,-0.16785211184121102
461.53100514411926,330.5622488112059,27.966323408339637,37.489852140027644,1020.3943129676986,-59.399680522767405,-0.26355454988235716
461.7844476699829,341.4867584889785,27.95753405271188,37.45982449188616,1020.407040166918,-59.499634474940024,-0.3945513660911973
462.0271415710449,350.27041265126394,27.945631648051666,37.43316445543674,1020.4110959415325,-59.42897898310118,0.29102228502509786
