time,cds,temprature,relative_humidity,pressure,altitude,altvel
27.306313037872314,0.0,0,0,0,0,0
27.802591800689697,788.0,27.1802734375,36.08444101987808,1005.9042647656643,61.3220756209574,0.0006314931414812073
28.05935025215149,787.8333333333334,27.18792317708333,36.06502444830025,1005.9010356681131,61.32445129954244,0.009216449404978568
28.305886268615723,787.609756097561,27.202272294207315,36.0451634606107,1005.9106651690078,61.380016246066866,0.22452283796466807
28.551778316497803,787.4152823920266,27.224471163828902,36.01668758467523,1005.9156163764189,61.355579561653876,-0.09923558947928385
28.79854464530945,786.9317585301837,27.24066643769138,35.99776123580717,1005.8917121232307,61.31160577136856,-0.17819805752407258
29.041733503341675,786.2530503376653,27.257052420584813,35.972706199056645,1005.9019306098248,61.3209914169425,0.03861950404316188
29.303560733795166,785.452323292923,27.229765410083516,35.94811350581049,1005.9577592721853,62.082075977517405,2.900802497096742
29.550527334213257,784.9337316527528,27.283020214413607,35.9159887272578,1005.9777926331841,62.28177542809172,0.8105960089011182
29.796290397644043,784.2418983225509,27.26268152061554,35.867959560857834,1005.966357121787,61.77860787509347,-2.047390342018647
30.051679134368896,782.3649990495283,27.253245498390598,35.83303553589091,1005.9327348741809,61.62887062874347,-0.5862995870186495
30.29852032661438,780.8015653960991,27.276357794738285,35.801847658014644,1005.9228333063837,61.53712829796933,-0.3716671962300552
30.546918153762817,779.43975505297,27.283917437961815,35.817256965946896,1005.9369596314763,61.540076156836165,0.011867444989337665
30.792636394500732,778.5657284959743,27.294226926436753,35.881277112182396,1005.9330152422136,61.33729761924522,-0.825653576490154
31.03888177871704,780.1543142593245,27.30266250649036,35.96606942799136,1005.9240667634938,61.25280311760999,-0.34295465877006953
31.286754369735718,781.8903063484895,27.311714605346058,36.04332939441414,1005.8976652058304,61.273676214686574,0.08425930535411182
31.54055118560791,783.0043745967891,27.31206595014832,36.103312145237105,1005.8924140159869,61.240687870500366,-0.12958978587974437
31.790013313293457,781.5697786991882,27.31592997307096,36.14384768361907,1005.9114624057403,61.07373789622211,-0.6692346424019766
32.03694796562195,779.2161068400177,27.323867511362145,36.19062619083817,1005.9207849795094,61.05494981314437,-0.0760842147593212
32.28722906112671,776.9891399364135,27.33259992192749,36.23931256140347,1005.9309881553813,61.1746829198871,0.47839270589102184
32.535582304000854,775.560000470641,27.321830392337738,36.28309458436209,1005.938063280872,61.16096049929315,-0.055253268374128146
32.78536248207092,775.7176336275105,27.3386396963969,36.33414744926855,1005.9311748276738,61.04669857278557,-0.4574494994997613
33.04358696937561,776.1770510812026,27.340260584778918,36.38552270311794,1005.9404691036716,61.107541987873454,0.23627926159357668
33.28926062583923,772.8893030837476,27.34130077764465,36.4289295955911,1005.9536631101114,61.05749937798739,-0.20360832617810878
33.53521680831909,765.0472945807264,27.340149036830713,36.44216974875381,1005.9304604698888,61.06791877914956,0.04236390265123282
33.78932166099548,759.2982298326041,27.354034101808246,36.45061128156226,1005.9263837699718,61.19625867537381,0.5050662136331926
34.03519082069397,747.0106293794821,27.357486907005953,36.39997132978588,1005.9332826291378,61.12530825082029,-0.2885782369489916
34.2905650138855,721.9287914630902,27.35970271860656,36.311167098538526,1005.9266124013991,61.15725226673074,0.1250837082052802
34.53646731376648,704.3996815563063,27.35559689658746,36.25419711309286,1005.9250773260893,61.084814343221865,-0.2945752422663388
34.78232932090759,686.7018717085618,27.354781293105557,36.286274393158365,1005.9256745880157,61.079559565850715,-0.02138077211564756
35.03864812850952,639.5186792527533,27.35607716246481,36.46082036924596,1005.9201675746305,61.27441424297884,0.7599258667555694
35.28490900993347,610.3139953553043,27.358798025718674,36.74757037073285,1005.9063271694882,61.21890626130874,-0.2254046908863546
35.530606746673584,589.4225651117753,27.360544119116287,37.027287462495146,1005.9125859268123,61.215688785186735,-0.013095604644352051
35.776734352111816,571.716557056607,27.370761044937627,37.250424710909925,1005.9242517118926,61.08477059212984,-0.5318706457015274
36.022111892700195,568.5937845111384,27.37185984958622,37.43312080167109,1005.9212757214469,61.21059479248527,0.5128303031412996
36.270583629608154,592.3843138715749,27.36892644571187,37.51918368782395,1005.9219149673769,61.369385981684786,0.6390714339407538
36.525959491729736,625.5645844811086,27.379778893020557,37.68459258984895,1005.9136217723232,61.234214381245664,-0.5293208367993119
36.77175736427307,651.8733779598043,27.379466262052976,37.892622972662174,1005.9098818899764,61.18870284846815,-0.18514938780357423
37.017595291137695,686.3114679357451,27.388362017096462,38.18410901877251,1005.9103820401677,61.270678426593946,0.33345116094850946
37.274009466171265,723.8169269871454,27.39770935399943,38.49174663277334,1005.9157136809428,61.27395493055999,0.01277862169173871
37.519564390182495,750.0353168529485,27.400069383262096,38.691288434147076,1005.9214196581435,61.34012362297297,0.269447119877719
37.77623677253723,771.8763760622795,27.407041744337462,38.81720963210771,1005.9137423546878,61.414241109867056,0.2887764109920041
38.01963686943054,788.04225590104,27.411516204280325,38.90427883483207,1005.9207700549116,61.458137674498325,0.1803408228559877
38.26544976234436,801.9991626149643,27.42173473414117,39.08278224972576,1005.9219382239057,61.354505443032984,-0.4215862138516823
38.52323770523071,812.3889321298639,27.420945319268334,39.31376048230413,1005.9069498094885,61.3594368760416,0.01913693744461698
38.769609212875366,813.3243669588069,27.420438718249162,39.48068651693951,1005.9084097463651,61.20266890899651,-0.6360486944951331
39.01764893531799,803.5352056641393,27.423752164320014,39.88085393987654,1005.927299324647,61.18689318965118,-0.06360286826716634
39.26395034790039,786.505358417432,27.427697819974963,40.53036488441366,1005.9221009612734,61.17441441829285,-0.05066748043168798
39.5100371837616,757.663704379432,27.428410637904808,41.25670805988278,1005.9231597425139,61.137693971826025,-0.14921136353494038
42.75627017021179,723.3914581595127,27.43439588575744,41.984491368430994,1005.9243684549809,61.072168684841664,-0.2576268489395281
43.007493019104004,631.8955350893525,27.352520950872478,41.93217868832394,1005.9384728931778,61.020813145729896,-0.015844160429635934
43.25501322746277,572.1039463285762,27.354626604946397,41.840513792835786,1005.9431496704902,60.90670637651906,-0.459640160469363
43.51138186454773,533.733146833515,27.37242135517199,41.744326453052786,1005.9486098826031,60.97412934682341,0.2620292372775415
43.76398706436157,509.1089767051568,27.39475666175255,41.67844881800973,1005.9560885230193,60.74483081963882,-0.9070635872781914
44.01892328262329,493.30660191783,27.40909017568362,41.49905076615521,1005.9352149784961,60.85464159600417,0.4304894284803727
44.26516795158386,482.8072899445736,27.421997125373146,41.28210388116176,1005.9395772578554,60.86768729923517,0.05296964689699747
44.512649059295654,475.71117839073634,27.439376446237773,41.06806363939237,1005.9381542769412,60.965185232637445,0.3945190619789907
44.7601101398468,471.15730251504635,27.450529493849956,40.82263077290472,1005.9319661090993,61.08296057967509,0.47572719927326634
45.015933990478516,470.38443255933913,27.459506154452225,40.58613949879855,1005.9442629881559,61.12245832463837,0.15439905094316245
45.26242518424988,472.7545096714644,27.467086135165033,40.32211897965051,1005.954259617574,61.1522396260535,0.12086900516588579
45.508915424346924,474.2754887178826,27.473769807130942,40.000923053256535,1005.9373774337205,61.06237936271672,-0.36441706223642084
45.75648903846741,474.1767927993905,27.474420449582848,39.6638095313145,1005.9482590012354,61.05332346212136,-0.03657759622304709
46.00316262245178,473.3969403017854,27.480295824611606,39.43498576422651,1005.953746305055,60.975343721735776,-0.31645769529124507
46.266244888305664,473.97124857302407,27.48952413222297,39.410827645374134,1005.9512911238669,61.04164550166544,0.2515152251113103
46.5120325088501,472.90677628088525,27.488169221898552,39.57201105706911,1005.9430305970632,60.90677014848788,-0.54925902408089
46.758479595184326,472.94017438391467,27.490938271894034,39.787704736377314,1005.936849039875,61.00723040810131,0.40768743969761956
47.01431751251221,473.31986493322256,27.49453456548842,40.0071938287191,1005.9356948873011,61.00174844621509,-0.021427400241190164
47.261250495910645,472.1304981911926,27.489565352800106,40.10855902123536,1005.9411097109343,61.00854041024941,0.027504841437293894
47.517394065856934,468.5011705314365,27.4918342283321,39.903356789296105,1005.939309590775,60.979751251745775,-0.11239378031448688
47.76366925239563,466.5303345474633,27.486013155150133,39.594959224244754,1005.9291003527186,60.987050650232995,0.029648323243488834
48.01016569137573,462.0412473475226,27.49501246253886,39.28475986351141,1005.9385451463825,61.04106643137593,0.21906737882465604
48.26622247695923,459.5186671865819,27.49896842321526,38.967113091804116,1005.9365184021693,60.91286609939811,-0.5006822109413221
48.514458417892456,458.6163356019488,27.501507131034714,38.738318672712175,1005.946913284684,60.82765845898222,-0.34324801792074683
48.76232147216797,455.52946815123636,27.49585922068073,38.61025174197691,1005.951472545121,60.84221298778271,0.05873874306107778
49.00915837287903,453.9067519002668,27.49769254712318,38.5300611250541,1005.9541334597525,60.909096408019636,0.27089292308067436
49.25548458099365,453.22364359884614,27.51167397971247,38.532685060930866,1005.9557553968689,60.89975028700969,-0.037939772051024175
49.50390601158142,454.21829429517703,27.524285011684444,38.542677759281105,1005.9556508192006,60.828835578752475,-0.2854618629650873
49.759987592697144,453.78183114205655,27.523281662392836,38.5178936628545,1005.9674733173449,60.828218860859224,-0.002408354073944307
50.00645136833191,453.5017342173474,27.522637770579795,38.47078052111584,1005.9740941315201,60.89868099530962,0.2858708872260688
50.25344681739807,453.68024170560335,27.520335308981075,38.40103838628501,1005.9715717245113,60.923279121986496,0.09963045724948852
50.50179171562195,452.7200248264932,27.515219168238378,38.285538539323106,1005.9602607519456,60.87264594893191,-0.20381184197192803
50.748488903045654,454.2533583296552,27.52292155614547,38.15527810449824,1005.9674393316973,60.86886349361432,-0.015331951490205237
50.997225284576416,455.5956210682438,27.524225951841462,37.99051595318043,1005.9591049480397,60.89736699243747,0.11459594970714432
51.24381232261658,452.87443232552533,27.519535235563925,37.81618418144237,1005.9475152517057,60.96367681065863,0.2690074126059123
51.49008584022522,450.41161490892074,27.518344280619264,37.66267010158125,1005.9554810598835,60.99148190783528,0.11285841225094098
51.74590849876404,451.697181030065,27.519469243200092,37.54752423389063,1005.9615591640855,61.04541109241822,0.21079139205571265
51.99206781387329,451.44741064873546,27.51648265379921,37.384133787581426,1005.9507574481078,60.9790191200878,-0.26973856590499423
52.2412588596344,449.4958345496751,27.52555166516028,37.22106799581321,1005.9434035134573,60.95481307739291,-0.09713886492105986
52.48782515525818,443.58607695710725,27.524094527673025,37.00403879703,1005.9315624784526,60.917230605916,-0.15241970882346367
52.73387432098389,440.15179232545637,27.52127017181874,36.82312417586075,1005.9404042555256,60.888670332990834,-0.11608357032006862
52.98201060295105,439.02263886738353,27.526804741890118,36.646596560061894,1005.9443168270387,60.91229802043839,0.09521402030881249
53.22858691215515,441.52233130824766,27.532175787059618,36.49598405539834,1005.9451609170462,60.8361732759251,-0.3087197559667834
53.48472237586975,445.992550566726,27.528345507760662,36.365951722270474,1005.9386660289616,60.977272302217955,0.5509191356912765
53.73088026046753,453.16037077249655,27.527706731733936,36.27415954568528,1005.9432013332989,60.99715450870725,0.08076622738824535
53.97738695144653,462.0593559667134,27.534573908934377,36.206867767208394,1005.9389048491287,61.05409051009619,0.23097879599458754
54.234561920166016,471.71104561872437,27.533523037761405,36.14713252119938,1005.9453812945316,61.074563245926946,0.07960942734225204
54.480746269226074,477.54668682498465,27.534667925860813,36.08792374226803,1005.9430312762956,61.15987437215755,0.34650666245118467
54.73688244819641,483.4412108132153,27.53904120257257,36.1019811493629,1005.9494310223316,61.22493266694878,0.25400168674889845
54.983017683029175,485.0744315471155,27.540028443078747,36.11522385450977,1005.9459805981232,61.27021899650482,0.18405915757946403
55.22929620742798,480.7486750480051,27.537023443760486,36.117320961392544,1005.9351482151516,61.299281155702744,0.11794827364661634
55.4851348400116,475.8231081415222,27.531456454754128,36.11043998236413,1005.931539685454,61.2067357809464,-0.3617630531894159
55.73291897773743,469.4378447378835,27.53152243513879,36.0560712095959,1005.9206059110378,61.17685245114183,-0.12065869500135185
55.97932815551758,462.4740897258568,27.531564777551207,36.01291609480582,1005.9265162876833,60.98976979713007,-0.7588634710404064
56.22577619552612,458.72166779799267,27.53341122719396,35.983058398505335,1005.9247690641994,60.97352974594816,-0.0659034003849672
56.472036600112915,457.3883521382138,27.534596172275503,35.9347359007407,1005.9123741579884,61.057329843135896,0.34026686612676293
56.720009565353394,456.17444933658214,27.537175878532242,35.953660757087405,1005.9127007081372,60.932976105124126,-0.5014935664101265
56.97590899467468,455.7536939717625,27.540650662215523,35.97623306569042,1005.93567703354,60.95770418341148,0.09663129786324252
57.22448396682739,455.12541983179983,27.546519131782098,36.024021059417045,1005.9351272339591,60.979441533449815,0.08744861759195158
57.471004247665405,454.7222296581971,27.543008070824715,36.096276791506135,1005.9338084998254,61.05232132508483,0.29562548326267346
57.71955466270447,455.8965156942161,27.54621270419256,36.14680904813015,1005.9407846817687,60.92531872683249,-0.5109918153635057
57.96610879898071,458.44139271655627,27.5537270835592,36.193807036267074,1005.9347963405321,61.030121201570964,0.4250770368188605
58.22191882133484,459.3580331432165,27.549452996037203,36.228111236060414,1005.9429151175344,61.00973562018905,-0.07968786455313713
58.468663930892944,460.6627953375112,27.548529409442747,36.22732722528179,1005.9544512837044,60.983408785766876,-0.10669781935282485
58.715107679367065,462.57488930779493,27.553394534897123,36.17052939816585,1005.9574603396125,60.84873896609034,-0.5464409396202946
58.97102761268616,465.23499141762,27.55833596905102,36.104938949321685,1005.9488411905747,60.85502682287926,0.024569922555118466
59.21760821342468,466.2255766719779,27.54877215997445,36.01074523512026,1005.9472687922689,60.91212451372453,0.23155881487006783
59.466249227523804,465.7865045522446,27.546273211332966,35.89421949933708,1005.9345634468809,60.93916748224614,0.10876101839692084
59.712424755096436,464.0717030649779,27.550127360118356,35.79862352666791,1005.9352825552377,61.014034189672934,0.30422174511694755
59.95869827270508,462.25472705171563,27.55623928436761,35.718496578246665,1005.9349590103919,61.0053678367885,-0.035178507482552974
60.20745491981506,460.01392374030974,27.5547037353301,35.63168557502869,1005.9304421571292,60.93056226882961,-0.3007118130389874
60.45369839668274,455.3515870515055,27.553718308358608,35.56352931002848,1005.9222685069964,61.090196654043915,0.6485002817929236
60.70914816856384,452.00131020350676,27.558543748219122,35.47604949190622,1005.9232639081401,61.00046680747985,-0.35115993375578747
