time,cds,temprature,relative_humidity,pressure,altitude,altvel
20.195223093032837,0.0,0,0,0,0,0
20.703057289123535,616.0,36.344140625,39.219238720503675,1011.9073854201321,11.213616817861672,-0.060363073828417206
21.000076055526733,613.6666666666666,36.350911458333336,39.20738911040139,1011.914041262865,11.149511045692986,-0.21543953533091104
21.290094137191772,609.1951219512194,36.36685880335366,39.17235367043208,1011.9320668860864,11.100685178877495,-0.1676056963100344
21.617671012878418,612.9601328903655,36.37425184281562,39.13812817049492,1011.9263881412995,11.095522626763083,-0.01576033471116363
21.91175603866577,610.2405949256344,36.38485020915355,39.10908738601797,1011.914506548034,10.980189338246683,-0.3921102394015112
22.204232931137085,605.9399580046536,36.39024159073336,39.09358494958486,1011.9003404433597,11.004011013218367,0.08135673611768372
22.515319108963013,608.0936779801143,36.400998111307075,39.06231915364664,1011.9151284174915,11.055913911981675,0.16662791317953274
22.819308042526245,596.2766777112345,36.40071145009871,39.046311601687876,1011.9221996495253,11.0428567690555,-0.04295238845472998
23.11265206336975,584.3712436111891,36.407794016754984,39.042410230570894,1011.9258456755174,11.143414579533308,0.3433214245337693
23.424707174301147,573.1385449389637,36.40870976434377,39.02078435852023,1011.9357490829734,11.226466500388025,0.2660216713965668
23.727946043014526,563.7763708936654,36.41111667300324,39.01544967440302,1011.9251844027979,11.287528124293019,0.20158872268709252
268.6675169467926,560.990691519093,36.410842592384235,39.02043576223822,1011.9202927396319,11.112815339042871,-0.5797011890905786
268.9385139942169,652.7043798166189,36.40150068652693,38.35322928938762,1011.6581226481957,13.283597497639292,0.008863683860071874
269.2323262691498,711.5635820479567,36.43930720121135,37.8992191015921,1011.5035089676693,14.622421282615921,4.540277971790692
269.5284569263458,749.3367265047262,36.47084675215078,37.59719901153639,1011.4160782648135,15.442663624076843,2.775063185838688
269.8406488895416,772.5027704644599,36.50207277654582,37.39254325011388,1011.3372384217349,15.969247994840522,1.6809225685462215
270.13328409194946,785.5781645116275,36.51847335469844,37.242146965752625,1011.2981357064658,16.408816484175873,1.5019925776243084
270.4283130168915,794.3274678854804,36.53991397041536,37.13074946531992,1011.2608541354338,16.534194538383385,0.42477165000003014
270.74890208244324,800.300527579256,36.55913115967988,37.05284714422648,1011.2422244467542,16.807224392032964,0.8510581333323247
271.04285407066345,804.8502093453194,36.56964437154452,37.00079940693556,1011.2409677135646,16.873385049110073,0.22504617221648004
271.33852100372314,806.3369032111016,36.57639114628632,36.94822434610146,1011.2348416644791,16.86897803706989,-0.014906732442085782
271.6330392360687,807.2909777813169,36.582540114763574,36.9356902607653,1011.2242823231506,16.923429536040956,0.18486727435380462
271.9304828643799,808.9780206268296,36.581028338669164,36.91490951794319,1011.2319511612386,17.06051022329816,0.4609070790754865
272.225604057312,811.493697884427,36.587335274661804,36.899542430104745,1011.2214787719423,17.09821490809326,0.12774483350215965
272.5185511112213,811.6750844496139,36.58774414966843,36.906525495669555,1011.1979232769728,17.070540563563682,-0.09459995188103758
272.83911395072937,813.9410333210919,36.59346437226743,36.91949832118034,1011.1908998727492,17.161932194781528,0.2849691701057325
273.1340000629425,817.186476705107,36.60077383526236,36.95758879158752,1011.1811562490816,17.142877578622056,-0.06464738976503284
273.42970395088196,816.7614124444999,36.60364535109129,36.98618865310609,1011.1758521958936,17.109819857709258,-0.1117369284626372
273.74301409721375,817.2051458117289,36.60366884791866,37.01088873722976,1011.1814659509788,17.091310914078537,-0.05911874621606804
274.03630685806274,818.5646810497941,36.60921172917154,37.018382948809226,1011.194410686036,17.185879307048523,0.321509034065233
274.33416509628296,818.0041222198616,36.60542175219692,37.01883426199477,1011.2011689861523,17.129706660579203,-0.1885873196027733
274.6273820400238,819.0774181118778,36.60480883988174,37.01275527439513,1011.2033082813642,16.971795424221604,-0.5392226582080628
274.93157720565796,819.7661976262722,36.61722041726511,37.01097700526814,1011.1950390951991,17.041893186321587,0.23053003711626638
275.23406314849854,819.1334439574352,36.6288240065417,37.033098623656514,1011.1975011314313,17.13124525632634,0.2952705194353947
275.5372459888458,820.1604093580672,36.62899341524626,37.05154085157153,1011.2018541745833,17.097763565100063,-0.11044849634136686
275.8425998687744,819.028168782835,36.62910213200008,37.06549892960383,1011.2067960578673,17.25542263239051,0.5164050215088067
276.1357181072235,818.3015619641698,36.62000554437189,37.07872427679524,1011.181341993188,17.25015295926023,-0.01797407411032417
276.4390368461609,818.193525107834,36.623334233900096,37.080732322950944,1011.1730999725069,17.27551724037782,0.08361806313601779
276.7627251148224,816.3329054255871,36.630928225368606,37.084232335396855,1011.1650131202028,17.257840892575793,-0.0546321878241313
277.05589604377747,816.57189710644,36.628524505030455,37.084355524024495,1011.161671941852,17.348151771437244,0.3081743588248283
277.35124826431274,814.933980361103,36.632439765858685,37.07388658356861,1011.1339756141027,17.393403779436714,0.15328287305041963
277.6460289955139,814.5993748269776,36.636771631578746,37.071391782419845,1011.1364585030096,17.515764902232075,0.4145277390813657
277.9429681301117,813.309871549761,36.63045519001408,37.06753466518458,1011.1177700133444,17.66178181479887,0.49181168487412047
278.2363109588623,810.3327971655232,36.630040214892425,37.06309192473351,1011.1185653398234,17.722162990438164,0.20581416572485522
278.5294589996338,810.2135700618678,36.63523173790954,37.07087721196413,1011.111607459973,17.72153576856669,-0.00213982024549382
278.84755206108093,809.7787994010904,36.63492480506837,37.08653137808846,1011.1127372330567,17.80945738807077,0.27637464129262096
279.14852499961853,807.3502432035576,36.6292700030806,37.0986122874312,1011.112862796232,17.785473249422424,-0.07969796880057615
279.44455099105835,807.2247659247187,36.629279630149135,37.12542713128875,1011.1403692786992,17.5461476996,-0.8083733794526761
279.7568562030792,808.5772721088059,36.629285808247495,37.13418754940102,1011.1555235324647,17.436517077344188,-0.35106628104596316
280.05183005332947,806.5791721586896,36.63474760315563,37.15042359626341,1011.1683956412562,17.39532392696715,-0.13950393126482707
280.3476810455322,806.371679348798,36.638252668694896,37.16922600712133,1011.1672396750847,17.269941710317973,-0.4236728542855943
280.6415841579437,806.9550375476571,36.64232129469324,37.20249988536882,1011.1714935655008,17.272802094223668,0.00974803789680667
280.9359710216522,805.8963729780653,36.64129375119004,37.204854939713286,1011.1779951310721,17.274429045440723,0.005525161447098859
281.2305998802185,806.6500132820688,36.64245360964494,37.210568783538804,1011.1827919174178,17.32484228149074,0.17109305979079115
281.5344669818878,805.3423683950083,36.641378663308735,37.1823703844296,1011.1814740992954,17.367819004169302,0.1414493862311983
281.84559512138367,806.2944850344272,36.63705027119409,37.2024865524079,1011.1735093557201,17.241668124476472,-0.40541493448813465
282.13849401474,806.9054986807316,36.64336894191874,37.234501642728134,1011.1836101790726,17.226119696355507,-0.053089508953541774
282.4345920085907,805.8645817852001,36.643785347586935,37.25286029500001,1011.1798260849663,17.255305372144615,0.09856095785534555
282.7488989830017,805.1965812467085,36.6513296796529,37.268972708994134,1011.1758240063912,17.271116437203247,0.05030788957130445
283.04468989372253,805.8426696660455,36.65253264420926,37.268677248650455,1011.1660617437878,17.302514996333127,0.10614332553900996
283.33842611312866,804.8242617406092,36.65876246776775,37.27052502812889,1011.1572736290914,17.421616823186767,0.40551088827716764
283.63395619392395,803.4541910243037,36.6591218564396,37.26742208505916,1011.1560305894113,17.440549420303583,0.06405558471670303
283.9383430480957,804.0079887908411,36.66662959827975,37.25275743171785,1011.1546084081327,17.41645526936857,-0.07916310401002954
284.2311210632324,802.9303540375644,36.664170527895465,37.2434542428417,1011.1596156070316,17.582848518113128,0.5682673184854785
284.52486205101013,803.671820369783,36.65895388465008,37.231093869435945,1011.1585078850085,17.58526125848767,0.00821481639941
284.844703912735,804.147650775958,36.657425420054814,37.2125255843238,1011.152801370999,17.623264401935256,0.11890061418928405
285.14846897125244,803.0199810593424,36.652805986030316,37.168831741938476,1011.1438439409766,17.517876484943937,-0.3466820402927595
285.4420280456543,803.371080263082,36.64620294577169,37.12376375399502,1011.1343739179943,17.512739162673387,-0.01750414002720893
285.7633059024811,807.1789712143939,36.643784771387494,37.11175907857522,1011.1335416565714,17.475696503995977,-0.11527299585800195
286.0667350292206,811.4139442560625,36.6422329262808,37.131762891154565,1011.1317838428129,17.47796434019454,0.007464362934438065
286.3655118942261,813.773448579448,36.64851414831064,37.14024535421823,1011.1446432425662,17.49504360066035,0.057163339240031544
286.6598620414734,813.8546123407407,36.65982218188299,37.141464845454884,1011.1407055401546,17.523654754299407,0.0973254027745909
286.9529709815979,813.548441000686,36.65616336651136,37.14647150995156,1011.1176220688365,17.570768086188803,0.16099365451821418
287.2473201751709,813.710215430264,36.664731009762576,37.13053351797654,1011.1052806554278,17.583350089156404,0.042715299873829514
287.54941487312317,813.0975178069039,36.66477139980602,37.11831478952368,1011.1076516764658,17.851190195086417,0.8859140708592861
287.85887694358826,812.7043237449244,36.662978043090575,37.10824014955177,1011.1147935746135,17.7737249787922,-0.250504162619902
288.15268206596375,813.168509570921,36.660007893273146,37.099696028008715,1011.1356133066735,17.62755845129905,-0.4972478757183201
288.44782304763794,812.0333670331194,36.654463268670156,37.087932628900234,1011.153020705277,17.702910840314665,0.2552226028339343
288.7830059528351,808.7970949154725,36.65454360124139,37.073859035596726,1011.1614764950705,17.662520126274643,-0.12199465926939064
341.0040068626404,808.7970949154725,36.65454360124139,37.073859035596726,1011.1614764950705,17.662520126274643,-0.12199465926939064
341.25555396080017,789.523878445132,36.702036293146456,37.291400444431225,1011.1370061441592,17.724939267899,0.0011895103209942964
341.54756808280945,777.155437663818,36.77078915198434,37.43056670602393,1011.1314403983928,17.807005845353586,0.2795032570349036
341.85865116119385,770.65111469325,36.83499279482167,37.51761187366869,1011.1275413050876,17.712051185325308,-0.3063221383589976
342.151850938797,765.7604995223408,36.88347210350372,37.57353240139932,1011.12318179736,17.741781203402404,0.10109253633860027
342.44875597953796,769.0706205068202,36.92374968866853,37.6029466966703,1011.1115601602788,17.802545618632674,0.20450883334896788
342.7598760128021,779.0765321215666,36.944069721725214,37.63450719231518,1011.1075386004612,17.746559199719634,-0.17972930151754657
343.0527379512787,790.5133561335645,36.96263775146877,37.648388375744126,1011.0871664912083,17.954767766324917,0.7112165694641696
343.34808111190796,793.9120181078239,36.97637292072617,37.65086370913041,1011.0847144073763,18.16876538675425,0.7242962377966583
343.6511380672455,800.0339169680994,36.98882591506899,37.63756205196275,1011.0818912050793,18.058963496188095,-0.3627855806705353
343.96055603027344,805.7538870694729,36.98765117414359,37.62485837433437,1011.0903731829545,17.99396881931281,-0.20978888025869932
344.2540559768677,807.9916043067584,36.99788292554903,37.6038787132084,1011.1119997406589,17.843088667055316,-0.514136898066828
344.54840111732483,810.8606726833781,37.00444907456427,37.581999912830476,1011.1137408981438,17.868590318779454,0.08663214704649347
344.8631229400635,806.6114969152484,37.01775923459284,37.561545356178705,1011.1244965006586,17.887172010323585,0.059046333506309265
345.15701699256897,798.5107569877346,37.015385268719406,37.55477120744245,1011.122354434733,17.93583301612842,0.16569615137541616
345.45177817344666,788.6548200543251,37.017500347530046,37.537533049362104,1011.1119354957865,17.76645263973967,-0.5743790502072135
345.75866508483887,778.3890138673293,37.02067696006679,37.52871912666432,1011.1039995947284,17.83530425828687,0.22427678462457942
346.05610704421997,771.8010104537993,37.02817335727717,37.53785138482131,1011.131318035693,17.743891021287332,-0.30733947315061666
346.3534252643585,766.856693992038,37.029345560002795,37.54585686636746,1011.1235454926326,17.724179354929145,-0.06629225802150539
346.64737200737,764.0419738981799,37.03919419582946,37.53818587983183,1011.1279300905452,17.677899529776333,-0.15724380216963987
346.95585799217224,761.160875875471,37.043695206601924,37.512038682655124,1011.1266667385314,17.703045858425792,0.08151423241789045
347.2593080997467,758.9536954583608,37.044764419474674,37.48671887456955,1011.1193422412707,17.776505561405408,0.2420896395485366
347.5549690723419,756.8207389939316,37.04181202530217,37.447163100460045,1011.1312292465029,17.669416514796268,-0.3621948707653405
347.87600111961365,751.5110970638373,37.045375178850385,37.434420320951396,1011.1241446799047,17.58048458605969,-0.27702399397209754
348.16931891441345,748.8201896855015,37.03492686862801,37.42622083324306,1011.1270649382806,17.461033425692076,-0.4072358101397364
348.46528005599976,749.6011232307352,37.05194231417402,37.41889835271757,1011.1336542799045,17.47022946205348,0.03107209486440369
348.7859330177307,749.7440238526202,37.057334045213004,37.409907669800425,1011.1250573273464,17.575414035744377,0.3296548360864714
349.0811069011688,749.8357292450294,37.0553363176343,37.42321704197733,1011.1220715446203,17.736186633120337,0.5425035082718581
349.3748290538788,751.3276107644267,37.06140137014438,37.429612570290345,1011.1176241946532,17.64954545503125,-0.2949414619215389
349.67143511772156,751.2102417282226,37.07075140184362,37.44019627444901,1011.1125990512543,17.581316132703456,-0.23012355531278184
349.9688811302185,752.2096937461498,37.06576608140947,37.45958947777924,1011.1083567511362,17.717193684823656,0.45663006146067303
350.2615749835968,754.6423723607849,37.069913868819135,37.48476250653104,1011.1081338343713,17.799180451131434,0.2802612100611997
350.55757308006287,754.7704951695945,37.07439495671273,37.48177364406521,1011.1033202567861,17.833689195812926,0.11652652948145319
350.87605905532837,755.9274897208098,37.08272849110915,37.43315239037838,1011.1152283497688,17.795499008287358,-0.11992146268841355
351.17028617858887,757.0282397856827,37.07709084122529,37.378598584631476,1011.1082336886899,17.82804931389197,0.1106197314667244
351.4652621746063,757.7346378076921,37.08082000114841,37.35213141795174,1011.1152570958155,17.724666891851065,-0.35050601987511043
351.77649307250977,758.1879633912399,37.079574607861026,37.32022949722896,1011.123545500864,17.712372789633278,-0.03945083649252919
352.06997203826904,759.5536543615225,37.07877538614584,37.32950402504006,1011.1132427146324,17.715173240634307,0.009542580161329672
352.36465716362,758.6387883566316,37.08008176837993,37.32051769144625,1011.1212354124223,17.678287140706022,-0.12532474390017395
352.65893507003784,757.6934224535715,37.09001651289047,37.32312151863916,1011.1154127529702,17.76158951854189,0.28310549548272324
352.96341609954834,758.1615137497125,37.08911495309873,37.320778949799944,1011.1198320959696,17.674604308660793,-0.28565644703256415
353.26835203170776,757.3871350873093,37.08489783048654,37.338313189022685,1011.1332269821133,17.68846401304484,0.045510553716766745
353.56201124191284,757.606698581359,37.09310718429223,37.360147361466936,1011.1178452495924,17.72395670319365,0.1208517605404679
353.87819814682007,759.1806320696628,37.09837547495636,37.36561733053057,1011.1166902912773,17.720404817874652,-0.011221390840730431
354.1746380329132,758.3994041244213,37.094479253731386,37.38410738660564,1011.1255865447379,17.70276104041239,-0.059514070726096914
354.4773828983307,758.6145721430552,37.090159606532595,37.39376400076125,1011.1257038793281,17.69885054136356,-0.01293457864967889
354.8102741241455,759.4691697292913,37.091026059080505,37.42970876233617,1011.1223584042029,17.68317787448122,-0.04705732443521517
355.1039869785309,758.2263134139077,37.08430499156414,37.44225646775738,1011.1221183849793,17.65501409012534,-0.09593712128797184
355.39757895469666,758.5034924897925,37.09636528784146,37.45451657301306,1011.1178864652195,17.548882965212808,-0.36129357574944815
355.69459199905396,759.7561427721225,37.105924168407164,37.46861305074888,1011.1216510712854,17.66839413810888,0.40256395080782087
355.9881160259247,759.1269913308947,37.102962124053825,37.501135797268134,1011.1081806826396,17.62733718270025,-0.13982837233972598
356.2887029647827,759.7980108643326,37.11015763811172,37.528216633952496,1011.1217465961455,17.629517403584867,0.007247251267832008
356.5817651748657,760.5868901401325,37.12576093729408,37.562636214143865,1011.12670285792,17.579071978808727,-0.1723176062920888
356.89367508888245,761.0931474439589,37.12296932721305,37.591099242855826,1011.1392574045389,17.54697298176802,-0.10281452834026043
357.1882920265198,760.7015190975859,37.11753927913444,37.6178644893755,1011.1404399935715,17.656744846409012,0.3728371292826777
357.48226404190063,759.0171642927477,37.12497024720329,37.632874966430464,1011.1508363347577,17.62836597399295,-0.09649362780901492
357.7973802089691,759.3692726244414,37.1242811845525,37.63188341726866,1011.151850715705,17.593968394033347,-0.1091176264892031
358.0904610157013,757.8039476335454,37.12747753725241,37.63766294514585,1011.136582036653,17.816579148872957,0.7596240183042515
358.38472294807434,754.649866752385,37.135056574744624,37.649789973398065,1011.129020307481,17.847793688867714,0.10606613977191996
358.6785452365875,753.7005319301884,37.13992036468576,37.65546763323013,1011.1359755911026,17.646732038512564,-0.6843650994323494
358.9743239879608,752.3747883550383,37.14304166506405,37.63567596389096,1011.1333345012445,17.595880544710862,-0.17205765289806002
359.2804431915283,747.5831691864445,37.143155487053505,37.627224809818735,1011.1225286662172,17.627982668317603,0.10491339849263742
359.57458901405334,745.2246989941307,37.143228531453666,37.617530930183534,1011.1346054005729,17.53145467935207,-0.32800500531468224
359.88487911224365,742.9946534616519,37.14698393276629,37.617664672597215,1011.1548546866267,17.31672219518107,-0.6915500271339029
360.17855525016785,741.5635386215033,37.151213209852266,37.62835541834948,1011.1718623537275,17.308940607796806,-0.026517344468507703
360.4822690486908,741.7199042141423,37.152108039688606,37.63732095156122,1011.1752440000322,17.254849099149517,-0.17801739801010785
360.8159689903259,740.0289628021317,37.15814012012295,37.634614840980724,1011.1836970977217,17.1858435550098,-0.20671978382211081
361.1098439693451,737.8690412420607,37.15837260864169,37.649898468700336,1011.186621922407,17.133604472779915,-0.17777713985644925
361.4063138961792,739.3489884863666,37.16579891326916,37.61929022487623,1011.1807033532766,17.090486530910802,-0.14542250666876924
361.71395993232727,740.6569909974413,37.163287581170074,37.63146299129907,1011.180588474148,17.138251364290557,0.15546568390701665
362.01820492744446,740.4216189995175,37.165314506245196,37.65848064774808,1011.1799230948872,17.285757989961684,0.48459109709867054
362.3118860721588,744.2114040659486,37.16297671662916,37.65871805585968,1011.1810085163876,17.37795280027147,0.3137970626230491
362.607537984848,744.8521820980916,37.16693428799924,37.62061744528859,1011.1810800863321,17.33590071537739,-0.14229628048219348
362.9381561279297,744.9051389803573,37.17311258290936,37.64508541001548,1011.1578063413455,17.490780631571138,0.46812880770947607
363.23429703712463,748.5216993536502,37.18617384050183,37.620349024356024,1011.1565531675348,17.478531404229475,-0.04135890515313647
363.53025007247925,748.6930541806996,37.18545942009419,37.58538911807455,1011.1547612069508,17.348325146806523,-0.4405332190580838
363.8430688381195,748.803019843889,37.194097329805864,37.556536634857835,1011.1607818400412,17.41070719876997,0.19933680436941592
364.14651703834534,751.7396500318209,37.199640642978714,37.529582465245575,1011.1490880349234,17.49950189871917,0.29274846715291414
364.44476103782654,752.1911799481346,37.20137874552721,37.51215853974246,1011.1553060701106,17.483794930730927,-0.0526439932372589
364.7577679157257,752.4809458540752,37.20067488296105,37.494622641058555,1011.1534096945602,17.51020184274943,0.08541753912271101
365.05404806137085,753.7416736393176,37.2020424612072,37.483390101433635,1011.148738255257,17.652534548505205,0.4738011745153261
365.3573019504547,749.8933877489809,37.21026717325671,37.474035387852545,1011.1197509927172,17.876368783469214,0.738180918787247
365.6529631614685,748.8568096864227,37.21365607105592,37.48080484293347,1011.1046378635954,17.91633303724041,0.13532108617868763
365.9583029747009,749.982881408627,37.20855376368594,37.4744378413897,1011.1189507583996,17.60866184316808,-1.0065146468897095
366.252170085907,746.7646961481053,37.210737226713434,37.485208702776745,1011.1508983240877,17.59090412237006,-0.06043885529574875
366.5560829639435,747.9237682426648,37.21031917086352,37.50701915909967,1011.1558427939588,17.478006762718834,-0.37140942549946937
366.8739719390869,748.6675939857572,37.2118701634064,37.49972040562089,1011.1465155653174,17.488956380223406,0.03446787035558824
367.1680700778961,747.3536506785232,37.212865501130565,37.46313338319797,1011.1542802227602,17.54478878756657,0.18970866985663823
367.46582293510437,749.7347556324542,37.224489884082956,37.42267122852393,1011.167547079246,17.58915222968341,0.14898558833539324
367.78801012039185,751.6210692823714,37.224672636971555,37.37759685379989,1011.1505376190942,17.65932375330056,0.218046022916928
368.0939190387726,751.7568240802763,37.23024774741475,37.34437622811168,1011.1405766703678,17.48050023036426,-0.5843332433865261
368.38785099983215,754.3517466807054,37.2320062556208,37.30388293024792,1011.16779908873,17.522120046305897,0.14148705335669015
368.68131828308105,756.0170186172757,37.23677331839121,37.26939400582828,1011.1600404047512,17.455289051837255,-0.22741836373356136
368.97609305381775,757.4439518467966,37.24347109828005,37.20264360997533,1011.1587770815581,17.46206621652714,0.02302300314212904
369.2716269493103,756.9266451676946,37.253227177985174,37.18312298947792,1011.1532611427101,17.533892052827472,0.24307932772431803
369.56650018692017,753.0120918271756,37.26494589844762,37.16851461692866,1011.1582150261688,17.499622094041573,-0.11619448916903283
369.8854470252991,750.4999568520918,37.263369914999124,37.16545023772712,1011.1507301138298,17.57088057853599,0.22339702078418952
370.180721282959,747.8130405389396,37.264177816270546,37.18053383648879,1011.1446418578677,17.580095659076527,0.031212176092151402
370.4748821258545,750.3878231675224,37.266515557516165,37.19222919302306,1011.1604448057875,17.51607343185871,-0.21761838570225145
370.7864520549774,750.6071401516273,37.26983506198512,37.18494260911782,1011.1290713667897,17.686278919473178,0.5463461347313744
371.0815191268921,752.8974305830312,37.27378460557119,37.18440639178432,1011.1264044604025,17.594348920791635,-0.311609152798098
371.38350200653076,753.2924344225546,37.27268064183131,37.18408528385066,1011.1462756558276,17.683777763801793,0.29643624896203596
371.68011593818665,753.545925146589,37.275610734897874,37.21364044117371,1011.1582621773974,17.730741885249806,0.15825670359066096
371.9808850288391,756.2164038864101,37.28483817900594,37.228311093496714,1011.1426371274518,17.552946875285514,-0.5907084698547089
372.2759931087494,755.7806179865398,37.29075982141519,37.24197752902405,1011.1313243362682,17.55078121580201,-0.007337539973093458
372.5797281265259,756.9339859619598,37.29274071388739,37.265628538486574,1011.1243946879763,17.682178955864156,0.4326577726385443
372.90095686912537,758.390666268763,37.29583121335716,37.28928798587372,1011.1221177424965,17.566239393304784,-0.3608901557157278
373.1966030597687,757.5341919818409,37.294105992376636,37.306553953611086,1011.1281575935789,17.593640168641162,0.09269105980463899
373.49083495140076,759.1341015082604,37.29852664721326,37.32396881001963,1011.1216662910487,17.64801512652424,0.1849482927972835
373.81612491607666,758.3695434888542,37.29954429227244,37.35219424151091,1011.1038197976478,17.724021222477525,0.23348702153011514
374.12093806266785,755.7293487502453,37.29466955594428,37.36184720867393,1011.1042080346555,17.58601159492553,-0.45272653197713847
374.41516494750977,756.184569178659,37.29706903314681,37.34457154242422,1011.1012960193655,17.74217479390444,0.5308222691699223
374.72384309768677,755.4019307343176,37.30406670963899,37.331380781677154,1011.0831745910102,17.88409957965891,0.4601299953846855
375.0271680355072,755.616193575831,37.30491886211877,37.34846894069886,1011.1133561360737,17.813860736268754,-0.23138589109479601
375.325049161911,757.1867254104928,37.30546572452231,37.30834896915513,1011.1183829191974,17.64091025140689,-0.5805442774501898
375.61902689933777,756.7615720492711,37.31309377621068,37.27839437169297,1011.1200281245261,17.70717364039634,0.22542395223357664
375.9234240055084,756.4887330979035,37.312531190480904,37.23992666819416,1011.128218975614,17.648485394315934,-0.19279539878838342
376.2204170227051,755.5971256271254,37.32672436910807,37.21302516920168,1011.133475392299,17.746374285270317,0.32960791273106144
376.5217761993408,755.3832008512679,37.33583273405685,37.195693638389145,1011.1168789890735,17.981246911837978,0.7795744604049046
376.83278799057007,755.6041738151596,37.33985868159691,37.18676512459847,1011.0846450603293,18.20957354736418,0.7341667381108029
377.1270468235016,754.6712088335964,37.33334591935588,37.19813274577878,1011.0746226463795,18.111068384520383,-0.33462726122641984
377.4316248893738,755.8637734662306,37.33826278708649,37.2564302898788,1011.0988211192391,17.837156076915402,-0.8996954377729547
377.744677066803,756.9873503616063,37.33596031957412,37.244877752032856,1011.0993479564273,17.89813136659769,0.1946356446296097
378.0388321876526,755.5588519123299,37.33448272847657,37.241760232188476,1011.0974801062538,17.67965124290517,-0.7430841012325053
378.33469700813293,757.1499268319885,37.34081160245472,37.24401173593096,1011.1003266833496,17.747976332500887,0.23090611717700293
378.63789796829224,756.7379568400626,37.341234555983625,37.24762651035783,1011.1075203028518,17.75041651516731,0.008048734927404164
378.9534001350403,754.3240327991756,37.354310892431464,37.25200661713067,1011.1226916436459,17.84276760914162,0.292926823500503
379.24729108810425,755.2827183045929,37.36270253236559,37.26115210686005,1011.1265069334311,17.829358780832106,-0.04559015755637959
379.5416090488434,755.8979474709287,37.36990708049293,37.25424153348851,1011.1252044222853,17.760643338651967,-0.23352078456560024
379.8743259906769,755.5762509924591,37.37089199127866,37.245422173534934,1011.1265397627448,17.740159681070246,-0.06155299597190049
380.17759799957275,757.8776076989503,37.378801157200506,37.241954781217856,1011.1161423706807,17.75614980671804,0.0527225823217692
380.47190499305725,758.2797132367449,37.380238251122265,37.24830028650516,1011.1246946954044,17.712126865437607,-0.14964170933909585
380.77746200561523,758.5377614218885,37.37199413948646,37.24163146687245,1011.133345770867,17.701051728061213,-0.03623018307416812
381.07203102111816,760.8529073083834,37.379508452470155,37.228868729091005,1011.1322778329184,17.85097457610968,0.5098153048375509
381.3705930709839,760.1890892395813,37.38796925938807,37.224798324836414,1011.1244213310923,17.913449585984697,0.2090828808420289
381.66532707214355,759.4048314492,37.38794108802332,37.243472055095985,1011.132214212685,17.841595422990725,-0.24391835611278154
381.9729940891266,758.543282379163,37.397019392863704,37.246950314115125,1011.1315885968178,17.769413817457202,-0.2345567901920338
382.2676510810852,756.5573595069764,37.39920677283665,37.27472035956168,1011.1190145720158,17.653166062589378,-0.3946325839081658
382.56448698043823,757.0741963836629,37.396971953936735,37.303151499889566,1011.1118274474226,17.68774979679459,0.11644161347441057
382.88625621795654,756.3310998285953,37.40281488270454,37.32977248223316,1011.1116285447039,17.64216192532451,-0.14157984959986786
383.1803262233734,754.0629353917689,37.39928743113288,37.34483820634657,1011.1264684624192,17.566289169280697,-0.25799075657096465
383.48054003715515,755.4734185892609,37.404300822668176,37.356718699749905,1011.1303280870177,17.694876826237067,0.4288730395031108
383.8140950202942,753.8707825181359,37.4093374054572,37.364257059264524,1011.125670842794,17.719731391616623,0.07448444006757214
384.108274936676,750.334499964169,37.41075031761757,37.377621370426574,1011.1236013559165,17.829535332097404,0.37296117485872804
384.4040381908417,751.6476930979918,37.41165704330145,37.40318676371453,1011.1094382006982,17.947241024158824,0.39828827759696317
384.707377910614,749.9826218649439,37.41041965092554,37.419571970245165,1011.1143601433646,17.863315230965135,-0.2764637938013158
385.01095819473267,749.2723325743802,37.41508339389502,37.42998022523951,1011.1175187628141,17.817434185654893,-0.15111724905329843
385.30507588386536,750.6077976461706,37.414437762203306,37.375058483495195,1011.1264932591105,17.793518456789148,-0.0813189377890152
385.59904408454895,750.3900495387084,37.412204156232164,37.32915855595427,1011.1369603905802,17.83058310988557,0.12618520322283266
385.91057205200195,751.3250840474745,37.416228586667735,37.269998315245445,1011.1227188493947,17.741523270804187,-0.2856662460297458
386.2143380641937,750.850362657249,37.41881123443686,37.22341374746683,1011.1228828991377,17.661061948693167,-0.2648541252099661
386.5063650608063,751.6204865069599,37.42774573597373,37.19146006784475,1011.1243086603606,17.547481472148878,-0.3894772511183114
386.8302252292633,752.1147076580628,37.437187910327076,37.183600779922095,1011.1314383547214,17.68498654689995,0.42438885274577737
387.124055147171,751.7153552017871,37.43953882862411,37.187130343608025,1011.1226278076402,17.687663830019098,0.00910498289636144
387.41932225227356,751.1008162163732,37.4429367615476,37.18507548153095,1011.125945342656,17.712689396292195,0.08474590134170781
387.71355390548706,752.497728321712,37.44140883365888,37.17307878777001,1011.1330384748959,17.78673943982009,0.2520038084092736
388.00982904434204,751.6028982439152,37.44595609984377,37.16538000035784,1011.1232096735506,17.82659747602573,0.13447117853169574
388.3060221672058,752.8199356623793,37.44334647115558,37.16903532773665,1011.1169780050707,17.937740268599438,0.37543673975112274
388.60982513427734,754.675732921806,37.44901884076043,37.16914287829926,1011.1235701065964,17.879336161268558,-0.19214957908791666
388.9173090457916,758.0162221825675,37.44713123867554,37.167174599796944,1011.1280563190096,17.78449593133616,-0.3082090331247893
389.21158719062805,760.5182134493381,37.45326696338768,37.16801576463116,1011.122806989723,17.765032084553635,-0.06615363517970961
389.509015083313,760.3325595584982,37.45720451827735,37.17059297318205,1011.116643695388,17.729551735131736,-0.1192672645189043
389.83330512046814,762.004705426836,37.46518924448278,37.185073695166615,1011.1214419555005,17.701567935479815,-0.08635383390676828
390.1282579898834,762.7195348110455,37.46667482864457,37.19009109560213,1011.1135602298723,17.70723438309111,0.019195725716878612
390.4222619533539,761.0287257404906,37.46398963759509,37.18697552171177,1011.112917048691,17.627755974902282,-0.27040014972094906
390.73330998420715,761.7349496655116,37.469543543445006,37.18493156073761,1011.1047077613214,17.735639114476196,0.3467785494810349
391.03072214126587,760.7551332456527,37.46764989032364,37.18570200765334,1011.119333342525,17.698130774026577,-0.12609699282410922
391.3256390094757,760.4846010444198,37.466434652767006,37.173346365147474,1011.1224664942001,17.80134030015567,0.34999593990968575
391.6202940940857,761.3857617605577,37.467474059983864,37.15912665318785,1011.1188880422343,17.76668823513391,-0.11744153221211975
391.95006704330444,761.6058172593115,37.47723747529797,37.21380224112383,1011.1144222962184,17.772971133715323,0.019052071174998044
392.24572587013245,762.1052937794233,37.4725874128511,37.19993145593359,1011.1077665894938,17.773982720928466,0.0034214652349608653
392.5423970222473,761.7093139164285,37.478699654074916,37.176142462335754,1011.10967107585,17.766648172404754,-0.024724333564957582
392.85452795028687,760.0221665587371,37.48262213861372,37.16503985234419,1011.1112940615666,17.866812578433066,0.3212714808926166
393.15073108673096,761.4472554992623,37.48150080993508,37.14734805577202,1011.0997997886228,17.881712194521622,0.05030712210095839
393.4481101036072,762.0035379701442,37.49169686606402,37.163576250687875,1011.0923847775917,17.880270935641263,-0.004846099550929203
393.7647612094879,762.0022704655594,37.487324447585195,37.13991418385261,1011.0885447930008,17.89808600884608,0.05624776170206231
394.06246304512024,764.8675176100511,37.49543414144399,37.129029230737196,1011.0814102937562,17.90674829618447,0.0291383793660279
394.3562340736389,766.706268276553,37.49699992265138,37.12199782021048,1011.0877455202534,18.01905392365231,0.38187251067146794
394.6546082496643,765.7367271813921,37.50717110667107,37.02614178216985,1011.0850108932876,17.93499833551076,-0.28168859866637463
394.97170209884644,765.4727890920052,37.50998986140324,37.045359334947435,1011.0882583219911,17.998232765553148,0.19949785842711448
395.26531887054443,767.8112118074885,37.519145854977985,37.0533233818576,1011.1003082426404,17.872582302818667,-0.4281207689438267
395.5600299835205,768.9536193149738,37.5176745654864,37.08828034235525,1011.0980363163466,17.924442589272694,0.1758351948096635
395.87182116508484,778.6431899228436,37.52589673237411,37.15956700215028,1011.109963944989,17.952508400827345,0.09003328978913462
396.16710925102234,789.1604893492291,37.518368336514435,37.17132770414531,1011.1189080214851,17.938903427524693,-0.04606392700537338
396.4653480052948,802.0002653268854,37.517175598897836,37.12366542473052,1011.1121506954775,17.929848529079106,-0.03035823080692038
396.7744619846344,810.2400943699188,37.51459089184071,37.02090193726859,1011.1053131142023,17.969099240108658,0.12699584619901808
397.0731692314148,818.0357452734049,37.498377961890974,36.920922746951334,1011.0885353834311,17.93415566125239,-0.11696747774291494
397.36748600006104,825.5463482180412,37.49343126697971,36.82055347310501,1011.0927280728018,17.97398715453268,0.13535244830587184
397.66223096847534,830.7244783757812,37.4902567629644,36.74340411994379,1011.0813391931349,17.973796361541396,-0.0006474071609822735
397.96421909332275,834.4057617781732,37.488219549041965,36.6917423906191,1011.0889983817092,17.853158515878793,-0.39940498633952815
398.25998520851135,836.4099399667042,37.49055073586811,36.63088597511795,1011.0892433226101,18.018321983733557,0.5583548150805558
398.5544500350952,836.6213334400892,37.49204675736789,36.596086281854426,1011.0890299254017,18.101008473896027,0.28118804752656246
398.8672261238098,838.54828144897,37.48936826440105,36.57155190374273,1011.0770901420581,17.95044032853238,-0.4807873245158641
399.1605839729309,839.0683706086536,37.49128791525461,36.56018600752634,1011.0903854939269,17.952897053120935,0.008375375634030294
399.4552671909332,829.7291795136872,37.48706200649881,36.54873721824517,1011.0888829520121,17.934187685989198,-0.06348298138463263
399.7647852897644,818.7202183485201,37.48253078482268,36.52414751417893,1011.0835803390297,17.883230850033115,-0.1645912303715786
400.0582871437073,811.2970432835615,37.48144218433118,36.50849270610197,1011.0892245267876,17.948968177337445,0.22422629884322565
400.3516001701355,804.3837314583417,37.47892430648582,36.42829819334374,1011.1003114843365,17.920915603196963,-0.09560068732421839
400.6480519771576,798.5141356468079,37.46632284493552,36.34290185947645,1011.0877882151353,18.03328374779862,0.37920945426519204
400.96740198135376,786.8657004357327,37.46558303143424,36.277410458437735,1011.0844601367596,18.075912268396312,0.13339135691220702
401.26263189315796,779.7486628812998,37.470566091880094,36.220384527250644,1011.0698960212735,18.15541586100353,0.26936561171644696
401.5675919055939,770.5240094996841,37.471944656481874,36.19022373582911,1011.069481292827,18.17578912951734,0.06687129241043621
401.88078689575195,771.769309407917,37.47464861660012,36.151668444081764,1011.0682965412707,18.321683101060188,0.46560639361739103
402.17728900909424,772.2102136282377,37.46728747893792,36.0971681318785,1011.0628274152591,18.34017707107315,0.0631596481538821
412.87296319007874,772.2102136282377,37.46728747893792,36.0971681318785,1011.0628274152591,18.34017707107315,0.0631596481538821
413.12063217163086,776.792251408153,37.37495835327258,36.24203772451149,1011.0560581148949,18.433796217580447,0.008553392360934444
413.4254310131073,779.7327394696989,37.35769014468703,36.283597156230144,1011.0247271656351,18.505227586066948,0.2339734500435786
413.7189440727234,781.261517855689,37.35570478613935,36.26973331751292,1011.0167893317306,18.57499477494365,0.23691169704938952
414.02144503593445,782.9591149518081,37.354430697319536,36.17568301182192,1011.0144899361436,18.622219630144908,0.15568550535696518
414.31578493118286,784.4067926077844,37.36459869296574,36.1322088333911,1011.0017242995159,18.73412673207999,0.38062447920529546
414.61949706077576,785.3358287853175,37.36748537376491,36.10436301222743,1011.0019530637012,18.875867361094645,0.466678980988088
414.9306969642639,785.5737731504186,37.36933787931705,36.07370439280644,1011.0002616609034,18.834643582764883,-0.13247013827641702
415.22526597976685,786.084729715099,37.37052671073261,36.03706720608832,1010.9757516742571,18.914614382301654,0.27146760558364114
415.52037620544434,785.696117083808,37.36758110867296,35.98162268629417,1010.9805402974133,18.992007604798314,0.26259538806017585
415.8436920642853,784.7302127302873,37.37303786990982,35.97800149038721,1010.9805625358692,19.004547729310612,0.038785042601331476
416.137903213501,784.1103509228243,37.36919262606673,35.96498837347773,1010.9899542108606,18.953724727697217,-0.17274328912713846
416.4338822364807,783.712559299926,37.36490569321688,35.95448308319832,1010.9859786835386,18.915268164582336,-0.129592432068997
416.72801303863525,782.3825068285263,37.36768238885224,35.92870707828323,1010.9690862798192,18.93538183138746,0.06847699258060651
417.0335171222687,781.8872132923274,37.373102865698236,35.905729573970824,1010.9716303855063,18.994592413920472,0.1940561063007755
417.32754826545715,781.9276199840896,37.36923433662196,35.87396723838244,1010.9779704678841,19.000992197195554,0.021765223489059064
417.6226511001587,781.5952931031741,37.366751737370066,35.85781060437297,1010.9817452349265,19.02350515611782,0.07631022302385834
417.93461513519287,782.0985399818846,37.3633392713721,35.82625431375235,1010.9851239962193,18.90759548242402,-0.3714374838696507
418.23703718185425,782.4214948569721,37.36667714949037,35.806060001416085,1011.0022959081357,18.7111430506982,-0.6496138258926953
418.5356512069702,782.628748703454,37.363291405164894,35.782465227685705,1010.9977241758588,18.610523953164126,-0.3369434668008721
418.8552830219269,782.0452371516354,37.3611186293724,35.769422606359555,1011.0100878478762,18.681798960037643,0.22299645414711264
419.149297952652,782.7455457386308,37.35790499023428,35.765362459515316,1011.0058502974352,18.837035694703637,0.527983724596816
419.4474229812622,782.8367059038567,37.352204108202834,35.74576865416171,1011.0252682928673,18.678125960706332,-0.5330275192003999
419.77365922927856,779.6708891243937,37.35400344047224,35.72882696493477,1011.017727950293,18.61050037364758,-0.20730113845365641
420.0698881149292,777.6392501698095,37.344242488015524,35.718068217975436,1011.0110136148928,18.694972837547965,0.285144754709511
420.36398100852966,774.5441734017093,37.3452555775423,35.69003491752122,1011.0251277304387,18.542792963062713,-0.5174744207377668
420.6595129966736,771.483158605464,37.340447889917236,35.66339488842221,1011.0316848313537,18.52332105588198,-0.06588451059266946
420.9805510044098,768.0857452523294,37.34282042293591,35.63801844320402,1011.0522184955618,18.372812755593994,-0.46882361856697863
421.2755250930786,768.7715415056252,37.335246594441294,35.63012734292927,1011.0553940221928,18.416692558592644,0.14875515523024466
421.57164907455444,768.1368733515594,37.332205424055026,35.6377686399689,1011.0408846073518,18.36940443884608,-0.15974969619602822
421.9043252468109,769.1626101457878,37.32843449925967,35.6086396627137,1011.0398075270817,18.28416321195058,-0.2558664894699888
422.2000172138214,769.8208689691737,37.32055670665597,35.564450126045614,1011.034963389278,18.469293147210713,0.6260778925337567
422.4983549118042,770.60155915589,37.30997339054163,35.517122562453444,1011.0181024683455,18.733479104940926,0.8855117068515851
422.81040620803833,771.4608187432798,37.31052870659754,35.48459432957853,1011.0147469692544,18.795680657466203,0.19933574715541133
423.108097076416,773.0870147878123,37.309065799752865,35.453025941148695,1010.9876989124483,18.90122441781713,0.3545505642556476
423.4045240879059,778.7879621933498,37.30812699035876,35.43489424489911,1010.9964494541709,18.870807349753424,-0.1027388480092779
423.6989471912384,782.8047596070529,37.307524516536404,35.41262293885722,1010.9908860375722,19.019672181557098,0.5056054943409304
424.0007700920105,786.0990240811577,37.30531860680124,35.402613989479335,1011.0100776854125,18.83426500483494,-0.6142975904986837
424.3047511577606,787.8548358019985,37.305722257646416,35.40260123282274,1011.0271002521303,18.697184763339354,-0.4509453359491984
424.6026780605316,788.6233571137435,37.311439127681155,35.4046908608532,1011.0255944977606,18.616581687437783,-0.2706227155513765
424.91467213630676,789.1165498482371,37.306011502151655,35.39321078415293,1011.0186717379786,18.651032773563294,0.11039752610459931
425.20855712890625,789.4330525523782,37.30434764127258,35.390156386138074,1011.0219885195166,18.686024391353588,0.11906191739986355
425.5155589580536,789.6361657669948,37.30691842458821,35.38391275664034,1011.0213584019929,18.57107347036929,-0.3744223039184406
425.85317301750183,790.1247697045061,37.30122112625956,35.36507524371833,1011.0134528696018,18.639622567292328,0.20309446124335856
426.1487510204315,790.0800700134231,37.29574565146273,35.353015927815676,1011.0240069734843,18.6780988225062,0.1301285320030012
426.44703006744385,790.0513843250246,37.30867526962084,35.35168752678022,1011.0179835835395,18.74510422560345,0.2246566933383425
426.76424407958984,790.0329755016311,37.30787637060265,35.35500086566179,1011.0162878778013,18.772766957220604,0.08717774418801709
427.061900138855,789.6629042090683,37.30001660414307,35.35928363015513,1011.0055288142835,18.831622707548945,0.19786560454851035
427.35672402381897,789.4254137583191,37.304139014294115,35.357660230189865,1011.004544544449,18.95251105298625,0.40988298766013415
427.6521179676056,788.9147484897381,37.303145986363795,35.35886320415969,1011.0076272334459,18.840847622725835,-0.37815997457805794
427.968465089798,788.9452904886003,37.30614727164642,35.36613476412006,1010.996881660369,18.693437115425223,-0.4658268165765502
428.26461911201477,790.0396632936694,37.300726244696406,35.379190966077765,1011.0059073969179,18.541186424612796,-0.5140738987553781
428.56075501441956,790.0254536184812,37.29913659058732,35.391941576907946,1011.0154859348542,18.30547356455445,-0.7959560127898314
428.87299823760986,790.3745922364848,37.29258863975386,35.42544360849413,1011.0304194961274,18.200828689489825,-0.33521986338253124
429.1777322292328,791.3151644407766,37.28656726515108,35.464161652834285,1011.0320999098367,18.34988421682281,0.48906743505717726
429.5160219669342,791.9187695332237,37.28270309357851,35.501711489991514,1011.0360808461916,18.25480149325838,-0.28104631683715325
429.82930517196655,789.7983255458464,37.27112690712117,35.56426190350443,1011.0273479424459,18.37073931599687,0.37005945235423554
430.16905903816223,781.6306528472223,37.27279436068854,35.59167133131237,1011.0264491565396,18.32829665393801,-0.12478737558874023
430.48757100105286,772.4482774535913,37.257490945912764,35.63052762526425,1011.0414281669464,18.316993176396423,-0.03544419122174916
430.81147813796997,767.2720726896698,37.256766478920014,35.70636412656041,1011.0298596503756,18.46584231038503,0.46023030595226677
431.1225678920746,765.7415703111602,37.25448228099117,35.74227159473885,1011.014604875501,18.577302304340037,0.3582943538479174
431.4181430339813,769.0584728288297,37.26029352114094,35.79519726036231,1011.0169865529622,18.585670771475904,0.028303491082224467
431.71392798423767,776.2026758852033,37.26948067067918,35.83540440170742,1011.0194346465627,18.653603140220998,0.23098968147667745
432.02128505706787,781.8621868271043,37.268099347472884,35.87827516646124,1011.0082454551364,18.705168314895108,0.1671714105038778
432.3860731124878,785.1358775649306,37.26903217048125,35.916365091559726,1011.0050739336033,18.655145450855606,-0.13700947178546768
432.7142698764801,781.5046227038138,37.25871514226531,35.96218250563376,1011.0239956788147,18.581042786878655,-0.22559802043473798
433.07655811309814,775.2334591190082,37.25209426750243,35.927844608482836,1011.0248876148789,18.439651953827134,-0.3902816810647426
433.3704390525818,771.2089873580044,37.24784537124003,35.99929321191912,1011.0413812755718,18.372814956257937,-0.22742015623971223
433.74033308029175,771.1341160550704,37.25603433454621,36.04727124739975,1011.046375647455,18.433892510863554,0.16529084323856127
434.04464888572693,770.3695528241594,37.25219315616115,36.182402474629306,1011.0608316183075,18.24371186959402,-0.6233158929737279
434.40565299987793,771.3119304360625,37.249728109008316,36.19263148646499,1011.0598826294029,18.30295558189446,0.16411778269235705
434.7016749382019,771.9166941351782,37.24632690693706,36.21387254839912,1011.0735099202727,18.290304300877963,-0.04274959422055399
435.00549602508545,771.946539091834,37.26233697845416,36.23603499332874,1011.0785769874094,18.130992182656907,-0.5249078192974095
435.29972314834595,770.8909191583698,37.25805710690134,36.24590073810308,1011.0695854437439,18.179948091093454,0.16638869515040566
435.5959930419922,769.1387103480929,37.26622619204935,36.27992717417094,1011.069807752599,18.234075875286894,0.18269887485539468
435.9175410270691,768.0142436074345,37.278815719669154,36.29961153467432,1011.0609046365885,18.29763349037116,0.1978877709216748
436.2217662334442,769.0839134357409,37.27772859794077,36.32717892031215,1011.0738724228701,18.273402792280105,-0.0796735272141168
436.51240611076355,770.8451386596822,37.282488775960836,36.38734522502589,1011.0840340818813,18.34893814596096,0.2599135444120799
436.8328230381012,773.0501643240468,37.27826647729268,36.41317290748441,1011.0909211081255,18.259704206523075,-0.27851497269359704
437.1269721984863,775.8982531312031,37.27919540252326,36.43189989225612,1011.0697124105438,18.327561065447824,0.23056881024464718
437.42309308052063,778.8007652730868,37.28161080997858,36.45239699178201,1011.0711038709729,18.264381280730806,-0.21341925862267916
437.72128319740295,781.0216880390833,37.283160879429616,36.450717883449194,1011.0726219130719,18.21586716165938,-0.16244964531739725
438.0187530517578,782.4469484128965,37.28786415038831,36.43683129740416,1011.0533345895906,18.16663564974004,-0.16570125052707604
438.3163540363312,784.4363711777758,37.28535463658283,36.438602453718325,1011.0358847156283,18.244225061396463,0.26072063283377384
438.6203429698944,791.086931720644,37.283744175093915,36.39931383742534,1011.0490290957041,18.252310255164943,0.026597438405075766
438.93735909461975,793.9218483296587,37.28089139690369,36.39976819910257,1011.0477928550257,18.29153515583759,0.1237315632024412
439.23324489593506,795.3828770351096,37.27724137137411,36.37872142969388,1011.0376954170131,18.37651303926702,0.2873640381060011
439.52805495262146,814.2333596223615,37.27853754855955,36.35663291885119,1011.0177226544942,18.274942294306932,-0.34432755750591687
439.84561109542847,827.0470292730769,37.27391153029661,36.34250895727881,1011.0214515580145,18.248118422286552,-0.08447217311858561
440.13979387283325,831.3292715139562,37.26730426465281,36.307903052105694,1011.0425964377067,18.285791792264412,0.1280575710306915
440.4367370605469,833.00259534914,37.26670265537975,36.274879993454746,1011.0262347184762,18.455944539050744,0.5730223030952595
440.7451100349426,828.3443171422225,37.28094076312495,36.236859337626576,1011.0213603572574,18.549498210116845,0.3032631837885815
441.0412950515747,816.7567206958555,37.27545377505284,36.210280019445655,1010.9963548973035,18.6046214070303,0.18617932643618232
441.33671402931213,807.5291805411817,37.28102892559176,36.178311074789114,1010.99339820244,18.67864895481651,0.2502781242160101
441.63032388687134,802.682249203231,37.28278745952895,36.14075627688865,1010.99653733924,18.585988692456784,-0.31557770869584484
441.94458508491516,801.7213131229,37.28391598537192,36.078485548411265,1011.0303238572154,18.508128274575753,-0.24776209498670618
442.24262499809265,800.7463820976534,37.281001654849085,36.01294921898225,1011.0064109941053,18.812691108840546,1.020532507068755
442.5376470088959,800.478985061433,37.27731212857597,35.972991180757894,1010.9880112659404,18.862155449399772,0.16788681452520257
442.85266613960266,798.874354759517,37.274944403018054,35.9537838026756,1010.9842932617053,18.917209845839498,0.17502527827130054
443.14748311042786,797.4863378400088,37.28070203994413,35.971201961665955,1010.979407220611,18.755023815985837,-0.5499452395271694
443.4453639984131,795.5208157800156,37.27893912969875,35.993094002780104,1010.9784414754231,18.765040678007978,0.03362763706129446
443.771852016449,794.6177144455211,37.27598851867302,36.022028435380406,1010.9728925674461,18.954242601521248,0.5797372124670087
444.0703511238098,793.6798984306353,37.26863715622161,36.040649978605806,1010.9898874911399,19.03395239516433,0.26691568233330526
444.36604404449463,792.0032893933897,37.26937730517481,36.07168520431578,1010.9682905884151,19.084508980842045,0.170975549399856
444.6632430553436,792.0021109433087,37.268033013442874,36.10218151858015,1010.9716021055091,19.109283204587822,0.08336325151932245
444.9749481678009,792.7178698208808,37.265351047679424,36.13254116358257,1010.9606726666518,19.104624492861053,-0.014945517259910293
445.2705430984497,793.1772026626289,37.263629916451855,36.11364406352129,1010.9574445884041,19.09642127297976,-0.027678400280093288
445.5682780742645,793.8302336063986,37.253429009914186,36.093117545581016,1010.9512924967622,19.103744693577227,0.024630365771633366
445.90191316604614,794.6075688409434,37.24870193207945,36.06296038611776,1010.9345832889037,19.196776454720222,0.27893075680136836
446.1964228153229,795.1064178436769,37.238321286598676,36.04352687253778,1010.9571767389657,19.14483473252482,-0.17630613323999364
446.4970030784607,820.5045802798368,37.246283771879945,36.00979074277397,1010.9530312282619,19.127141838555524,-0.05893856942475329
446.8103790283203,883.0188852368942,37.2513936365372,35.9818697166586,1010.9662561181389,18.98732707222146,-0.44613697091565374
447.1136519908905,922.7787096718349,37.23641011411941,35.92153275136374,1011.044191291593,18.407039511767213,-1.912520625612221
447.4091820716858,945.7864730546736,37.223155998585305,35.85522526539135,1011.1304492192381,17.831440920460274,-1.948637720229922
447.70345306396484,956.9689553534912,37.205553886667786,35.84271711314315,1011.2819432124313,16.336119673416686,-5.079545685761024
447.99896717071533,965.9365165704849,37.15045527893847,35.93110159178464,1011.5571281899897,14.001979853330534,-7.890831877651044
448.3024079799652,973.4826689490535,37.05492008837064,36.05882201793051,1011.7431579580157,12.435264742169705,-5.164455859260461
448.59700107574463,977.9670975479372,36.944350687171294,36.17949944837489,1011.8923284654194,11.04201004765121,-4.728265081528828
448.91144609451294,977.9788851004437,36.86247795058564,36.31672533807852,1012.0374045530511,9.913478583053504,-3.5902775997239216
449.20545625686646,981.9272829374903,36.77893906519397,36.43904913737189,1012.1908133588195,8.577258645238361,-4.542988784657227
449.50898814201355,982.3115919450614,36.71070443189878,36.5580517268551,1012.2905540344054,7.878128819572958,-2.3032308980449323
449.84112524986267,970.7357195482906,36.634098419340106,36.715423240917794,1012.4048469853678,6.657587930046458,-3.7019742643188964
450.13681626319885,978.3538089799924,36.58675636736954,36.99047729830279,1012.4806128869913,6.402244667757921,-0.8565321682356841
450.43107295036316,919.1145552679833,36.558194240592975,37.164889586915166,1012.5164580831276,5.930876444487336,-1.604652311282054
450.7266249656677,860.3192735788269,36.5435032653752,37.2491481196668,1012.5647891288314,5.740909830357673,-0.6416571206043928
451.0201029777527,821.8713314664448,36.54324179901448,37.328624286660364,1012.5935972999224,5.434287323716394,-1.0447504925710012
451.31460094451904,795.7646253693692,36.55398966527723,37.45580586304754,1012.6036008877511,5.442401074736128,0.02755157356421364
451.6088581085205,777.9360716376807,36.57544124085618,37.743198726296534,1012.609135174869,5.354250961841862,-0.2995636697038314
451.92238903045654,766.1364746640328,36.58920762710636,38.07823763861134,1012.6201965063483,5.183246988683111,-0.545560698108557
452.21651315689087,758.5641726231914,36.59440354783762,38.36326492552572,1012.6379106651824,5.101913320155074,-0.2764456925092651
452.51166796684265,753.3464475374927,36.59409943719623,38.6947572202936,1012.6423494855145,4.979566079806779,-0.4147111630334803
452.83357310295105,750.3562695287882,36.59026572305388,38.922352325666736,1012.6508178401065,4.994791549111585,0.04727863622985345
453.12960624694824,748.0790878563457,36.575070528981655,39.22329983196308,1012.6656491118147,4.903207183049757,-0.3093742432698823
453.42708921432495,746.2594661856767,36.536140728502694,39.36771998546407,1012.6599069669307,4.849634496185355,-0.1829887615537404
