time,cds,temprature,relative_humidity,pressure,altitude,altvel
29.206491470336914,0,0,0,0,0,0
29.704326391220093,0,21.3109375,52.83519238854269,1012.7096909554001,-1.832057776197904,-0.0068572484650915875
29.963349103927612,0,21.31940104166667,52.84211749769498,1012.843043464696,-1.7829922597172214,0.18861304375125365
30.212594985961914,0,21.338981516768296,52.840339109189,1013.0205609191935,-1.8189073568697083,-0.14333928267675072
30.462052822113037,0,21.362491564576413,52.85253610064257,1013.164112705693,-1.818695460737155,0.000849421772893417
30.721487522125244,0,21.388317988571742,52.86121241020935,1013.2659337596579,-1.8702419797882703,-0.19868199290757876
30.981021881103516,0,21.350357383856622,52.89729696122167,1013.3344880721335,-1.7225329624821526,0.5691413335983219
31.230741024017334,0,21.32003551923594,52.900706633340036,1013.3732261922147,-1.7315677427611833,-0.03656253232332395
108.19864010810852,0,21.32003551923594,52.900706633340036,1013.3732261922147,-1.7315677427611833,-0.03656253232332395
108.45173907279968,0,21.398593784396677,52.40188539125278,1013.3892508865783,-1.6548336832548816,0.0009936868210730283
108.70177888870239,0,21.52019402500854,52.04678235255776,1013.4057905480739,-1.6863766901618806,-0.12579150142624834
108.96029281616211,0,21.620240694173066,51.81064811312889,1013.4239844891845,-1.216078501192138,1.8125457256193414
109.21308827400208,0,21.702674651914272,51.65520384131628,1013.4161604435009,-1.4069673538610834,-0.7540209903655166
109.4619619846344,0,21.76111727353805,51.58029915488579,1013.4186731136109,-1.4685493785274772,-0.247442630702172
109.71112179756165,0,21.791279671935555,51.55258548708174,1013.3836165177898,-1.4209779065208685,0.19092699936673857
109.95972776412964,0,21.821622485727755,51.477752856650525,1013.3987212079174,-1.3657891745099178,0.221976823476376
110.21816444396973,0,21.842914380753513,51.46175709511842,1013.4139210072996,-1.4025216099002134,-0.14214462063176872
110.46884059906006,0,21.854759125294628,51.421274477211384,1013.4133011672085,-1.4345999858515004,-0.12796557494337413
110.71717476844788,0,21.862360424233252,51.43630711827529,1013.4291953546532,-1.4823565726990613,-0.19230757134868046
110.96525621414185,0,21.867238506576115,51.374533295780516,1013.4336763830432,-1.4620880309249373,0.08173336496821539
111.2168481349945,0,21.85392552112957,51.3797153320559,1013.449793065089,-1.5880116901287238,-0.5003164927713937
111.46526956558228,0,21.839924181892577,51.35244528168957,1013.4572832468288,-1.7061533072762385,-0.4757419349393175
111.72193837165833,0,21.84367386424024,51.34112929798689,1013.4504810811545,-1.5198520378065896,0.7255828911748698
111.97046208381653,0,21.8552465502528,51.305269442975984,1013.4620105901392,-1.4573248006692079,0.25159779083864453
112.2223150730133,0,21.859034680595126,51.28634874845801,1013.4608519092582,-1.4832382840924945,-0.1028904311480159
112.47629117965698,0,21.865104238015338,51.27429891879271,1013.4041696601868,-1.5016394932170112,-0.07245422110177062
112.72486090660095,0,21.868999330556356,51.26419669681628,1013.4271957428394,-1.4897027671000345,0.048036568951434926
112.98121333122253,0,21.86786042327454,51.25176031421111,1013.4452226402623,-1.5380387275407004,-0.18848580815220384
113.22949457168579,0,21.867129538147065,51.23113347443049,1013.4529309139525,-1.5181417125474508,0.08014109663918288
113.47801303863525,0,21.877576158468717,51.25095608038119,1013.4347491129245,-1.6139398118102815,-0.3854756740014177
113.72800660133362,0,21.87882236782485,51.2244797431526,1013.4374391497712,-1.7549261882502445,-0.5639750874304308
113.98760294914246,0,21.870455757464082,51.236548613047525,1013.459729695368,-1.7454586615766894,0.03647035187326371
114.24412775039673,0,21.868795074217726,51.20523518237218,1013.4629112778689,-1.6348600228528989,0.43139227782058104
114.49411273002625,0,21.867729343314906,51.203554006317226,1013.4652902226716,-1.6682887580850667,-0.13364726181335407
114.74347615242004,0,21.87432252545544,51.16773852737435,1013.4556194970729,-1.6202765851566552,0.19251502717146274
114.99401235580444,0,21.873095820026784,51.140889797598824,1013.4720211905251,-1.6692082326178919,-0.19550080604280187
115.25232791900635,0,21.863142235321472,51.11515687150133,1013.4524032898186,-1.7004911529141833,-0.12117049626258024
115.50925087928772,0,21.869559506902657,51.11501115691743,1013.4441742421051,-1.6443683928959023,0.2177891856964573
115.76581907272339,0,21.86821991220409,51.109176077552256,1013.4540603533723,-1.6201655516318478,0.09462667163055855
116.02027559280396,0,21.86365171182461,51.11112561604839,1013.4624485279655,-1.6385392295880428,-0.07198092236181029
116.2804205417633,0,21.840708059889007,51.100284527284096,1013.451230930865,-1.5341134749111744,0.40263811068322425
116.53566217422485,0,21.85334326791417,51.103603421900154,1013.4492367184121,-1.539868917569216,-0.022479954036735274
116.79062581062317,0,21.861451817022168,51.14647040015445,1013.4461262175993,-1.1882209890906716,1.383429362414103
117.04446959495544,0,21.863016863594407,51.14947418276483,1013.4400570541942,-1.3275544221796909,-0.5474295518033452
117.31230330467224,0,21.865840497105623,51.11661917076023,1013.1830939792092,-1.3897992205253582,-0.23299596225675145
117.566335439682,0,21.86212474019614,51.09958138044406,1013.2524298135623,-1.4671910956363663,-0.3037149309640335
117.8161039352417,0,21.859740181325886,51.090784517295404,1013.3182227549839,-1.4269554286476158,0.16159934406149876
118.07266664505005,0,21.85093280184043,51.079664394570415,1013.3443519528633,-1.2578629703700226,0.6570604851472195
118.32740092277527,0,21.848919286163245,51.06154358029592,1013.3459395668541,-1.2891952989341082,-0.1233812438511458
118.59129786491394,0,21.809352344415178,51.06014495373189,1013.3745425529588,-1.3499426348754182,-0.2295091483132044
118.85606241226196,0,21.824054619073774,51.067522568743605,1013.3923021096873,-1.2229392070696936,0.4811184547402864
119.11186861991882,0,21.83530896926722,51.05575064378791,1013.3992147307312,-0.77808943004211,1.7337156633450308
119.36860823631287,0,21.844420612215746,51.089209454149106,1013.3813599546622,-0.7380849294911135,0.15628079951403825
119.61954736709595,0,21.850267940107422,51.069760435819084,1013.3830526479125,-0.7761702283456647,-0.1513113140852104
119.87442684173584,0,21.859478248680865,51.1329356736117,1013.3784476005243,-0.6318237616167856,0.568283156293581
120.13963222503662,0,21.863569617770388,51.128512252777675,1013.3742585014548,-0.7994224323104084,-0.6298736461062937
120.3947958946228,0,21.864375946193896,51.13204030248497,1013.3665649474794,-0.9850612320593384,-0.7301700176320385
120.65222525596619,0,21.855727045574167,51.1053385222887,1013.3742297061141,-0.8300328267178708,0.6009854989947213
120.90917420387268,0,21.85017667906927,51.09606819918703,1013.3638788778791,-1.0254203341633064,-0.7604539481456855
121.1636312007904,0,21.839337666497848,51.127081544091304,1013.377387724669,-0.7310836406376943,1.1566412525647694
121.41342568397522,0,21.84147819582647,51.12475540947077,1013.3797560107288,-0.6432981311786593,0.3514456970859795
121.66809010505676,0,21.84837966666221,51.08211351033803,1013.3989117118009,-0.918663250008301,-1.0812689701679072
121.92262768745422,0,21.85091938442876,51.09994384667306,1013.2534234772374,-0.9621510008121594,-0.1708541799577239
122.18651151657104,0,21.85254922908106,51.07251170108003,1013.303802728839,-0.8521511413222892,0.41684504599912786
122.44356107711792,0,21.8591229718914,51.077504911577186,1013.3467201266698,-0.9492064340245808,-0.37757459112788616
122.69930338859558,0,21.859703068139826,51.06229445563988,1013.365704858406,-1.0250763052138816,-0.29665203164023884
122.95383810997009,0,21.8673524473966,51.08126968677379,1013.3658684573566,-1.063604966722718,-0.1513749366131914
123.21838402748108,0,21.841263702209535,51.1014940731469,1013.3516158831554,-1.0696650028776873,-0.022906900183427194
123.47258186340332,0,21.842714214665325,51.04890677635106,1013.3596793156423,-0.4645955670487698,2.3804006923796
123.73636364936829,0,21.84728362349437,51.03357388340056,1013.3714429118033,-0.7868562690719993,-1.2216766237967382
123.9915030002594,0,21.8465774535821,51.05042527737412,1013.3671989925392,-0.8199130778634252,-0.12956277247940684
124.24372005462646,0,21.842485720946062,50.99567276195797,1013.3612117038699,-0.9461535950725872,-0.50050344808946
124.50050568580627,0,21.83440205233895,51.00145740781211,1013.3528709131444,-0.8981556642520356,0.18692262781878274
124.75568079948425,0,21.83103369591973,51.01748717410964,1013.3690736134979,-0.9436730913126187,-0.1783848855672129
125.0106360912323,0,21.82523352524426,50.990678978364684,1013.378052771282,-1.1049575980513004,-0.632586158876884
125.26462602615356,0,21.819692032897553,50.987571005554614,1013.384623686658,-1.154235753846941,-0.19408595319709718
125.51875281333923,0,21.768694683044806,51.022628755212686,1013.3937370413232,-1.0943001130332048,0.23575646555874424
125.77837491035461,0,21.781589382166473,51.03480642952489,1013.4022247324368,-0.8326879105996493,1.007703334593823
126.03401470184326,0,21.78804518100134,51.03648377164877,1013.3930119645418,-0.9693493001362476,-0.5345907352858343
126.28850889205933,0,21.803103801357043,51.02310336636686,1013.4068544396553,-1.0044773088065855,-0.13802512979583728
126.54273080825806,0,21.800032619943494,51.03920271588294,1013.2282624434082,-1.130390791768201,-0.4952938268643979
126.79931139945984,0,21.803519542678927,51.05580857210354,1013.2051600263555,-1.1266144062396326,0.01471812622646328
127.06295704841614,0,21.80029941878986,51.07959482741951,1013.2783542551774,-1.1663571119024494,-0.15074342997991974
127.31877326965332,0,21.805510035539143,51.09568532026256,1013.3243190210958,-1.2275445939865472,-0.2391859783844998
127.57223439216614,0,21.801576802515875,51.07155125592522,1013.3711306331217,-1.25004125151691,-0.08875765633949015
127.82798337936401,0,21.811787617036448,51.1011186791878,1013.3806079915717,-1.220291247961686,0.11631351647956
128.09190273284912,0,21.812882499804026,51.14055186746415,1013.3944242842604,-0.32054970556622553,3.409489054275199
128.3466386795044,0,21.80630802565203,51.151399156854374,1013.3983943397835,-0.6695149314563658,-1.369887831528942
128.60958051681519,0,21.796631076470156,51.160314221698556,1013.3507075087057,-0.8492699046713736,-0.6836431885905174
128.86442685127258,0,21.79769807446269,51.13325756276825,1013.3744271064753,-0.9156059032609395,-0.2603918176654117
129.11846613883972,0,21.807479195948236,51.13844325503828,1013.321919485555,-0.9871248197617629,-0.28142451356411324
129.37592267990112,0,21.801021219582765,51.21541611166319,1013.3496373233446,-1.0261675794672858,-0.15164192337758456
129.640319108963,0,21.816888906054892,51.18916793021112,1013.3470751321436,-0.9072121806820841,0.44992885415211786
129.89537453651428,0,21.81615621341743,51.17855243124871,1013.3584436267652,-0.8205917963842557,0.33962412114060386
130.1496422290802,0,21.808408906583068,51.20842532149309,1013.366974283447,-0.7870981891912462,0.13172329818777442
130.40415811538696,0,21.814352791385893,51.16817840408815,1013.3626562560572,0.2771374813465287,4.181431150075382
130.66804003715515,0,21.81270940430561,51.173081940559506,1013.3486886738181,-0.07921140697695384,-1.3503835461412856
130.92670249938965,0,21.808016219646262,51.15177134040694,1013.2438356394506,-0.3755846220373481,-1.1457691845747393
131.18090081214905,0,21.79219949469396,51.13409509142062,1013.2940210587781,-0.6624193473620612,-1.1284477838240603
131.4335572719574,0,21.80031197056294,51.112431142149234,1013.3213307269989,-0.7956959724721566,-0.5274779614402945
131.69541668891907,0,21.80551809054451,51.065160632981076,1013.3345852158379,-0.9167834802170547,-0.4624428118228609
131.94814491271973,0,21.799762695034502,51.05391748233546,1013.3520455709448,-0.8977246315620392,0.0754099368042818
132.21078538894653,0,21.74862807444585,50.97482736273389,1013.3701610099954,-0.8233661143051414,0.2831118354251054
132.4625277519226,0,21.755906878769995,50.98144480242581,1013.3627306445621,-0.9088886189329897,-0.33973263606130644
132.7140884399414,0,21.77702145901053,50.95709480741786,1013.3729450922431,-0.9960283835175291,-0.3463900244289319
132.97521567344666,0,21.78693302761298,50.98465776310026,1013.3731999951538,-0.9028626926475452,0.3569179836529597
133.23653960227966,0,21.79693225517822,51.02880574927995,1013.3122202640759,-0.9533021544628292,-0.19294502945789035
133.4890706539154,0,21.799710630338915,51.01599459920362,1013.3484781114877,-1.1855533471481432,-0.9196675545681484
133.74087834358215,0,21.79050799906528,51.055007585036066,1013.3644239853056,-1.2007521041071822,-0.060360075358312525
134.05021476745605,0,21.63143317470903,51.05099216465672,1013.3839928323463,-1.0178317010458717,0.5913357038246542
134.30528235435486,0,21.620521862843955,51.06091850722154,1013.3888169319833,-1.116736989736393,-0.38787929740936994
134.56710362434387,0,21.675514963893974,51.08360842802052,1013.3860092832009,-1.161540674854656,-0.17106786693127046
134.8199713230133,0,21.71451489584452,51.04320632012606,1013.3876702970878,-1.1191798459424271,0.16752486757284377
135.07249355316162,0,21.737723530243876,51.02937282111226,1013.2960162006425,-1.088565797463968,0.12122633008003594
135.32705688476562,0,21.752617495692007,51.03677044420435,1013.334814769739,-1.112985077079598,-0.0959347728301785
135.58069467544556,0,21.771271968879013,51.03333499469033,1013.3464724918394,-1.0118254286449335,0.3988245825756599
135.83539128303528,0,21.775966228961444,51.09863692332584,1013.3521232549857,-1.038339885067801,-0.10410572422274675
136.09107303619385,0,21.77527020921443,51.093585459853074,1013.3712175366165,-1.0147187624913139,0.09238227411684793
136.3454167842865,0,21.73654876050677,51.0882068642723,1013.3534325366428,-0.954451739390821,0.23696528558604735
136.59549498558044,0,21.74633579376381,51.14621658706263,1013.3720731503341,-0.9293646031795334,0.10031477417398911
136.85401892662048,0,21.765421457495812,51.175215193971624,1013.3734335956859,-0.4780140303982035,1.7456934151503154
137.10838174819946,0,21.783127367887264,51.15277296389716,1013.3747185921102,0.01851974377167559,1.9522281794844154
137.36363983154297,0,21.77440798575358,51.1711941334654,1013.3753449639163,-0.14394210786913667,-0.6364462821211926
137.61958241462708,0,21.776159467332537,51.19519511433454,1013.2452118730783,-0.38890806176261133,-0.9570933089269782
137.87572813034058,0,21.782741297538283,51.2065064822913,1013.305856996089,-0.704620898827577,-1.2326010326190147
138.13320779800415,0,21.775979504749575,51.27096867110654,1013.3356956413976,-0.9410020549394195,-0.9180473615731375
138.38787150382996,0,21.77345945213088,51.297902515028326,1013.3576970700723,-1.0859695654646548,-0.5692571649067636
138.6429727077484,0,21.775550753060088,51.33378293103756,1013.3764111419102,-1.0594805518477322,0.10383601243897184
138.90870213508606,0,21.767726473819298,51.39572080222658,1013.3746577059856,-1.1085137955969058,-0.18452518477623364
139.16364693641663,0,21.760886025122275,51.44555175205655,1013.3678431157917,0.719556704881914,7.170207978506925
139.43128108978271,0,21.76930112817191,51.3813506202626,1013.3701814905595,0.6667966369928361,-0.19713661442227037
139.68712282180786,0,21.76735437779401,51.368739295363554,1013.2224144764017,0.004390896003787503,-2.5891954964301043
139.94192910194397,0,21.76610506547491,51.407926746838825,1013.2818605760071,-0.45730372431007976,-1.8118707465544153
140.19768643379211,0,21.76894188219098,51.45742793957065,1013.3182675894776,-0.6705412024033062,-0.833782650495657
140.46246814727783,0,21.765304557684964,51.45628148199712,1013.3592377387719,-0.823359162524728,-0.5771334452329143
140.71689176559448,0,21.753873948615464,51.496592722865735,1013.3589537252366,-0.8993299272617943,-0.29862412390490367
140.97148084640503,0,21.72463714894638,51.504149595651725,1013.3642626720246,-1.0039561909779444,-0.41092591215948016
141.228431224823,0,21.735053053769626,51.49872524635659,1013.3701101870278,-0.9913435680974919,0.04908432815621781
141.4928321838379,0,21.743556658566895,51.4992875175486,1013.3730546738533,-0.9901122480524348,0.00465727845054377
141.75036692619324,0,21.74719450585745,51.49137272585049,1013.3826781368219,-0.9452564561559686,0.17415472538988408
142.00554370880127,0,21.749529066819495,51.52115750476336,1013.2538441833874,-0.9266292235837621,0.07300630008516147
142.2604603767395,0,21.754665807085626,51.54450512368954,1013.1561155108449,-0.857153725433494,0.2725346065836928
142.52517104148865,0,21.754323717828694,51.53389936445584,1013.2151626813534,-0.9092095986883836,-0.19671947409169543
142.77988362312317,0,21.748646354477216,51.53831741316416,1013.2699733331677,-0.8780997945726164,0.12209483942508123
143.04571437835693,0,21.7249209334186,51.557371913321745,1013.310012885012,-0.9750940124537127,-0.3648759968138438
143.3005268573761,0,21.73887372374676,51.52070256305796,1013.3345036580237,-1.0221013557216765,-0.1844723149885557
143.55540990829468,0,21.742369991163986,51.52799485414276,1013.3587625872693,-0.3022577786104339,2.8242535083799343
143.81187415122986,0,21.742794417593917,51.58775307961259,1013.3645521585684,-0.632596228449569,-1.2880499564130896
144.07334876060486,0,21.75034389692301,51.57706330993373,1013.3285991979435,-0.8716319555592976,-0.9141799880727078
144.33092498779297,0,21.74973088797642,51.543235482323915,1013.3400666528936,-0.8876176982180906,-0.062062871238568046
144.58544492721558,0,21.745698940684925,51.56856546121983,1013.3445898274415,-0.8808524737447937,0.02658115361882276
144.83981800079346,0,21.728487283088114,51.56860251605884,1013.3562485937299,-1.0037678016710847,-0.4832016334492612
145.1053442955017,0,21.59163184969622,51.5358078667763,1013.3590474182574,-0.9725532777841206,0.11755676329681468
145.3616964817047,0,21.65151718647896,51.4823191635514,1013.3775641326354,-0.9696772168651924,0.011218917581966819
145.61597800254822,0,21.69540597821777,51.47249090622459,1013.3782503127395,0.37812300854860004,5.300465133202539
145.8702347278595,0,21.721752001380047,51.49496254688283,1013.3925260489709,-0.14503835460262315,-2.057587565109615
146.13438963890076,0,21.725924425277668,51.47651397688214,1013.4033198737834,-0.5570979408881249,-1.5605065799710753
146.39245629310608,0,21.726782770010725,51.48289371875489,1013.3951748506132,-0.726676289786198,-0.6568515363776668
146.65718913078308,0,21.740068543286593,51.495263593469524,1013.4052012191104,-1.0398554119406833,-1.1830486071817228
146.91351580619812,0,21.743136757559494,51.49711334487244,1013.3972064927168,-0.8905584874906163,0.5823682363120085
147.16919016838074,0,21.746925037564388,51.48912485469406,1013.4081539777862,-0.8659949177487442,0.09608386646417874
147.42577028274536,0,21.696457168336327,51.51976257061683,1013.4090616445488,-0.8959441531227514,-0.11672382645529641
147.68270182609558,0,21.709691657640988,51.50474855386092,1013.412711157436,-0.9627972875693406,-0.26020016797975076
147.93847465515137,0,21.72000406769394,51.46038847497676,1013.4005915011246,-0.9954054319459902,-0.12748774501751864
148.19360971450806,0,21.73571836238615,51.421741926290274,1013.3983050165178,-1.0841453299955823,-0.34781798190926555
148.45016598701477,0,21.742164338615407,51.408977670119384,1013.1902328150818,-1.1294215962829883,-0.17647398951050897
148.71500182151794,0,21.74266244162755,51.35760126284001,1013.2728565434612,-1.1498323962314767,-0.07710051800199809
148.9715874195099,0,21.73934354202502,51.37681835600871,1013.3122590561386,-1.1662253922459425,-0.06386217318112458
149.22745275497437,0,21.733575109887298,51.34737572938879,1013.3566739077925,-1.152996711132403,0.051701732434857074
149.485835313797,0,21.735331092387323,51.32843466228033,1013.3638055992947,-1.2717610155158618,-0.45965750575595093
149.7495312690735,0,21.74373508774519,51.32055619478851,1013.3740878075788,-1.3886104353499995,-0.44311175937348257
150.0053744316101,0,21.723588441889227,51.317545694692754,1013.3912009264761,-1.134686103850196,0.9925351190041727
150.26983380317688,0,21.734380053953885,51.37883178366388,1013.3888320553976,-1.2667370052805316,-0.49930730764010406
150.52510476112366,0,21.74494404274951,51.38562490138173,1013.3036694317667,-1.2618364796120947,0.01923061286827826
150.77985382080078,0,21.746265572434748,51.38960908374362,1013.3391729850861,-1.2026852163986754,0.23179399060214245
151.0360622406006,0,21.75621003770741,51.42322166626533,1013.3513705401714,-1.2087907190928915,-0.02383032964706409
151.2928647994995,0,21.762591823021555,51.41218248551073,1013.3733733475916,-1.2730590283653351,-0.25027024633722084
151.5510971546173,0,21.76122945527973,51.39071090708713,1013.3751487824446,-1.25573489154334,0.06708566387418875
151.80596542358398,0,21.71116472246975,51.4095641963417,1013.385044317321,-1.2879469809864041,-0.12638992938954616
152.05974650382996,0,21.73186505621801,51.40144555088819,1013.3947692794741,-1.273063010129236,0.058644672062669136
152.3239939212799,0,21.743330061989774,51.47181918520669,1013.3856145936514,0.2951575576160952,5.9350584385596115
152.57937097549438,0,21.745229812499208,51.43906901660224,1013.3722038904529,-0.1017751832508823,-1.554316688496811
152.83709812164307,0,21.750087516448673,51.4429744427424,1013.2686341998364,-0.5853411879732392,-1.8761791460539354
153.09105134010315,0,21.756843464628066,51.42065177154951,1013.3077352084836,-0.8024562942758896,-0.8549959288149928
153.3567168712616,0,21.76117904323307,51.45755518617865,1013.3389294302301,-0.8300422587414948,-0.10383356420811052
153.61136174201965,0,21.758503537824403,51.4442796087077,1013.3504060630378,-0.9205052456942676,-0.3552485640207615
153.8780689239502,0,21.764063659360996,51.435996809250845,1013.3742450110226,-0.9850094380265259,-0.24184770615006976
154.13248920440674,0,21.76035471838941,51.40994419123575,1013.3925942007802,-1.0910638213707944,-0.4168600983038797
154.38873147964478,0,21.74705887327514,51.39745624832753,1013.3793213621161,0.9320305436770011,7.895306520589857
154.6460418701172,0,21.75126130235656,51.41408307531778,1013.3926032369142,0.08825432286787671,-3.2791547322740193
154.90104365348816,0,21.750319625969105,51.40848336390635,1013.4077663245912,-0.45592824508145113,-2.1341840160453094
155.15595984458923,0,21.75335386571566,51.4028911261931,1013.1172511656573,-0.8102326269487623,-1.389825957158053
155.4107689857483,0,21.755301066105346,51.38265612208683,1013.2230033724858,-1.0833185233538232,-1.0716720848532586
155.66563296318054,0,21.75473139049601,51.35231369028949,1013.2902588960462,-1.2467620472293393,-0.6413348744287872
155.92969942092896,0,21.761642912366252,51.362470919919026,1013.3219922497868,-1.2131918538700044,0.12712460718130203
156.18636345863342,0,21.58009227067083,51.32998680179964,1013.3671194529468,-1.3130873335581814,-0.3891930546181466
156.44082069396973,0,21.62955753522745,51.300912443060405,1013.3951453056299,-1.3016053274440529,0.04512136372389377
156.6970021724701,0,21.666759324489842,51.24761976484074,1013.3992952117434,-1.2858615311261854,0.06145901310000044
156.96131134033203,0,21.690633291150203,51.21969399917688,1013.3797630844617,-1.3546432736777054,-0.26024482486480915
157.21582317352295,0,21.7077735052607,51.24454343292719,1013.1092311092503,-1.163817816396569,0.749750104002889
157.48000049591064,0,21.72059238464343,51.25240140951442,1013.2184667167008,-1.1635306974387063,0.001086842785713251
157.7355763912201,0,21.732457356895036,51.20830607629784,1013.2832582195317,-1.1615632171190933,0.007698316688720729
157.9900085926056,0,21.74371016646584,51.18909697799465,1013.3156856542153,-1.2163077123884243,-0.21514444042326716
158.24662828445435,0,21.74365446494943,51.20264100764397,1013.3395463882633,-1.2243945167103008,-0.03151502252183596
158.50585675239563,0,21.747257272363097,51.194920370901436,1013.3640271994702,-1.1447502322694203,0.30723361161595436
158.7610080242157,0,21.76055497925149,51.19601026606139,1013.384618773543,-1.0563008286855404,0.346652171342922
159.01540541648865,0,21.75992232620817,51.202753927511864,1013.3892749093555,-1.1182806129328768,-0.24364719702757653
159.27094173431396,0,21.759516325906482,51.23780958784389,1013.3953136243612,-1.1715103782239746,-0.20829207438550107
159.5375475883484,0,21.761075055006188,51.24603454108484,1013.1020985952697,-1.0972224290648043,0.2782251046828932
159.84190201759338,0,21.747521143846374,51.285805002971784,1013.2167094288374,-1.063002260086539,0.11259084165656492
160.0969750881195,0,21.73700374723574,51.340055090374236,1013.2725662916762,-1.158136233902238,-0.3729560289180839
160.35123467445374,0,21.533282596531222,51.340192822182125,1013.3236817819685,-1.1276258904587388,0.11999738901261173
160.6151442527771,0,21.59951778117398,51.34028121052728,1013.3566826725005,1.384786213976445,9.5229584565648
160.8699333667755,0,21.640204432831435,51.35451501402538,1013.3762282084292,0.46872064966269167,-3.594092557736821
161.1270830631256,0,21.677230443875747,51.36360260790953,1013.3879633837087,-0.039400540860055844,-1.976027427848259
161.38141751289368,0,21.704630159635393,51.3450307637525,1013.2163677364009,-0.44853502510428656,-1.6086475293352125
161.63630557060242,0,21.71857516638193,51.36165357115492,1013.2912776548432,-0.6653815177149666,-0.8507518734301385
161.89597845077515,0,21.73662065250533,51.358057765248304,1013.3157368014624,-0.8096203025794265,-0.5554674952528041
162.16101670265198,0,21.74274337646951,51.33119904694598,1013.3265683185462,-0.7683401873576777,0.1557522380281509
162.4147391319275,0,21.42752946821404,51.314148396175696,1013.3465302557214,-0.9690390791717498,-0.7913134861371546
162.67112731933594,0,21.540747895174736,51.32366072070834,1013.3430489127447,-0.8908251112355011,0.30492519256519474
162.92647576332092,0,21.39642122870831,51.33334205562417,1013.3591348674802,0.8842541534015088,6.951862296524331
163.18089413642883,0,21.509868757625046,51.35010870194331,1013.3590693179035,0.2171066311685078,-2.622248304145662
163.44387221336365,0,21.59176923416727,51.3669106662736,1012.9473276153947,-0.20430397334341027,-1.602493040829927
163.6990098953247,0,21.629704059100646,51.36551515697045,1013.0872758227866,-0.35434967647374094,-0.5880761088005831
163.95309114456177,0,21.66139552491607,51.39339501442343,1013.1829897961751,-0.3862576411451389,-0.12557678810991005
164.2076723575592,0,21.683552559934803,51.439694777452104,1013.2468540124833,-0.5118882186067796,-0.4935103393476867
164.4653091430664,0,21.6959523927204,51.473676807826365,1013.2880525883605,-0.6213385941842542,-0.42483376851764654
164.72043299674988,0,21.605389059938794,51.448160933244765,1013.3069557701477,-0.5424939165617289,0.30903777971300433
164.97535347938538,0,21.651249388416513,51.44006116765156,1013.313595625932,-0.5087820537260187,0.13225290922508356
165.2296895980835,0,21.684318460517726,51.42263861352492,1013.3133717625543,1.9850593944519717,9.804709818422985
165.493549823761,0,21.705540287222487,51.360000526728555,1013.2883957481424,1.125062887421751,-3.2592675358044403
165.75051283836365,0,21.708243573551172,51.37335248976554,1013.0038300902276,0.635768545388594,-1.904148364474909
166.00486969947815,0,21.708159110369998,51.35305352817096,1013.0938382079802,0.3758627022224461,-1.0222421290364792
166.25909996032715,0,21.728116950683866,51.33412370700258,1013.1517983649948,0.24132739658427843,-0.528964591686272
166.52299094200134,0,21.733647636754128,51.2949150969619,1013.1717696816667,0.22966563209951235,-0.04419092043184688
166.77835774421692,0,21.72075345001282,51.30885260444176,1013.2006056638347,0.2035128012068907,-0.10241318892880899
167.04408049583435,0,21.716187228895805,51.30543244098113,1013.1963805371732,0.24543267417267967,0.15775963505029167
167.29823875427246,0,21.711437614337857,51.321502143377394,1013.1941908041729,2.978165828703112,10.752274252583362
167.5525209903717,0,21.713847415307765,51.34027793455969,1013.1922638495425,1.9554024257179392,-4.022011213635336
167.80705523490906,0,21.70622753105721,51.36032029707629,1013.1915645786613,4.873757061389197,11.465738066405542
168.06233716011047,0,21.708684607080016,51.37727255151119,1012.7685759328393,3.4203108904628206,-5.69363249647072
168.3197739124298,0,21.710261417018828,51.34106493707054,1012.9255688567735,2.5299907698232307,-3.4582688095860514
168.5726339817047,0,21.703926243799483,51.32800817063076,1013.0181729082929,1.8728856456990481,-2.598752012437502
168.82653522491455,0,21.698041417619937,51.33194646161105,1013.0593713350418,1.3648395641117732,-2.000888011840475
169.08202242851257,0,21.707069784186587,51.24439369252806,1013.0922342825237,1.0894717152410511,-1.077852864011267
169.34001517295837,0,21.594330794558225,51.249749970926885,1013.1090532537473,0.9058987795328826,-0.711537756427745
169.59554719924927,0,21.633237169993457,51.27145260153434,1013.1153778307336,0.9491227604074957,0.16915683625002867
169.84982895851135,0,21.64721940942527,51.275015022683625,1013.1044563242311,3.433059426072691,9.767489743527277
170.104558467865,0,21.663469512622513,51.3144418547084,1013.0972492758498,2.594532193374537,-3.293458408682948
170.36850023269653,0,21.679425695686085,51.28224473330985,1012.811627545051,2.1167596757002176,-1.8094179861340067
170.62160229682922,0,21.68784617866678,51.28845010476028,1012.9079101844576,1.7158989494895969,-1.5837788868524356
170.87599086761475,0,21.685902880818915,51.269795654254025,1012.9804082036998,1.6697433646620683,-0.18143665673943768
171.1300003528595,0,21.68465578413483,51.27606011962381,1013.0154154708194,1.6756840474523993,0.02338825622224915
171.39543294906616,0,21.691202548339632,51.24961929507659,1013.0390125802019,1.6966374558800748,0.07903878579777437
171.65085554122925,0,21.44189467098531,51.25714747291582,1013.0515908491896,1.6455702826659309,-0.19967134811705262
171.91556668281555,0,21.520788255612803,51.29246715451826,1013.0535621946414,4.36261385443655,10.263868585931888
172.17297887802124,0,21.57687544652314,51.31099645654359,1013.047293181274,3.3326922689840486,-4.001170974958914
172.4273247718811,0,21.61104970001801,51.32693074949899,1013.0497973333138,2.775124845200108,-2.1922134536269247
172.6820523738861,0,21.622065108195915,51.26562544804045,1013.0200485907521,2.442710664697112,-1.3049277380538655
172.93932032585144,0,21.64004982333357,51.27536561356074,1012.7611001592085,2.1131604658144916,-1.2809265198460649
173.19341135025024,0,21.662577010640046,51.274629581098196,1012.8439448714371,2.2009084855339953,0.3453473678249752
173.44941091537476,0,21.66968658351261,51.298080823710315,1012.909737381488,1.9173449528838542,-1.1076770890849394
173.70370721817017,0,21.665152714487228,51.25752122106875,1012.941375006216,2.0532718750958825,0.534544872290656
173.97086715698242,0,21.667700968519572,51.255710167489084,1012.9553496685477,2.1319941468755736,0.2946621445753629
174.22775053977966,0,21.65660135421517,51.22368821232709,1012.9726600215807,4.664447488670275,9.858395724424804
174.4850287437439,0,21.64583970731361,51.199140411644855,1012.9632109584584,3.835124986852625,-3.2246327420666767
174.74074578285217,0,21.64257205531496,51.23855480780284,1012.9356568493946,3.294277121309696,-2.1142145844678844
175.00528502464294,0,21.629489431877197,51.237032945382815,1012.6778896251898,3.023518845279786,-1.0238761947648283
175.25968098640442,0,21.632079389816983,51.283274095317495,1012.7705671818069,2.788675224516269,-0.9227901061932464
175.52367305755615,0,21.63192219900007,51.294545216071796,1012.8361423133306,2.661841890779512,-0.48045110032044924
175.77949690818787,0,21.63182132298317,51.265196781337785,1012.8810919393717,2.631247354651022,-0.11957860012754286
176.03369760513306,0,21.633575863283003,51.256453190443814,1012.8855372072383,2.6742258019337815,0.16908764203787924
176.289977312088,0,21.634701826239436,51.24466085023365,1012.8723164968119,2.723657808413675,0.19289128489764143
176.54736185073853,0,21.63724368116385,51.24531938250252,1012.8923192574395,2.8470695577504888,0.479455947035042
176.80242252349854,0,21.637055620600936,51.245695622163694,1012.8799173362312,2.8787704052797034,0.12428991690371685
177.05637383460999,0,21.63329638071802,51.276377216276224,1012.5752576508977,2.955120321812234,0.3006574504274749
177.31300616264343,0,21.623536837916788,51.27561895432048,1012.6788854691265,3.0447589205315335,0.3492880238674242
177.57072186470032,0,21.62280152754074,51.320305411122796,1012.7400962404066,3.097203587070579,0.2034998363846149
177.82818698883057,0,21.62596820111303,51.29967166325429,1012.7861025018309,3.217224302677911,0.4661017135231502
178.08246445655823,0,21.622472587566097,51.29460926071693,1012.8068878899028,3.40093522750737,0.7225519046598211
178.3365626335144,0,21.490780768179487,51.281277644596344,1012.8165666411937,3.478186721416618,0.30401994600119825
178.60052871704102,0,21.464625339334894,51.30144350431246,1012.8268351393456,3.4617173452943284,-0.062394213922875016
178.85524368286133,0,21.51165492042368,51.281432779486536,1012.8233275367463,3.555443409893722,0.36810990200995847
179.1053900718689,0,21.54547435153739,51.28885238668038,1012.8218108539543,3.6054306337761566,0.19975458469638885
179.362375497818,0,21.568996992178675,51.29598689108434,1012.6410557094466,3.5257428708776866,-0.3100760569286773
179.6156725883484,0,21.57863463859541,51.24702832554039,1012.3283290555714,3.651010272641532,0.49453895885885707
179.87995195388794,0,21.579361695070943,51.195207797148,1012.4802064715224,3.749820654047054,0.3739033035136659
180.14379119873047,0,21.576189724620477,51.17199251440574,1012.5862269777413,3.913308694541057,0.6196026068292315
180.3993856906891,0,21.575973413314202,51.208163830571216,1012.647738678545,3.7555791229869127,-0.6161838335470903
180.6545684337616,0,21.564918936850198,51.208747065905534,1012.6902630938389,3.762818768525147,0.028480412087251453
180.90872478485107,0,21.311592703409563,51.18277189974332,1012.6953815003942,4.482413647388883,2.8203493514445013
181.16477513313293,0,21.404351001097986,51.17418918685693,1012.6889071821876,4.383444702658748,-0.3880697943262628
181.42967700958252,0,21.465697213226104,51.28113162535469,1012.6900285531779,4.452145315298453,0.25873746221737
181.68348383903503,0,21.50142712705925,51.3008335523214,1012.3245713338141,4.4182519698567395,-0.13353553648446645
181.93885207176208,0,21.533452912404723,51.2500925705355,1012.4694686894244,4.4422251002643245,0.09387601228741975
182.20307564735413,0,21.544908834130663,51.24798859604006,1012.5447376931351,4.4764019961989865,0.12934944738328097
182.4619791507721,0,21.548622031742546,51.24666438346178,1012.5889844878493,4.560830763649216,0.3261036962770165
182.71922659873962,0,21.359491087322198,51.28043129538852,1012.6133084464077,4.718517718857431,0.6129993131915479
182.97446846961975,0,21.42599304280684,51.29601437799926,1012.6396986252747,4.787335387196371,0.26970186846780064
183.22867584228516,0,21.470489446072946,51.32864477970478,1012.6460667383326,6.545166463820723,6.912563406225844
183.49406147003174,0,21.502683229493833,51.28620367832862,1012.6397843176406,6.139287662947797,-1.529358197103598
183.75794982910156,0,21.52516262303358,51.318306774660854,1012.3656925361322,5.726161845452367,-1.5654250674171835
184.01281309127808,0,21.53958860368004,51.29169767506025,1012.4679983054357,5.500032624904077,-0.8873475081161563
184.2683982849121,0,21.54156926068213,51.2600641549618,1012.5190132865248,5.3904813575953785,-0.4286239639164967
184.52501702308655,0,21.548298162480933,51.24818732595539,1012.5380927832632,5.320177661047856,-0.2740469586897245
184.7820746898651,0,21.556254937716112,51.224439929654594,1012.5676556286977,5.24623117000751,-0.28757457059692665
185.0396490097046,0,21.561361137994513,51.20501861481925,1012.5906844763625,5.202202269907842,-0.17093874087191727
185.29487800598145,0,21.55736089649144,51.22736001923229,1012.6087254356307,5.275678738358305,0.2880052833793776
185.59620451927185,0,21.53653103240416,51.18812147998144,1012.4532952755062,5.330839814005817,0.18299883826062643
185.85141158103943,0,21.53407928511828,51.230359780580635,1012.5049283308933,5.245961115642087,-0.33258882006347396
186.10637378692627,0,21.527048064695773,51.22661482222507,1012.5459920017886,5.1000457034392985,-0.5722844649388229
186.36350107192993,0,21.522535832212423,51.23638423527805,1012.5780468075604,5.099757920534021,-0.0011192318234093058
186.61877632141113,0,21.51418231101127,51.27146005035291,1012.5984042283258,5.24029875832988,0.5505411334985717
186.8754539489746,0,21.196955488879208,51.273526698733235,1012.6090288942589,5.264316893467758,0.09357828223343118
187.13202381134033,0,21.301605036715962,51.27452661302664,1012.6398467194695,5.218638556642097,-0.17802658740603883
187.38871312141418,0,21.374220922056193,51.263089264407384,1012.6608436243745,5.583987914784346,1.4232698666563868
187.6476845741272,0,21.420821616807665,51.272056790496315,1012.6379480517993,5.3341227389500006,-0.9648429719652374
187.90220975875854,0,21.448907983200574,51.26749739775406,1012.4433921146654,5.107869120081687,-0.8889517683776779
188.166357755661,0,21.463293642793406,51.28701046796604,1012.5353480587873,4.9440009193966885,-0.6203555894176829
188.42068672180176,0,21.467067700784636,51.26215233912283,1012.5894646224991,4.911288987151969,-0.12861874431614242
188.68570756912231,0,21.467670397212697,51.300805907615484,1012.640462007142,4.714745907585621,-0.7416416785398341
188.94059801101685,0,21.283820419082932,51.299973945685615,1012.6713425265116,4.709936443419006,-0.01886816814176048
189.1951265335083,0,21.3409064854881,51.27700386964411,1012.6968459482497,4.599122566530924,-0.43554135610729877
189.45219016075134,0,21.381179589931083,51.311508163701944,1012.7028452730711,6.921857873391305,9.032167077228198
189.7067093849182,0,21.41073307548201,51.33365103323346,1012.720953782595,6.049083708653838,-3.429070463911071
189.96459245681763,0,21.435156631289622,51.30260918575793,1012.7091686790999,5.499146651017226,-2.1334068336197216
190.21837902069092,0,21.432567523972672,51.32580206474485,1012.4953280038533,5.077818579909207,-1.6595012738095212
190.4725785255432,0,21.438183090830634,51.38955000290405,1012.5823455867684,4.6268060800004776,-1.7742378574436963
190.7292037010193,0,21.445495363976452,51.365796233950014,1012.641847451764,4.533385954473067,-0.3640289658550127
190.9858877658844,0,21.448298711015926,51.3867449658844,1012.6819891677806,4.40232461131137,-0.5105996901989311
191.2404854297638,0,21.4446399075983,51.36504508777508,1012.7080170398403,4.233513725175944,-0.6630347256456338
191.49485611915588,0,21.435014791319958,51.394200280171006,1012.7470865747619,4.032115410605839,-0.792077178422108
191.74869632720947,0,21.43429577596589,51.388383810067964,1012.7605724281456,3.9538144143115854,-0.3083408742735274
192.01279401779175,0,21.426557246424622,51.39263798528,1012.7687768843599,3.9631887896113893,0.035495894500312514
192.26669812202454,0,21.425229657108467,51.42374324651818,1012.792158205733,3.7639350703719985,-0.7847722690989807
192.52117204666138,0,21.418919856553725,51.47450254291521,1012.5839537796002,3.5667637190428003,-0.7748100326278453
192.77940130233765,0,21.414870589809723,51.464017355109874,1012.6800216617706,3.4523545244711706,-0.4430527992345661
193.04432463645935,0,21.401356343207098,51.50729277857452,1012.7258654554302,3.3889250570407463,-0.2395115365465055
193.29822731018066,0,21.388975152124164,51.49513590257534,1012.7569180877368,3.500904954074138,0.4408753438340641
193.5644133090973,0,21.311757156739375,51.50178223696824,1012.7942456966177,3.553534567332832,0.19778564028509765
193.81871676445007,0,21.315102061948295,51.507850700055904,1012.8040459009612,3.445669409136868,-0.42399068879805407
194.07405972480774,0,21.33180284330763,51.577135011693535,1012.8111413301095,4.134502285130361,2.697782971949059
194.33552265167236,0,21.3407011666084,51.62549037081166,1012.8258641323703,3.8857735514711753,-0.95124953155455
194.592365026474,0,21.337315214630376,51.60339561820491,1012.4510143346777,3.6077234334627004,-1.0826172728021788
194.84778428077698,0,21.33514230557843,51.62774962611389,1012.6032919320467,3.422399014012611,-0.72556407719603
195.10277795791626,0,21.33192858092207,51.65782631994793,1012.7026270104601,3.3546024348890815,-0.2658703099122208
195.36102676391602,0,21.324408367289845,51.6389579066963,1012.7541159212132,3.1772582176173425,-0.6867285842690761
195.62528944015503,0,21.312235248053668,51.638312409917624,1012.7898150490888,3.182232795184652,0.01883128165199524
195.88189029693604,0,21.308131766549952,51.7646683848107,1012.83774489005,3.1683780347518367,-0.05397256849531475
196.13686633110046,0,21.303679111636136,51.73523465242548,1012.8463781290521,3.0002631797227703,-0.659363036112516
196.39271783828735,0,21.309918037650018,51.748986290058255,1012.854966854252,2.9569389601173772,-0.16932856319040096
196.65712189674377,0,21.30846399103362,51.76369401984713,1012.8606743337378,3.013294174535178,0.21314146549500126
196.91231775283813,0,21.303892314183756,51.750709085682466,1012.8826273893453,2.897663370493929,-0.45311289258163145
197.17703676223755,0,21.289972842668533,51.77087933121499,1012.8960827723168,2.872077169022793,-0.09665462541008128
197.43272471427917,0,21.284678680627206,51.76441496054245,1012.885795077738,2.760817482754844,-0.4350975793330599
197.68762016296387,0,21.263088425010373,51.805985543575495,1012.8928241157288,2.6711271807977597,-0.35190122538725427
197.93901228904724,0,21.130700166363287,51.847258750250234,1012.922111718946,2.60849210339067,-0.249151719152583
198.20204758644104,0,21.167912432461378,51.853317093247306,1012.9490516191776,2.4157890015384793,-0.7326217221785075
198.45666432380676,0,21.195431675991934,51.87942886533888,1012.948197387405,6.305965276641344,15.278428006739128
198.7110722064972,0,21.2039955586204,51.91442100806251,1012.9437719073472,4.953506478304723,-5.316064284039394
198.9661750793457,0,21.213129918913136,51.92252909252799,1012.9486619216189,4.8288134846832795,-0.48881275764846105
199.2306547164917,0,21.217172548768406,51.98283130364088,1012.9924753283751,3.819344706183025,-3.8166664583212975
199.48917484283447,0,21.21794759915726,52.001104728826434,1012.9791727807684,3.2877861576024427,-2.056199070679117
199.741384267807,0,21.209278626095553,52.02687662276301,1012.9840472874769,2.9231135118733973,-1.460333948833028
246.19260501861572,0,21.209278626095553,52.02687662276301,1012.9840472874769,2.9231135118733973,-1.460333948833028
246.45496654510498,0,20.696766922980395,53.41135009213016,1013.0623344138739,2.056927720818611,-0.01854234840609225
246.70515656471252,0,20.41523758386532,54.33785122546342,1013.1008565844519,4.202006150255264,8.55350082368129
246.95538306236267,0,20.254650277625895,54.93072846347528,1013.1288595830498,2.8981920165649653,-5.190402816440969
247.20508551597595,0,20.15159458941165,55.30136714341502,1013.142626356316,2.135472153254923,-3.053345830420618
247.4541027545929,0,20.09455576518021,55.60866395291139,1012.9003258730414,1.5494632432231281,-2.3520952162685878
247.72014474868774,0,20.06347933382664,55.76090720228511,1013.0057013835487,1.053805654334305,-1.8779780541140552
281.7973599433899,0,20.06347933382664,55.76090720228511,1013.0057013835487,1.053805654334305,-1.8779780541140552
282.04918122291565,0,19.799123439111817,56.46175724291455,1013.1695508985941,0.15159831262384282,-0.026281098207746833
282.3055875301361,0,19.689651120845568,56.917457489527656,1013.2758303399623,3.2198373206943254,11.930639203481775
282.557466506958,0,19.62856444503045,57.198312881896065,1013.3284741054999,1.572747852988348,-6.506408506029058
282.81008863449097,0,19.576557623999214,57.39713085201373,1013.3690129168879,0.5597916695684124,-4.006652381410536
283.0609176158905,0,19.566903209810594,57.47784927213769,1013.1488235074729,-0.18042514565851442,-2.949351980177606
283.31121277809143,0,19.560707562584092,57.537700988045884,1013.2661979990189,-0.6691358729911214,-1.9522810171265572
283.56080651283264,0,19.55673155287441,57.531788377438914,1013.3176758762853,-0.9077870928273997,-0.9571150133618606
283.8180294036865,0,19.555999255459703,57.5847535896825,1013.3715175347671,-1.0660011012264423,-0.6154126815563228
284.07533144950867,0,19.546432925536465,57.57380338993088,1013.3880566415123,-1.2211488431391346,-0.6012114038886422
284.3317925930023,0,19.472770650532386,57.53981191534492,1013.3981293522943,-1.423611596565545,-0.7918205614114617
284.59163546562195,0,19.502117981923387,57.62019830653495,1013.4228338560574,-1.5205586519968044,-0.371996628255845
284.849915266037,0,19.511855026098594,57.6292011777778,1013.4361421742598,0.611096692596294,8.277961082711194
285.10497522354126,0,19.52174225393371,57.626630051143465,1013.4435802114112,-0.12725472601450827,-2.888445833995514
285.3602976799011,0,19.52808730755557,57.61707712100841,1013.4381976642918,-0.6501985137204445,-2.0527032063059787
285.624614238739,0,19.537617027848825,57.61290383720711,1013.218524943646,-1.0697781814623586,-1.583328845695108
285.8797781467438,0,19.53645554683147,57.62045713270333,1013.3096455109325,-1.197322644824527,-0.5011928835232982
286.1435606479645,0,19.535710175180405,57.64254955024809,1013.3726249189729,-1.3024219296722217,-0.39726678745834176
286.3987281322479,0,19.54614749888599,57.653553039253936,1013.4067806669752,-1.4909523635354198,-0.7400397676377032
286.65331411361694,0,19.55102629564868,57.608167131257446,1013.4223724429314,-1.4985313306158239,-0.029767543636201717
286.91077852249146,0,19.419250860527924,57.58332598738733,1013.433166812644,-1.4173483162886062,0.31532501655283035
287.1707081794739,0,19.47141061524603,57.630139577904565,1013.4438088529865,-1.3525168166988908,0.24941985949205014
287.4270052909851,0,19.506703019733433,57.58712079139312,1013.4274002379716,-1.4400603517354873,-0.3415698743040744
287.6830096244812,0,19.514797439406767,57.62068404452663,1013.1974409857252,-1.4608102464189765,-0.0810528285815349
287.9384307861328,0,19.527269078841837,57.57894737465416,1013.2783680676223,-1.445259895160507,0.060880251280700425
288.1940805912018,0,19.549896844987572,57.58873122942723,1013.3365634301807,-1.5644274018685442,-0.46617224207257096
288.45278573036194,0,19.555251686848806,57.56914153292364,1013.3598588244407,-1.4778273856030633,0.3347311332488936
288.70850563049316,0,19.56232666951999,57.615240704584004,1013.3923271759219,-1.5356618637079913,-0.22616064335845537
288.96408343315125,0,19.31160846782957,57.60201269863898,1013.393393255038,-1.451299802743319,0.3300824457215594
289.2195601463318,0,19.40415120125057,57.583291756667236,1013.4106268002021,-1.3308080465028356,0.4716363072038897
289.4871211051941,0,19.465359076641782,57.587307808167104,1013.4228360862627,-1.4463747700350047,-0.4319270905703648
289.7521812915802,0,19.50100021392116,57.516675973713376,1013.4301295623375,-1.4618563019231643,-0.05840808244115529
290.00952315330505,0,19.52023409054458,57.50211666893916,1013.4421066741569,-1.455102868030539,0.026243141612367127
290.2644317150116,0,19.5380351154372,57.484573221397866,1013.4300224948705,-1.4517202580364093,0.013274688128702089
290.5225920677185,0,19.551278065137353,57.518007344201365,1013.4420379644204,-1.604004010897177,-0.5896446884694834
290.7784581184387,0,19.557957351144882,57.509287144325356,1013.4403812710207,-1.672864800657137,-0.26912627231515757
291.0361044406891,0,19.29054175145339,57.46697344425658,1013.4352424260014,-1.76972641551367,-0.3759657250621104
291.2916188240051,0,19.390631795480573,57.45825118968134,1013.4464233177275,-1.7524050631791537,0.0677877227862196
291.54611229896545,0,19.456683100323968,57.4589724759819,1013.456211359095,1.3997409062711579,12.3858670473776
291.8034143447876,0,19.493613195071873,57.47720178673761,1013.4562316524699,0.3509355683963473,-4.076175337166113
292.0612909793854,0,19.52458991071453,57.46082800377016,1013.4342229081567,-0.3575197096024507,-2.7472236842128592
292.31995487213135,0,19.542649706779997,57.48711285454005,1013.4356128249789,-0.8678443610893185,-1.97300029960159
292.57553267478943,0,19.550600890761277,57.45078485025879,1013.4326050327093,-1.065829943098252,-0.7747021147860206
292.83852648735046,0,19.55570350289481,57.395573683184224,1013.4440520819959,-1.2384412944511938,-0.656316896737608
293.09715700149536,0,19.55715878888721,57.3857986223363,1013.4439253886154,-1.4352613243598473,-0.7609825838264928
293.354953289032,0,19.428644171804155,57.33308923596094,1013.4364813311955,-1.463344018354468,-0.10897800938570991
293.6100170612335,0,19.481077255095112,57.31130607444853,1013.4566960623345,-1.607868677529444,-0.5663993011593143
293.8676264286041,0,19.522072868467014,57.311257411412384,1013.4394513479928,-0.0006623946604498165,6.238806697432195
294.1236400604248,0,19.533757307090017,57.3177624001924,1013.4305700084274,-0.6206796690791124,-2.421759390666147
294.3780925273895,0,19.5485328140114,57.27237201918027,1013.098947263858,-1.089433051053609,-1.842231734368868
294.6458432674408,0,19.559834160455157,57.2698725707836,1012.8802349627634,-1.27122833654403,-0.6789588113740392
294.90082001686096,0,19.557990330389472,57.19782311983151,1013.0691985664934,-1.3944577890955567,-0.4833198700902832
295.1555640697479,0,19.556807066401685,57.183816901969585,1013.1995847329895,-1.5428970692457784,-0.5826969612797214
295.41213154792786,0,19.556047715694234,57.15615511635427,1013.2901944861793,-1.646777702393602,-0.40488169236772514
295.66946840286255,0,19.55919896156582,57.187091842028934,1013.342262372274,-1.6167200405433721,0.11680278698462397
295.9255905151367,0,19.553944142870186,57.15999971737384,1013.3731777079504,-1.52245481201675,0.36805073053111226
296.1801300048828,0,19.55421045618878,57.14892535185014,1013.3992777763057,-1.709579396749694,-0.7351206043917861
296.43415331840515,0,19.547104253864752,57.125636670311444,1013.4214993368431,-1.8787767488400255,-0.6660782989361054
296.69879603385925,0,19.538905348873485,57.132968273477694,1013.4306482835991,-1.8156590649707998,0.238502356713252
296.9558217525482,0,19.5372823170971,57.12940190041066,1013.4281878702961,-1.800459810677023,0.059137234005566426
297.212779045105,0,19.538060025460236,57.0925861853284,1013.4488118414113,-1.8079496618864352,-0.0291482336807297
297.4697148799896,0,19.53128200703504,57.049407548490386,1013.451891177504,-1.836561652880132,-0.11135540719963641
297.73391675949097,0,19.53602864861732,57.0456613786483,1013.4540475799082,-1.7480778343465873,0.33491289764903776
297.98888659477234,0,19.529978386322597,57.042538230695165,1013.4377350513573,-1.6821111300598415,0.25871824085689
298.2538561820984,0,19.520567873950565,57.04677277998436,1013.4453257254747,-0.19836109321907802,5.599885825150642
298.5087306499481,0,19.516417997770283,57.03918823220548,1013.4446571866686,-0.8480464627830739,-2.5489619273710646
298.76358795166016,0,19.51921267630434,57.032361139162596,1013.2374688539486,-1.2887833373671604,-1.7293897090955404
299.02047514915466,0,19.51002050759715,57.00715908852425,1013.336191760762,-1.5088275173018506,-0.8565853646572624
299.2779152393341,0,19.504121502909396,57.00585528291274,1013.3977224964167,-1.893527766185858,-1.4942710966742616
299.5355532169342,0,19.503974414743706,57.00864821450884,1013.4189718567277,-1.9439762204062219,-0.19582336460482833
299.7898440361023,0,19.494783638426284,57.03481897808464,1013.4449474500942,-1.9900366987628144,-0.1811252646099212
300.0454261302948,0,19.37035265176179,57.02716360076456,1013.4673371773679,-2.0145349341778815,-0.0958576244380323
300.31071877479553,0,19.40721360676189,57.05025883175448,1013.4670459883944,-2.036813730562833,-0.0839718519490322
300.56879591941833,0,19.434507399054556,57.102079297998394,1013.4818782213665,-2.0895269844455973,-0.20425801492702927
300.8240616321564,0,19.452022983658136,57.09042629676213,1013.4752725739529,-2.18465596180931,-0.37267345225811305
301.0797235965729,0,19.459624924053152,57.11146015075592,1013.2343437022524,-2.023386101909067,0.6307739106090884
301.34411096572876,0,19.469961241919087,57.139395922908705,1013.3289641633063,-2.2585964787184007,-0.8896470285331768
301.5998315811157,0,19.471136665508553,57.10821885173228,1013.3755659191153,-2.0389773455446982,0.8588261152178632
301.8625223636627,0,19.46825243125954,57.11867083263502,1013.4159868563017,-2.0766525469561077,-0.14341825757603124
302.11917066574097,0,19.351507173670296,57.174203004750744,1013.4564068866023,-2.055286391400492,0.08325203327952062
302.3733100891113,0,19.178135928885364,57.18140174086103,1013.485316629479,-2.0891902643326166,-0.1334083385444938
302.6307134628296,0,19.282040703119485,57.22664786370965,1013.4861697223331,1.572690413341968,14.225838898885778
302.88764452934265,0,19.343262975317217,57.216871288775145,1013.4981577214406,0.20004734150691483,-5.342575582341923
303.1450479030609,0,19.38619045851858,57.21270118311902,1013.498486380618,-0.6924514333328536,-3.472352407658873
303.39880990982056,0,19.42101595280404,57.16127286398085,1013.5056334652376,-1.478896594280345,-3.094690229210701
303.6533763408661,0,19.428810736389554,57.179270636817606,1013.5144756457033,-1.8032509200355678,-1.2741095322464773
303.9184947013855,0,19.43199370303288,57.202717445716615,1013.5156455355633,-2.0372834482768236,-0.8827259093252535
304.1765911579132,0,19.44313273138326,57.19324387958217,1013.5270496132374,-1.9722848782360312,0.2518455010941077
304.43134355545044,0,19.242393767148688,57.217851303568956,1013.5283987894127,-2.0201660103305783,-0.1879477749065656
304.69000577926636,0,19.319639130985358,57.23988262531785,1013.5217204214098,-2.0681466442936864,-0.1854960115862789
304.94673347473145,0,19.3564058492969,57.21150787729698,1013.5327719958485,0.08205408656813473,8.375297314803888
305.2020351886749,0,19.390986244969927,57.13844900407984,1013.5302472740109,-0.8613316651056272,-3.6949866246835668
305.4661843776703,0,19.420455059017318,57.12189196684482,1013.1285113028597,-1.3229788563679152,-1.7478195328530974
305.7214078903198,0,19.42299295688732,57.117071796353585,1013.2598731723804,-1.7472410563845033,-1.6623069624857898
305.97612380981445,0,19.422732384733152,57.152209193671034,1013.3622323166037,-1.9754589473586905,-0.8959845264327122
306.23143458366394,0,19.437189350467914,57.10998888799503,1013.4413649402583,-2.2373888311274626,-1.025904621006315
306.48812460899353,0,19.453744105676638,57.09115114332129,1013.4467724624839,-2.3361296395277247,-0.3846769436023583
306.743004322052,0,19.20358167391326,57.12200976164836,1013.47870534693,-2.3286501849611065,0.029345064278657643
306.99687218666077,0,19.300189594099777,57.096978169596056,1013.4949424743332,-2.363754706197752,-0.13827637410085195
307.2517349720001,0,19.349452058565586,57.07474818190308,1013.5104054566407,-0.145412786389727,8.70364845996623
307.5090289115906,0,19.39198153256508,57.07847581091303,1013.5295174423009,1.0140775032986291,4.506677428503015
307.82174491882324,0,19.395553931034815,57.060336615154334,1013.5432871083506,-0.10667206878044011,-3.583956863167358
308.0756456851959,0,19.41974778353419,57.02486746290044,1013.540323836299,-1.0015247549250597,-3.524475266599484
308.3310980796814,0,19.422539068199743,57.07337860500999,1013.5380635747309,-1.4760789554375449,-1.8576109699106191
308.5880696773529,0,19.225539386244122,57.02303796382176,1013.533573456776,-1.7892482192465413,-1.2187215293791924
308.8433954715729,0,19.301545852738638,57.01279064644033,1013.5294761128633,-2.1548047822091343,-1.4317205932295989
309.0939586162567,0,19.35396098072107,57.01629908209576,1013.5345703309721,-0.9955270975969974,4.626666745655497
309.3502881526947,0,19.387597992347715,57.00215406222828,1013.5524998156023,1.8584322777369924,11.134174453959583
309.60790038108826,0,19.416461396824282,56.97522718738832,1013.549345617927,0.2914193802628784,-6.082689480095199
309.872807264328,0,19.42952643800542,56.98653031735721,1013.5476800638128,-0.7516952076863548,-3.9377147121769336
310.1303985118866,0,19.43427227584746,56.999878258359715,1013.0776429717138,-1.2895380446554112,-2.0878542072851793
310.385657787323,0,19.43549860463889,56.993245705139,1013.2495430605765,-1.5683310983198757,-1.0922935270523335
310.63972783088684,0,19.449020528898767,56.96566188725668,1013.3602174300227,-1.8165955543223378,-0.9771074792355309
310.902548789978,0,19.293613355722158,56.96000588157021,1013.4168309424637,-2.037220602260572,-0.8394606377791257
311.15894317626953,0,19.345231807365554,56.9750897910335,1013.4676428642828,-2.1773109444151064,-0.5463856440552948
311.42449259757996,0,19.38745394158254,56.98854542644092,1013.510835233532,-2.3618655145736636,-0.6957203771919427
311.6797320842743,0,19.416368953336125,56.95858251782593,1013.536121779997,-2.359768940060541,0.008205140737042841
311.93528032302856,0,19.431286389816744,56.94537705223937,1013.231453665212,-2.5042580244013015,-0.56579518557949
312.18975806236267,0,19.446317371920994,56.94691662614417,1013.3577976113925,-2.463341700333919,0.16067573369664842
312.44548082351685,0,19.452324837469256,56.95987772744326,1013.4307950824798,-2.49125387961079,-0.10915280194983043
312.70287251472473,0,19.443445145970706,56.974460418482984,1013.4648736671264,-2.3755241579229263,0.44959994460582964
312.9629895687103,0,19.455939438367245,57.002505565973124,1013.4952546661991,-2.348870867584419,0.1024673692141084
313.21835112571716,0,19.460319002497044,56.998157039944005,1013.5157183774529,-2.2335462443971292,0.4516236367984201
313.4840016365051,0,19.464948831346344,57.046080481022095,1013.5186953065013,0.6148199737172155,10.722192794532036
313.74966192245483,0,19.469739265685007,57.08474318604094,1013.5340499604015,-0.6039649522006103,-4.587757336633138
314.00560092926025,0,19.46735566050039,57.07088721387785,1013.0674050781869,-1.1724192411210774,-2.2210371905537163
314.26142621040344,0,19.471283830076136,57.10472532744073,1012.8652895436974,-1.5068582922914648,-1.3072886747797892
314.5150535106659,0,19.45561193596616,57.10003348274577,1013.0923480180442,-1.7872664553135675,-1.1060707267423886
314.77067828178406,0,19.460108830310176,57.09575245946882,1013.2502891978583,-2.0249529492891347,-0.929403594284926
315.03650403022766,0,19.46117540149613,57.09427521264488,1013.3469627437113,-2.128376900271516,-0.3890670649805014
315.2930874824524,0,19.19015788455331,57.09557518367405,1013.4246987220962,-2.212002076351783,-0.3259268236453404
315.5475695133209,0,19.29339425560944,57.08015802997691,1013.4802363684674,-2.2433539313098962,-0.12320158397735852
315.8049201965332,0,19.348729754966882,57.06844872637461,1013.5102260619693,-2.2807273268268946,-0.14533213144668725
316.0601472854614,0,19.384240892817704,57.13979622304297,1013.5295817539345,-2.3740624877113508,-0.36541807566280343
316.3164587020874,0,19.416126280332545,57.11042388701627,1013.2949633326972,-2.4071635001066376,-0.12914469107530993
316.57231855392456,0,19.438407763133988,57.14845196233701,1013.365117378642,-2.3834361964555004,0.09272837650321343
316.8280062675476,0,19.44542962918185,57.158927187372576,1013.4222971362838,-2.4557335683284607,-0.2827763105348729
317.09499073028564,0,19.459032242166554,57.17558864961006,1013.4634269554057,-2.3932125429850077,0.2342582390642845
317.3519055843353,0,19.462303785924284,57.17032015917073,1013.4884262970297,-2.446249023724473,-0.20635731621950285
317.6080687046051,0,19.466222551086965,57.17100202585694,1013.5298931631344,-2.254977232967093,0.7466852166110787
317.863746881485,0,19.465098835526852,57.19182653633643,1013.5370496031401,-2.378350876858626,-0.4825254524785061
318.1210205554962,0,19.468016253012298,57.148020907624236,1013.5450412100163,-2.3795529170568814,-0.00467240571887285
318.3766813278198,0,19.466249930160014,57.16075451688873,1013.54773793541,-2.3282240571489576,0.20076153685861794
318.64247703552246,0,19.476032066160304,57.10819730602473,1013.5494685385187,-2.4015545773936497,-0.2758883086804556
318.8978729248047,0,19.469574740851993,57.08223580016674,1013.5465721193605,-2.348899330966748,0.20617454486070574
319.15315222740173,0,19.476346461534646,57.1145730642381,1013.5369205025172,-2.3323596128834883,0.06479061352686885
319.4102659225464,0,19.486149992184515,57.06651717895231,1013.5342637474475,-2.3759159413399136,-0.16940697576975014
319.6676185131073,0,19.4231688740446,57.05541594408944,1013.5438613652333,-2.435726143558884,-0.2324026595615249
319.92478227615356,0,19.442927294339817,57.07099853402473,1013.5439409947405,-2.492855748173831,-0.22224183970811234
320.1809802055359,0,19.461064941163283,57.09101152078168,1013.5450973201813,0.5871760458686608,12.017527480889951
320.43636751174927,0,19.465427531839023,57.04718734101338,1013.5494175117195,3.589226260326876,11.754540892960584
320.70096921920776,0,19.471865744822757,57.05142508502278,1013.2502155900429,1.3209369612064732,-8.572752403359848
320.9579577445984,0,19.479635972711236,57.052113095201825,1012.9731425141638,0.014104656330580667,-5.084979510422918
321.21553325653076,0,19.48462245764196,57.019548143514385,1013.1854097523667,-0.9004534088311195,-3.550762187384563
321.471244096756,0,19.475087559560414,57.02730536830644,1013.3141560821151,-1.3522243173024169,-1.7667125036104085
321.728684425354,0,19.470787887611046,57.01029595268212,1013.3986009971647,-1.631450005806194,-1.0846279718554614
321.98527240753174,0,19.31304022356812,56.98958287912231,1013.442209860673,-1.8906885281791401,-1.0116902002798178
322.24950885772705,0,19.370433789794774,57.0228030693533,1013.482423744614,-2.100527703456615,-0.7930886103281146
322.5044255256653,0,19.414542783360762,57.04383062414087,1013.5128451086823,-2.198271796169448,-0.38358040842463986
322.7594950199127,0,19.439210842658714,57.059284236073864,1013.515276448711,-2.315168742154086,-0.45811807522828973
323.0182583332062,0,19.453222106268313,57.03466608199457,1013.3052692599921,-2.3648838301755397,-0.19212572056175906
323.27649426460266,0,19.462213728631575,57.00667837080009,1013.394790310651,-2.2914376385141155,0.28441743779749085
323.53510642051697,0,19.475261141101534,56.97774971338331,1013.4521713619874,-2.2975526583527257,-0.02365666824003796
323.79096126556396,0,19.485453496011893,56.951940104157146,1013.4831649717087,-2.4396013902468856,-0.5549263486530058
324.0482289791107,0,19.493883611526268,56.9295702346199,1013.5074893254183,-2.4164425474632014,0.09001069999682873
324.3069067001343,0,19.369775066311455,56.9416979885076,1013.5119084386695,-2.40307679981893,0.051714682601745714
324.5600121021271,0,19.41048149911136,56.9412826065672,1013.5198566225883,-2.5215763548085612,-0.46823291994271193
324.8095235824585,0,19.44577090001555,56.972944224151725,1013.5426562867889,-2.495848646017043,0.10311271887488374
325.0593740940094,0,19.45743197342074,56.967429637820324,1013.5385514261011,-2.452538798090346,0.17334155414466748
325.3088843822479,0,19.47772028823228,56.93958184492804,1013.5308748468368,-2.389320224346544,0.25336770399043207
325.56783151626587,0,19.49074016069028,56.90581244134641,1013.2819652774976,-2.4443220218372947,-0.21240296544995682
325.81834149360657,0,19.489929209504314,56.88988081101075,1013.3767268194168,-2.4766257684680206,-0.12895095444588164
326.0673928260803,0,19.47667385067855,56.902005757272505,1013.4258091884808,-2.5753337303746076,-0.39634036431371805
326.3160152435303,0,19.48090226152916,56.95253886729219,1013.4637455359693,-2.655357532034472,-0.32187405734969865
326.5648527145386,0,19.49278216796762,56.98292140799121,1013.5053629035139,-2.700154854017198,-0.18010184084112513
326.8140113353729,0,19.494878205657773,56.98174117945862,1013.5308545509096,-2.8083767973824596,-0.43440112806847114
327.06816697120667,0,19.262796124355017,56.968722692803794,1013.5403470523137,-2.7132484055362145,0.37318354243683266
327.3191337585449,0,19.352814205389553,56.96094335989569,1013.5388945752845,-2.733741961975226,-0.08186001257702932
327.56788659095764,0,19.41422118094219,56.96371708331516,1013.5472608918571,-0.8229321628272148,7.682090098953677
327.8182728290558,0,19.448170812522978,56.95744486274279,1013.5474064146612,-1.4158681999880516,-2.3679615562449796
328.06901478767395,0,19.473596285048554,56.94333277040702,1013.543671942508,0.9635275200997802,9.523486378186316
328.3272559642792,0,19.48627433614365,56.940154270901964,1013.2457123060792,-0.18696408936924813,-4.441965598034496
328.576642036438,0,19.49986820962776,56.93426836961296,1013.3425180010287,-0.8898434798022345,-2.814002614242005
328.8256092071533,0,19.504953421597232,56.9608199316745,1013.3938785649897,-1.4447580222282341,-2.2311974225789886
329.0768518447876,0,19.50639754116606,56.9296388382285,1013.4520827242809,-1.5916887939061461,-0.5848045740468654
329.33575916290283,0,19.51278212412838,56.93336652262999,1013.4792117791466,-1.9056482126417396,-1.2126559130690473
329.58729887008667,0,19.516879381916375,56.94028556367444,1013.5066646890693,-2.067211271206618,-0.6422915701847924
329.8360803127289,0,19.273276659240977,56.91403541603375,1013.5144179791781,-2.185507568392048,-0.47575640105707956
330.09298300743103,0,19.36135928604035,56.9662667053056,1013.5184258413337,-2.298344883196091,-0.4379453846014435
330.3438422679901,0,19.40871928926578,57.030404409008604,1013.5380216092739,-2.472541404897319,-0.6960890524411043
330.6027476787567,0,19.444640015186188,57.05110369388197,1013.5467692554292,-0.5290949314914406,7.506547820154018
330.8519375324249,0,19.460344790081912,57.06249990510285,1013.5371847171385,-1.2019966069091113,-2.7002928510643747
331.1016366481781,0,19.483228119716223,57.03259494736529,1013.2933775255854,-1.5897765097013878,-1.5529634827969925
331.3532392978668,0,19.492455493133498,57.08697372154277,1013.3814387307242,-1.8624378419571401,-1.0837454148635879
331.6021957397461,0,19.492849287835647,57.107650137166935,1013.4442794929474,-2.225232458346111,-1.4571916379127257
331.86153531074524,0,19.49674055604511,57.13157019470141,1013.4746309803852,-2.258057905812384,-0.12657427842092758
332.1105136871338,0,19.499237747963598,57.174355822281534,1013.4997605896244,-2.237142494957236,0.08400862959496218
332.36619663238525,0,19.499021025254706,57.22307857564803,1013.5337674688409,-2.3350453164960525,-0.3829071252387553
332.6216049194336,0,19.497062668376664,57.19912989797212,1013.5419668876598,-2.51127550359699,-0.6899669548625968
332.8741662502289,0,19.503152986735873,57.25689511961189,1013.5356783280995,-0.15887802637993031,9.313908317456985
333.15015506744385,0,19.492437216499958,57.25355433075331,1013.5405813832004,3.0332907824732045,11.566957148415302
333.44232296943665,0,19.481921898623845,57.26294066857253,1013.5496290560113,1.0457122650410742,-6.8025143336779434
333.70140051841736,0,19.48427015657298,57.2754261419229,1013.5401660932475,-0.2804007225155376,-5.119348551906273
333.9613540172577,0,19.49123496349699,57.326098420333885,1013.5570169158253,-1.1906544981471678,-3.501306888514887
334.2218201160431,0,19.419155009013334,57.339965138915154,1013.5795201382344,-1.8072407418274912,-2.3672028245637997
334.4706461429596,0,19.440351426838934,57.34118072941536,1013.5609937749143,-2.0460543688527957,-0.9597274198412964
334.7222583293915,0,19.455773344252417,57.345801216754225,1013.5517151833941,-0.08421116154988728,7.797305634428795
334.97343349456787,0,19.469308796456577,57.36305931253652,1013.5340306642125,-0.8876385151858037,-3.1986128122868833
335.22263169288635,0,19.47071796357167,57.39633216235409,1013.5274766109312,-1.4487771127023938,-2.2518560167074484
335.48129653930664,0,19.47708011606138,57.476816568476224,1013.3126653931643,-1.9237796092797568,-1.8363509321413807
348.3648626804352,0,19.482982255983462,57.49972997540569,1013.3919249894884,-2.1187733585103987,-0.7860447566679177
348.6187961101532,0,19.373764836411734,57.66205054778653,1013.4363734846478,-2.1962011538441013,-0.0060078959787658905
348.8657400608063,0,19.34013089070579,57.75345761030153,1013.4728169059571,-2.1082026771814295,0.35580860422983435
349.11169481277466,0,19.338558604562046,57.82723788287878,1013.2532969273932,-2.055330726251247,0.21386142206599532
349.3574209213257,0,19.350354511052917,57.86699808615169,1013.3438556875963,-2.013364704292399,0.17053669284787304
349.6064929962158,0,19.359743721474466,57.888528759937024,1013.4062974171063,-2.0057762096992313,0.030467208803950797
349.86414551734924,0,19.35849206931053,57.855142986087955,1013.4366431882968,-1.9431670092488413,0.24314596598007857
350.1167106628418,0,19.366785214609173,57.866783175744835,1013.4570830171479,-1.9607273702661707,-0.06948836014909213
350.36225485801697,0,19.37210727782965,57.89884625605275,1013.4779945095934,-2.060684573313817,-0.4070266647491441
350.6090319156647,0,19.16763532025446,57.88482774126765,1013.4861224665556,-2.0519129235099602,0.03560031337798898
350.86156845092773,0,19.24066578715157,57.857631525955846,1013.47710787816,-1.9430050118696383,0.42997775661133947
351.117271900177,0,19.294809643359372,57.8867302074525,1013.4854823201422,0.6314370784886554,10.097583944623302
351.36760449409485,0,19.32227894635867,57.87291587656681,1013.4771259129886,1.9506688787711628,5.25417329399499
351.61502599716187,0,19.34718427051008,57.89240215430375,1013.4847782033892,0.5821615970275058,-5.531391060098706
351.862859249115,0,19.35225141344294,57.84429171073267,1013.4843262076305,-0.35529642718756393,-3.793945044305358
352.11764883995056,0,19.35368393734429,57.8255259916597,1013.1230693056996,-0.8795142532396459,-2.051397552463615
359.76291584968567,0,19.35368393734429,57.8255259916597,1013.1230693056996,-0.8795142532396459,-2.051397552463615
360.0109267234802,0,19.257901693823307,57.94272481795289,1013.2684727610721,-1.4812313107795612,-0.07625444177212513
360.26545691490173,0,19.252971686753007,58.030856750264356,1013.377255730181,-1.7523164864261578,-1.0625600535995054
360.5111520290375,0,19.27534773829618,58.084279805744416,1013.4444251444745,-2.067672368624453,-1.2782103276731742
360.7585427761078,0,19.267806107175907,58.13285091569342,1013.4649691372279,-2.1694708924290125,-0.41089679662597395
361.0032479763031,0,19.12624067975754,58.14192025470345,1013.5154850348433,-2.263099765550114,-0.382600791926993
361.2488315105438,0,19.16302139742348,58.158201301428484,1013.5349602882441,-2.3100938231665213,-0.19136209952275632
361.4996440410614,0,19.23042773021948,58.17052617544359,1013.5422385012521,-2.2556976770445876,0.2170148195891213
361.74589347839355,0,19.271865957339276,58.16625435709281,1013.5559201660664,-0.7061758650262802,6.288756325110101
362.0006217956543,0,19.307555009527405,58.193965752561496,1013.5491096855519,-1.2133307291576343,-1.9906750236023474
362.2456638813019,0,19.326819635180822,58.19113743302687,1013.5625824233765,-1.6911780453384029,-1.9520298707529742
362.4906816482544,0,19.335544009430215,58.1939233498646,1013.4770426433503,-2.1025954848513897,-1.6790971422807592
362.7451295852661,0,19.346600640725935,58.19375772397757,1013.516691366197,-2.2561993557050033,-0.6043976767678919
362.99858021736145,0,19.351876873446745,58.1915443784471,1013.5407412146062,-2.313406562440158,-0.22525127534718947
363.259596824646,0,19.357082132577002,58.17804916242194,1013.5345780382204,-2.2679721482634845,0.17407111445532145
363.5103590488434,0,19.36588039838294,58.17154210981053,1013.5383461278082,-2.4257256265316802,-0.6290928740800877
363.7606031894684,0,19.258451573493424,58.17330386260702,1013.5401564263034,-2.418030340102507,0.030750382899632906
364.01336765289307,0,19.298946430234448,58.16638987313818,1013.5395662365988,-2.5833349549176368,-0.6539923211146582
364.27386355400085,0,19.330391528182645,58.15819848562036,1013.5438715673578,-1.2195011213075722,5.235533749508995
364.52391290664673,0,19.348751905047273,58.148651286722654,1013.5387322498457,-1.0748168994716276,0.5786215576914139
364.776734828949,0,19.362353814641452,58.14869213121578,1013.5468047431538,-1.6022878436172303,-2.0864106224070946
365.0409023761749,0,19.363805630283544,58.130521151578954,1013.4722814824238,-1.8410839589138857,-0.9038436562713513
365.28531289100647,0,19.368375875422533,58.120737680460074,1013.4950424324709,-1.9862928952914085,-0.5950274116730899
365.5398278236389,0,19.365850965485745,58.13499281634571,1013.4925578496392,-2.0541808054535045,-0.2665983805603438
365.78460121154785,0,19.3660499003662,58.130807583185835,1013.4867792479604,-2.0953577522492703,-0.1683692519234451
366.0292971134186,0,19.373454672200275,58.11627320594185,1013.4887914314409,-2.139040820045717,-0.17836653422802917
366.28270411491394,0,19.3800259051945,58.11385384222808,1013.4821803254415,-2.0227280769621685,0.45899447962665246
366.5274076461792,0,19.280334254637598,58.10222523659786,1013.4877341845292,-1.855511835405201,0.6833328469880456
366.7733745574951,0,19.24917484565146,58.10085412886574,1013.4843620710072,-1.8529735116885304,0.010320037259460221
367.0180661678314,0,19.236455637675995,58.101928312379926,1013.4901016204195,-1.9192030427095923,-0.2706621471795565
367.26248240470886,0,19.290288535082034,58.09254162397383,1013.4745108469356,-1.861994354395619,0.23405273535191848
367.5090684890747,0,19.337570326545144,58.09471611578388,1013.4637184496034,-1.4955007682032215,1.4864140691801317
367.7534968852997,0,19.367913058317285,58.09423375873748,1013.4823248561852,-1.5510971092709553,-0.2274463012958478
368.00798177719116,0,19.38738527675288,58.12430546633605,1013.4766354987222,-1.632317091772149,-0.3193273561478077
368.25882482528687,0,19.3688837491159,58.11720721645503,1013.3471020474113,-1.8115275840785743,-0.7123150039069868
368.5041506290436,0,19.382550380064966,58.11272835615498,1013.0035317442954,-1.867304898680447,-0.22736215112306699
368.75874400138855,0,19.389501560306933,58.12203731114172,1013.1622583120214,-1.7846394011212006,0.325466695335589
369.0049476623535,0,19.397600981050477,58.09747677973617,1013.2710559793773,-1.806583686480761,-0.08916904718888594
369.25338435173035,0,19.41378435550623,58.094704147372276,1013.3414839460455,-1.8900204885779863,-0.3357052671408023
369.4985382556915,0,19.41136500434102,58.108535736927756,1013.3988392715962,-1.9444776447479497,-0.2221356466136982
369.74578309059143,0,19.417159483105937,58.111456809905754,1013.4312112317731,-1.9389432082124545,0.02239795801459079
369.994101524353,0,19.378894737066776,58.11114503042961,1013.449374851491,-1.7713822393084353,0.673724371949054
370.2505946159363,0,19.244902134009116,58.108761606329935,1013.4457639689815,-1.8769703080622704,-0.41204540277211726
370.49558544158936,0,19.30116684032838,58.10926258551392,1013.4702648085727,-1.99176471386878,-0.4685816455856035
370.7409222126007,0,19.344551396593705,58.10177015546156,1013.4794803411844,-1.4457293168707028,2.2255570842315997
370.98616456985474,0,19.366935277017483,58.10665351524827,1013.4843578769627,-1.5364130857781744,-0.3697810361538286
371.23197770118713,0,19.38129996284476,58.103925048090666,1013.497105061762,-1.732733375048589,-0.7986659345977236
371.4796121120453,0,19.39786547030291,58.09420730540368,1013.5058933982979,-1.7843015470660923,-0.20835168249092598
371.73123598098755,0,19.399329903539627,58.12413509917339,1013.4363425079285,-1.8772098823900774,-0.36815916778327573
371.97663950920105,0,19.41853243186676,58.12778886000767,1013.2234380489111,-2.017802406512105,-0.5743055854932653
372.2219412326813,0,19.432674785787338,58.11725939068525,1013.3127491613233,-2.2056614799177083,-0.7658382681183253
372.47689390182495,0,19.42530707170299,58.11119233414186,1013.3991350159366,-2.1925794954523465,0.051310991988655665
372.72467517852783,0,19.433383806181443,58.097262833570596,1013.4541438670755,-2.1320825186972696,0.2442555805861784
372.97007298469543,0,19.442205542836373,58.08219020080032,1013.4971691320168,-2.3200648662935,-0.7657216037582797
373.2154495716095,0,19.446047548838482,58.07393575250853,1013.5050073839299,-2.1430532841615832,0.7216258120591914
373.46274852752686,0,19.44851312710829,58.05879296427802,1013.5160074312676,-2.3074461282768324,-0.6645273358172378
373.70849084854126,0,19.45191467001985,58.0494555112088,1013.5227773662849,-2.365327955044345,-0.23554075644850853
373.96555733680725,0,19.445001200834906,58.04744872132687,1013.5249794930194,-2.4450289399546423,-0.3100596205838152
374.21081495285034,0,19.44784164119732,58.0402206768476,1013.5280370945383,-1.4103785771773165,4.218401301785085
374.4558730125427,0,19.4496644722992,58.031520514774726,1013.547270621923,-1.816435612236666,-1.6569668634943446
374.7118558883667,0,19.452653537081012,58.062491334230955,1013.5459898224656,-0.05410157336140187,6.884391909269429
374.95689606666565,0,19.449113916618746,58.04738726190094,1013.5325808437643,-0.973430664255404,-3.751752025987356
375.20285630226135,0,19.45230022214051,58.04378633306796,1013.4509668208663,-1.519354123402392,-2.219514651141467
375.4484579563141,0,19.452525732870285,58.060514130287906,1013.474032240458,-1.7173073658734874,-0.8060251966188153
375.69320940971375,0,19.445393345793732,58.054469400319476,1013.4947341534934,-1.8985123982020347,-0.7403663425892691
375.94095182418823,0,19.435288388034103,58.04863559548875,1013.5133114302113,-2.0618343713699723,-0.6592391617308787
376.1861581802368,0,19.4416085171035,58.03501419751115,1013.5049225910843,-2.2189852556563205,-0.6408655822199308
376.4406785964966,0,19.434678779591486,58.02817929607098,1013.5147371710925,-2.369862209628724,-0.5928147444512529
376.6856083869934,0,19.44485585894007,58.01574565626217,1013.5243939742018,-2.424709620021155,-0.2239531709696995
376.9308559894562,0,19.458664029457044,57.997536400363956,1013.5409262570582,-2.466462034495435,-0.17022378906131316
377.1853086948395,0,19.463886764925235,57.99427752375405,1013.5472800930849,-2.4673752091899335,-0.0035902631992304154
377.43111777305603,0,19.43987929289551,58.02023783170115,1013.5448497060248,-2.514661233734584,-0.1922857294159699
377.6803705692291,0,19.44637397226757,58.02720022148074,1013.5319186843244,-1.47383682758379,4.175862135939396
377.9260675907135,0,19.452361160313234,58.05776443910006,1013.5230123622924,-1.8648732561801364,-1.5915731268011732
378.171266078949,0,19.456203392921548,58.13010090211916,1013.5209444183488,-2.0631420963578306,-0.8085755992441853
378.4178283214569,0,19.464126946774453,58.176676231840204,1013.5451104872817,-2.16864380969603,-0.42789534385015593
378.6724157333374,0,19.46557327404206,58.18235017536817,1013.503554297642,-2.4262318777797396,-1.0117664517611988
378.9180808067322,0,19.46650144361808,58.16560675609912,1013.5256185361474,-2.5591032651949863,-0.5408797199060905
379.1631052494049,0,19.468916366137808,58.128460960093236,1013.5426383194219,-2.6155045473287397,-0.2301890378553271
379.4082157611847,0,19.477743231265478,58.114853431237165,1013.5484481559041,-2.5656728972542147,0.20332454169740471
379.65733909606934,0,19.481588528426148,58.09459228852619,1013.5599005324887,-2.6587091565663674,-0.3734078012860871
379.90485978126526,0,19.478598388611765,58.07036878594257,1013.5629249111422,-2.6698816120686533,-0.045208485492259434
380.1500566005707,0,19.480318042459924,58.045967780354076,1013.5618260222311,-2.6785464347948187,-0.0352833076088453
380.39500522613525,0,19.477783063859878,58.03739148656864,1013.5748142023665,-2.6299369719733856,0.1985287426882292
380.6402506828308,0,19.359442661719577,57.99111884091242,1013.563873748254,-2.4990272485397136,0.533566013327358
380.88713097572327,0,19.290775711303567,57.98218689007867,1013.5567837900604,-2.529913251037546,-0.1251016724164364
381.1411702632904,0,19.363422814460506,57.972317200607634,1013.5672529050969,-2.4292016928778217,0.3964375292560056
381.3861904144287,0,19.404585712849258,57.96793863555379,1013.5489763469465,-2.0014696806643753,1.7457591212565573
381.6312446594238,0,19.431001691307863,57.95880888136724,1013.555375759323,-2.2865120712412033,-1.1631807911856724
381.87917375564575,0,19.447953945528038,57.953176938456885,1013.5608780452917,-2.3509786830494113,-0.26001810538678666
382.1244101524353,0,19.467929309954297,57.97799565160796,1013.5611896836527,-2.477458381306285,-0.5159903320733494
382.3717920780182,0,19.47347124199104,58.03243297443729,1013.4785850909881,-2.5327473995792347,-0.22339260681596687
382.6212763786316,0,19.473389181485796,58.083920572857714,1013.5053389694973,-2.648277006208687,-0.4630625906210773
382.86619091033936,0,19.47515579649781,58.122978298120586,1013.5223284008006,-2.6170669749927393,0.12743494246068257
383.12123012542725,0,19.490913694251685,58.15444573797053,1013.521859545395,-2.6633999023740005,-0.18166268380107314
383.3661983013153,0,19.49185985007388,58.1643288455099,1013.5399766805057,-2.583289286297796,0.3270350886874822
383.61314606666565,0,19.490647761690756,58.17584333876558,1013.5643285806258,-2.6452810365046457,-0.25103086362096055
383.85960817337036,0,19.499036268927803,58.18415327887416,1013.5587888754362,-2.5969651361312147,0.19603405268344812
384.104576587677,0,19.407717975059217,58.15745224966734,1013.5613124838223,-2.5700908866716223,0.10975922428183088
384.35072922706604,0,19.438469627031743,58.15250351330679,1013.5675044014287,-2.477862222128774,0.37449760742763083
384.5967466831207,0,19.463732069252444,58.14526556383132,1013.5635057905556,-2.4481096708082037,0.12094026509298257
384.8910903930664,0,19.470777694541617,58.12594270021567,1013.5608714114724,-1.596898774805358,2.892039534832439
385.1380648612976,0,19.493561910621604,58.12400551310493,1013.4597884298591,-2.08782266333467,-1.9877131992227548
385.38367438316345,0,19.515460615706292,58.04994503888418,1013.4381750402496,-2.1608794283813095,-0.29745548622978385
385.6292848587036,0,19.52587539049205,58.024912311128624,1013.4840456643551,-2.344973068201188,-0.7495044101535658
385.88438177108765,0,19.538016823536505,57.994477687612886,1013.4932827301276,-2.465176357692341,-0.47138611890082555
386.12992215156555,0,19.53853138940788,57.967867723963494,1013.5220905211902,-2.4045421568881973,0.246845277052147
386.37587213516235,0,19.54250016160102,57.926645317987976,1013.5269533333379,-2.3727546179839045,0.1292475489321326
386.6220953464508,0,19.543227814394267,57.92359260902144,1013.5242182730564,-2.2586298912030913,0.46349525541145753
386.86991810798645,0,19.545514056786466,57.884618399040384,1013.547415491405,-2.385960707379641,-0.5138028500246931
387.1163535118103,0,19.51052572895252,57.85208179242679,1013.545389760098,-2.4367446265669783,-0.20607296168176806
387.3622703552246,0,19.515431357392043,57.79200694805788,1013.5425134686446,-2.4815198212680762,-0.18206853255658237
387.607873916626,0,19.531314444350638,57.76782310271976,1013.5373798014724,-2.542682173466206,-0.2490307014992547
387.8532302379608,0,19.528772358138696,57.758546933743744,1013.5348734184664,-1.1253875305670757,5.776598437133853
388.099383354187,0,19.53805665387506,57.707828150002854,1013.5389849396756,-1.592354745647138,-1.8970654490431056
388.35484552383423,0,19.538556950226152,57.69988054213241,1013.5381554711655,-1.9491959279295545,-1.397419343531341
388.60036158561707,0,19.542516565062662,57.69433294776816,1013.543343145537,-2.0501733980727095,-0.41110058086874873
388.8459677696228,0,19.539599787751424,57.68903958572851,1013.4891841359913,-2.0638013616074224,-0.05548689216667545
389.10087966918945,0,19.546824351590942,57.707614287137815,1013.5155643143922,-2.301418750552296,-0.9321723869821282
389.3469386100769,0,19.546002830588364,57.68710791689717,1013.5253774275998,-2.2964539044215084,0.02017689992078689
389.6044907569885,0,19.550933455863746,57.68042764969696,1013.5362911445136,-2.374243392296023,-0.3021488905774354
389.85023379325867,0,19.54863981715159,57.71088657460805,1013.5409306773855,-2.4110441106980516,-0.1496960566810411
390.09763622283936,0,19.55444499875013,57.69574880834612,1013.5496280539478,-2.3804887986505223,0.12350568488682845
390.35270619392395,0,19.52899203039564,57.653529985377766,1013.5487013485393,-2.3861853418925696,-0.022333340598887336
390.5988817214966,0,19.483479380917217,57.648708807856096,1013.5394589963005,-2.437452340064012,-0.2082721924854749
390.8465826511383,0,19.51444805874845,57.670141669769436,1013.548323185702,-2.3858141172466167,0.20845318653678646
391.0923590660095,0,19.53250269660928,57.65959227234652,1013.5478639592197,-2.1658083925984175,0.8951510066060121
391.3381507396698,0,19.544089123791967,57.64650476793628,1013.5413086997878,-2.259099560940627,-0.3795394606818491
391.585795879364,0,19.551524625733048,57.64246623088447,1013.5480465412338,-2.388883311026101,-0.5241077904950531
391.8317234516144,0,19.559934856260924,57.61752694225643,1013.5655644237798,-2.505538958080632,-0.47432569438271616
392.0873169898987,0,19.5598742278807,57.61928679476371,1013.358451186603,-2.4315686605470104,0.28940381684207306
392.33286714553833,0,19.565293150236904,57.64320886030946,1013.4244385088734,-2.4706978433351656,-0.15935435524581973
392.5784742832184,0,19.565132149200302,57.62816156476126,1013.4700730339594,-2.4835991446280277,-0.052526927066691945
392.83201813697815,0,19.572305934884138,57.620536675656794,1013.4918147063912,-2.4883449262202655,-0.0187184627407598
393.0776002407074,0,19.578798906446437,57.60751704468719,1013.518960661587,-2.5086343394967563,-0.08261691585715181
393.33221435546875,0,19.573799366016008,57.61519168155959,1013.5341998864477,-2.555582365413971,-0.18438772819408356
393.5777940750122,0,19.550578904867734,57.597695914380836,1013.5364355640302,-2.524976638792062,0.12462789371235894
393.8228805065155,0,19.48095910372708,57.57457452340393,1013.5337943181062,-2.510396870888056,0.05948728661034046
394.0777187347412,0,19.5164692433791,57.551388525621505,1013.5369636362566,-2.584994361622215,-0.29273282603218964
394.3251919746399,0,19.54107688342703,57.53868833883214,1013.5398529840805,-1.5513326613300573,4.178351944262378
394.57327795028687,0,19.54959154327999,57.52466729082195,1013.5372704496044,-1.8536992380915271,-1.2183736753196146
394.818870306015,0,19.56422211757096,57.51747692485022,1013.5278220145028,-2.118012606276586,-1.0761987399800852
395.06369948387146,0,19.568083375534297,57.50699160093373,1013.5362382647096,-2.237606968532689,-0.48847465528636375
395.30993390083313,0,19.574199862044683,57.463395293948444,1013.5014213460216,-2.2226647555727905,0.06068311252423522
395.5655481815338,0,19.580014319865644,57.4723588246306,1013.4890072360951,-2.2571568016589563,-0.13494315441112648
395.8109986782074,0,19.585564980879827,57.47397396247953,1013.5022083587427,-2.275702025290807,-0.07555343925896703
396.0564079284668,0,19.587307798849878,57.481474202478616,1013.5136499027307,-2.240547665642108,0.1432490129746516
396.31137108802795,0,19.58653699018827,57.48458549389466,1013.5220280720977,-2.3703839193459206,-0.5092372544087478
396.55716943740845,0,19.589750855186047,57.48828407244033,1013.5195037272691,-2.297750464118918,0.29550275455547287
396.80284786224365,0,19.582646972939017,57.48629926871152,1013.5144826026471,-2.1752496938669537,0.49862435360115487
397.04862904548645,0,19.568991726679318,57.470950271500435,1013.5031086426706,-2.193357136729558,-0.07367774045623447
397.2942979335785,0,19.501871776349365,57.46915379361482,1013.527918839153,-2.2505296416008163,-0.2327789510448771
397.5416588783264,0,19.539056148518082,57.48033899028381,1013.537332254387,-2.2345164453433983,0.06471463476032521
397.787978887558,0,19.559280384450226,57.48555891089196,1013.5271357893807,-1.9822719511397033,1.024064870003073
398.04290318489075,0,19.575897688212603,57.510962785607326,1013.5187680643866,-1.9075474239202128,0.2931290429641409
398.28819155693054,0,19.58292316367731,57.49701054013859,1013.5146142873579,-2.0286421896506472,-0.49367127439980796
398.5334053039551,0,19.596528092977955,57.494225921123046,1013.5228451596647,-2.178311854124779,-0.6103634921298237
398.7811858654022,0,19.607078230094288,57.48852250942612,1013.4415122604238,-2.2500109317671675,-0.2893582632713246
399.0269229412079,0,19.617487254169667,57.48297770747903,1013.469177735507,-2.2626432798648834,-0.05140610070665314
399.27468395233154,0,19.62780572001917,57.458953104438265,1013.4303043476576,-2.1350414677333807,0.5152889937345213
399.5203683376312,0,19.634427517372504,57.45036833294183,1013.4620507055995,-2.232912947118581,-0.3981609427294782
399.768000125885,0,19.638677005700345,57.44383209547994,1013.4807802662007,-2.201052807227008,0.1286579671264773
400.01592087745667,0,19.639584805948157,57.428444520194155,1013.4837936711272,-2.26159523697661,-0.2442084849796164
400.2614109516144,0,19.64380593332579,57.38767346929407,1013.4930902135318,-2.319189613724376,-0.23460615258650397
400.5072319507599,0,19.635599149548014,57.39235895777877,1013.5098211826761,-2.315109890694083,0.016596364489279994
400.7525317668915,0,19.586529922534478,57.39289131587203,1013.5303535613151,-2.4163241424271025,-0.4125924062881753
400.9981667995453,0,19.494864041401627,57.37697679087741,1013.5536872911133,-2.640241041028408,-0.91161381149433
401.25158762931824,0,19.549113201421147,57.35929518175889,1013.5554637128096,-2.6163564397375207,0.09424726182617184
401.4971532821655,0,19.582107912504803,57.35157174896953,1013.5720532289819,-2.5215461479962777,0.38632118230030776
401.77267384529114,0,19.605101295309513,57.35851520037434,1013.5525240910795,-2.424723923558623,0.35091971764765834
402.0181314945221,0,19.616218571235937,57.340546007407234,1013.4423663462437,-2.398567431299955,0.10666616118937872
402.2632694244385,0,19.625172275629645,57.3600070532727,1013.4734400497506,-2.4395118369032405,-0.16702290425371846
402.5103585720062,0,19.636376077809565,57.333448154893894,1013.493200466945,-2.4764547095830776,-0.14951780626859948
402.757621049881,0,19.6417467563313,57.31894892982839,1013.5152496131842,-2.44900096835143,0.11102808516945915
403.0032756328583,0,19.645193348619298,57.29087684803957,1013.5350478990061,-2.402517727394221,0.18921975332920477
403.2484941482544,0,19.636489512810588,57.28108951763654,1013.5374149548321,-2.437528331630044,-0.14277586253074037
403.4932162761688,0,19.64545810582475,57.26676485262932,1013.5332858377074,-2.532319681628751,-0.38732391527330307
403.7404453754425,0,19.643936525623488,57.215040594514896,1013.5288116402708,-2.4717153231458195,0.2451443354907584
403.99537420272827,0,19.61742021678405,57.20013717443371,1013.5492895746155,-2.5522106042281565,-0.3158761345687858
404.24062418937683,0,19.636929055066407,57.188106761981395,1013.5278897349365,-2.5481870249720333,0.016399480079251114
404.4860119819641,0,19.649448704362044,57.19316142125519,1013.5312427176002,-2.490515039469587,0.23501609350444513
404.7341775894165,0,19.653774568908357,57.206711622794295,1013.5144839641605,-2.193719153279668,1.1959497858850816
404.98006987571716,0,19.65655065973634,57.20125363399326,1013.5293292882269,-2.2053084082079124,-0.0471333488178143
405.2280111312866,0,19.656512918291497,57.19354161079694,1013.5313836242261,-2.2698835450152144,-0.26043704420631086
405.4734454154968,0,19.663835777066872,57.16449293342746,1013.4788637817659,-2.3017919559880955,-0.13001263446296699
405.7190480232239,0,19.66482664063389,57.20261252793978,1013.479834987214,-2.332339506026285,-0.12437433269270129
405.96598863601685,0,19.672809598889607,57.20261529463346,1013.4305214695131,-2.3752073585154947,-0.17359797589036344
406.21159958839417,0,19.677932601923246,57.18018926418298,1013.4643256598393,-2.3152080464546203,0.24428597943262956
406.4646964073181,0,19.673873171279613,57.19221744823481,1013.4920942161813,-2.274655848707071,0.1602981933600647
406.7103006839752,0,19.676795864733734,57.16756378811431,1013.5009734478542,-2.330111454296266,-0.22568493867361045
406.955956697464,0,19.680490757854695,57.16807372744664,1013.5192615710423,-2.120188202812434,0.8545580600810239
407.20342326164246,0,19.679223374106403,57.174353337336555,1013.4988896968299,-2.2152582975196853,-0.3841723840202806
407.4493486881256,0,19.652870193916524,57.17025392368048,1013.5238892173526,-2.341106214278457,-0.5117508790098809
407.69762086868286,0,19.663317362992913,57.19208347423785,1013.5336051678497,-2.3013483326265103,0.16013428854164735
407.9430947303772,0,19.668202477947794,57.18983378921806,1013.5488458695966,-2.3168684145025438,-0.06322425077308826
408.1888117790222,0,19.684072400532894,57.18258222527696,1013.5432936597942,-1.263019564634939,4.2889214500243495
408.43760442733765,0,19.683341142904005,57.189978333484405,1013.555063385965,-1.6910257197762995,-1.7203196187270287
408.6829102039337,0,19.68287186385592,57.182602691447315,1013.5564705157877,-2.0639205530114197,-1.5201889994939923
408.9299373626709,0,19.684389984299106,57.21619386747952,1013.560841272061,-2.3002062648323434,-0.9564636001344836
409.1754415035248,0,19.685364226602115,57.20552356515857,1013.5228947765361,-2.389050448214782,-0.3620013792069409
409.42100262641907,0,19.687808715945646,57.2068056026124,1013.5059050861366,-2.2850488103344957,0.4233986325589101
409.7232708930969,0,19.6765725392561,57.19898928260935,1013.4814285722669,-2.383847427455269,-0.3268475946817761
409.97076964378357,0,19.678528163699788,57.189908713634566,1013.4983922298086,-2.339493443909385,0.17920960946442058
410.2158944606781,0,19.619607094757225,57.19250283198624,1013.5142018584294,-2.402629599279459,-0.2575673739197102
410.46117877960205,0,19.643790297612412,57.18023016424644,1013.5249557300076,-2.4172997399599976,-0.05980778794294532
410.7065989971161,0,19.66658679187046,57.18469369166312,1013.5498038542586,-2.429729945536339,-0.050649448992298285
410.9535105228424,0,19.648399316359352,57.183348491961006,1013.5489548224404,-2.4114252687909343,0.07414028488652119
411.2113630771637,0,19.662267487882982,57.14394015336923,1013.5523690999338,-2.4026958546486297,0.03385193854468018
411.45661640167236,0,19.66752872854302,57.14717741560942,1013.5557765308396,-2.4360823681491275,-0.13614158005531093
411.7045931816101,0,19.67818219679204,57.17545958438112,1013.5662318589259,-2.474202314396704,-0.15379660505887305
411.95180439949036,0,19.68683825611956,57.171614286264926,1013.5271432703676,-2.5113705702493716,-0.15026513080512324
412.1987180709839,0,19.688754663230807,57.17669784277787,1013.4152691475404,-2.602540277909501,-0.3692343273261354
412.44628071784973,0,19.69726160986859,57.17618477547766,1013.4708345350358,-2.4848452664745495,0.4754379571682476
412.6916038990021,0,19.69726304831981,57.17796029621199,1013.5073469270326,-2.2878798426888336,0.8028346046200495
