time,cds,temprature,relative_humidity,pressure,altitude,altvel
110.34515857696533,0.0,0,0,0,0,0
110.84483766555786,950.0,25.6123046875,49.21359907000465,1017.0900630900699,-32.02492661056735,0.008497599594936948
111.0900490283966,950.1666666666666,25.622493489583334,49.20983773515904,1017.0880253291157,-32.0541586825574,-0.1188089246826594
111.34542441368103,949.5853658536585,25.640248666158538,49.20177728824504,1017.1041312255583,-32.0547886469334,-0.002457129667341249
111.58997559547424,949.3986710963454,25.66223331083887,49.18382992271761,1017.1086911429562,-32.11319780316962,-0.2385571203587584
111.83457207679749,950.2874015748031,25.683477040955818,49.16880000474817,1017.1113918844057,-32.08604010838553,0.11099349368692514
112.09293031692505,950.8891095851541,25.692507464016657,49.154607609499905,1017.1068114013666,-31.990702107848872,0.369238613785455
112.34615135192871,950.9285196918372,25.694753807165498,49.12259073699522,1017.1161628330003,-32.316573876845894,-1.284108666094781
112.6011061668396,952.3823527751593,25.699904961168208,49.1101570443273,1017.1636579772895,-32.38499677724709,-0.26913271856047083
112.84576630592346,952.9611002270409,25.705039996797705,49.09389894231882,1017.1488786962703,-32.31348403383618,0.29218715581662785
113.08926296234131,952.6169714007196,25.71379527897392,49.08355155529481,1017.1426239650675,-32.304988305290735,0.034889202419851474
113.34296560287476,952.0378126252348,25.717598662052534,49.07704344292102,1017.1301893484533,-32.18234645497323,0.48340059067862545
113.58747124671936,951.3078201034039,25.718220995072414,49.072763420687444,1017.1291799002996,-32.13384124258068,0.19837823278076375
113.8331229686737,951.5557890997616,25.724078032893924,49.041173857907886,1017.127480126041,-32.22319999778579,-0.36377221240600677
114.0775146484375,949.9236694385869,25.72783691098521,49.01064224094844,1017.1138898676205,-32.17498664637535,0.19727497982995382
114.32240605354309,950.3092704535795,25.728429922395534,48.98065518507017,1017.1056064634759,-32.11054589974256,0.2632908140528423
114.57542300224304,949.481959091954,25.732449029378913,48.98395883666302,1017.0984915908036,-32.05899849218752,0.203121430736828
114.83029055595398,949.6675509599246,25.73502826893456,48.96136528055472,1017.0937494868923,-32.0190041738255,0.15697262939314088
115.07499575614929,949.4283958862337,25.73122565089576,48.94273574330687,1017.1067608931928,-32.07306283148036,-0.22139896519283866
115.3194010257721,950.3496923500688,25.73424317737761,48.93910811120003,1017.111426668697,-32.0345864428358,0.1574237235401609
115.56425619125366,951.2991850525888,25.73436037600225,48.916328295390635,1017.1138068620807,-32.11146540014251,-0.31396565662059955
115.82131052017212,951.1919997462852,25.74171269398429,48.90374150202468,1017.1139732896477,-32.0457598621542,0.25570701339408053
116.06734585762024,951.4814719494775,25.74461171187499,48.887469243112946,1017.0999578949449,-32.02543940411931,0.08256282134826504
116.31199860572815,951.3089809800235,25.748291411400768,48.87502773769815,1017.1160090090538,-32.09831802255414,-0.2978830558409844
116.55828666687012,950.8400286366636,25.750652830732815,48.86084717776379,1017.1079753167088,-32.13889372710569,-0.16475168191694445
116.80313873291016,950.5390820192658,25.757626083873532,48.83089463027835,1017.1089167044861,-32.11068996372819,0.11518527043287467
125.90561318397522,952.1372396521505,25.75664328613916,48.807673724685586,1017.1194776002551,-32.002309646578254,0.44207803102583826
126.15485525131226,954.2376179245747,25.666658107316962,48.82224951665132,1017.0940799787479,-31.893658120321184,0.011933453619580314
126.3997540473938,956.6602924907596,25.649004859960808,48.79933505269942,1017.0927768308485,-31.923238281375674,-0.12041363403842503
126.64729309082031,957.4985104163283,25.666854421797606,48.780961568987976,1017.0933708737833,-32.069482365724014,-0.588703681660769
126.89260172843933,959.1112031336664,25.68747559877646,48.76710525972361,1017.0906394743137,-32.12584228602173,-0.22942061154504093
127.1405086517334,959.4296213387729,25.69154272722892,48.7747681155445,1017.0984917850021,-32.17512464555019,-0.1989978133892856
127.39313197135925,958.9174486726461,25.70331913190919,48.800371386855566,1017.0963388239652,-32.2293116659513,-0.2142861661650305
127.63782334327698,959.6635384495331,25.714515103911513,48.847881219017346,1017.1141678954456,-32.35364647298134,-0.5080518774760379
127.89167380332947,959.7840783468321,25.728977141076527,48.89066065740317,1017.1188552501578,-32.39266644937128,-0.1538683821345335
128.13867211341858,959.8614339134974,25.73461949051666,48.93277350459541,1017.1198021650783,-32.244425897007844,0.6001381626351399
128.38277769088745,959.9110762628624,25.740059702280224,48.97635539442576,1017.122822605921,-32.22210394168713,0.09143421135129941
128.62710213661194,959.2264187258086,25.745370193719925,49.012482396391064,1017.1024798557368,-32.122955729536905,0.4058471178067203
128.87367939949036,958.7870449339165,25.74695888468352,49.043961667891196,1017.1027146741868,-32.15762162322013,-0.14059108155011393
129.11832857131958,958.8633376983033,25.74979769180391,49.066262737116624,1017.1134797784156,-32.2923508769248,-0.5507060493666113
129.36590814590454,957.8375252938641,25.751619474785084,49.08883518392552,1017.1361776627798,-32.13235923911819,0.646508857638578
129.61687183380127,957.5374755176933,25.761884973823747,49.14679425997461,1017.1178482815001,-32.225362910098255,-0.36950638083230636
129.8623912334442,957.3449208450611,25.763014949966877,49.157106416515596,1017.1238057095541,-32.19931356241256,0.10609986579141602
130.11707186698914,957.9378654804323,25.769197933763664,49.1532946319737,1017.1196461543508,-32.22846701953128,-0.11447193380883616
130.36735153198242,957.9601256423944,25.765888709932803,49.150951748234554,1017.1216699487702,-32.192932617357926,0.14197770071865093
157.2237889766693,957.9601256423944,25.765888709932803,49.150951748234554,1017.1216699487702,-32.192932617357926,0.14197770071865093
157.47558760643005,954.3918352378795,25.64341288833608,49.031790741767985,1017.115929512144,-32.095213415956344,0.003605142128909117
157.72615718841553,951.743654311445,25.624991033032785,48.96228098296299,1017.1218331411051,-32.08566215167894,0.037957203854547886
157.98116874694824,950.0442042472995,25.635070239658727,48.91387836121569,1017.1136982313648,-32.18767286749143,-0.398735154158453
158.22920513153076,948.9535950326139,25.6469963243767,48.94289799766913,1017.0953249144349,-31.8964157869976,1.1729751138231141
158.48322367668152,948.9702199634421,25.654649798970016,48.84381871660898,1017.0891011341987,-31.85219639586586,0.17369170806897397
158.72804355621338,948.6226313174633,25.654103528197048,48.8009512998383,1017.0852422493571,-31.81872286172777,0.1370797515050888
158.97429490089417,948.7578265044726,25.66466862338406,48.75901853762815,1017.101580226334,-31.836195358999543,-0.07095343531260967
159.21778869628906,948.4863294228809,25.669629416527787,48.732075877845936,1017.1141254108322,-32.01557474532309,-0.7366464850578804
159.471604347229,947.9538406563698,25.676451521417263,48.71481825691675,1017.1256415067618,-32.030238939239574,-0.057780732268398693
159.71537733078003,948.3286351601239,25.67719100215,48.70374330931693,1017.1119801789029,-32.08369923419383,-0.21929288471857006
159.95915293693542,947.494383987416,25.679484835032834,48.70902666687475,1017.1103201970648,-32.0823345222276,0.005598246649586536
160.21335244178772,948.0337823206779,25.684595438362425,48.72497346357505,1017.1183134806078,-32.18519317981442,-0.40463600334557964
160.4577603340149,947.3051644095888,25.689694406084595,48.73104397100725,1017.1228291103938,-32.334767589792264,-0.6123655508246709
160.71175694465637,947.5540945194085,25.69849443236551,48.78880020955518,1017.1271313582408,-32.253854453110485,0.3175845025336014
160.95966506004333,947.71384353311,25.702322505899435,48.776167530744736,1017.134366654507,-32.233968974994845,0.08021572158629703
161.21054220199585,948.174618822929,25.710236973273528,48.766159684507755,1017.1269484477577,-32.048286176155244,0.7422491400144409
161.45841336250305,948.1120603078383,25.717135299522422,48.76367042104888,1017.1113546462504,-32.02777414501309,0.08271754777726964
161.70369005203247,948.4301714238109,25.721562248175797,48.764401496417506,1017.1011713578232,-32.12420144681935,-0.3931505942529054
161.95060420036316,948.27605925505,25.722583932244238,48.766936003148714,1017.0925753581649,-32.260710995476884,-0.5530754843566732
174.030517578125,948.8936740762902,25.732335973862,48.7478107909026,1017.1068404889331,-32.302804144962906,-0.1747266204379629
174.28538727760315,948.2152510043016,25.630977057540406,48.71964074395256,1017.1019370026021,-32.22686247189493,0.006280208692404337
174.53032159805298,947.0633629941823,25.60973332587225,48.73102504772669,1017.1112298843486,-32.28372404674856,-0.23157166437666413
174.78293824195862,944.8911173049171,25.616182337981126,48.73453186975937,1017.11014057138,-32.31987337433362,-0.14253186944118423
175.02831435203552,944.571867785122,25.627598049566608,48.724687516203694,1017.088171997277,-32.28485803300559,0.1424909417544709
175.27286076545715,944.0087342528558,25.651297486546266,48.70814334676763,1017.1039235228409,-32.31390912079972,-0.11879209789211546
175.5173397064209,943.6473475711607,25.66286786739499,48.695394650544266,1017.096814908217,-32.130311711608634,0.7509889786900641
175.7621238231659,944.8484606816802,25.6739316251629,48.680952742821866,1017.0993600408073,-32.119158664369884,0.04563399429095787
176.0136694908142,945.6192659285356,25.682850984683487,48.587170333958014,1017.1190852328035,-32.11528250584187,0.015395588098414415
176.2682991027832,944.6808940831158,25.686755639420678,48.621924079805865,1017.1228615449771,-32.30825415949161,-0.7574247155754029
176.513441324234,945.5117313323016,25.689261422042,48.61741289344301,1017.1396930561959,-32.28996998780988,0.0745731379136447
176.75808763504028,944.9701421394609,25.69457801469346,48.606289040593126,1017.149661943929,-32.250379668580806,0.16199773501450315
177.01065516471863,945.6973540829991,25.696100648881966,48.59292236145108,1017.1434932434477,-32.161098817954304,0.3536305213891122
177.2572202682495,945.0892641346504,25.691619957686587,48.584278866983766,1017.1201058230048,-32.24264911810204,-0.33061123799966446
177.51144170761108,944.6990270132319,25.69056378474862,48.58079719897158,1017.1065438184543,-32.215262747091145,0.10775979169462155
177.75568199157715,943.7320801554686,25.68806671704028,48.574368141932844,1017.1195064207903,-32.11943349058682,0.3922190231368493
177.99976205825806,943.4698068982945,25.690102796180184,48.56827346990428,1017.1130894463877,-32.10764222644059,0.04830739648518213
178.2536337375641,943.6597525902748,25.69322871127622,48.556069179027595,1017.1387292307804,-32.214908000403106,-0.42274118450156445
178.50407576560974,943.7816488003101,25.70076254596933,48.570890185083215,1017.1437361224839,-32.11627038341518,0.39268064216291454
178.75012111663818,943.8598747704075,25.701958773916115,48.557652389492915,1017.150960665169,-32.2561164217478,-0.5686020509982925
178.99374985694885,944.2683332640819,25.69174081164401,48.55564256776344,1017.1392798319151,-32.24247513255251,0.05611045018914222
186.94265246391296,944.5304584105727,25.685183511700707,48.56438868862093,1017.1602301043383,-32.24063063669451,0.007623968562683005
187.20320630073547,944.3404176696824,25.582524554667803,48.7644797895874,1017.139598186304,-32.359906333781765,-0.014973691008768938
187.44829106330872,944.5767180322242,25.564015112972463,48.91852436891323,1017.1390913858381,-32.34438017480032,0.0631489113263192
187.69309782981873,944.7283620012108,25.566761004813916,49.02595202765883,1017.1587980975135,-32.311900109560156,0.1321930347320887
187.94672894477844,945.1839359399353,25.581258097158816,49.074352461647024,1017.1611561983593,-32.32162779766638,-0.03829853167228509
188.19075870513916,944.7597819276556,25.585103666275195,49.113601698905825,1017.1387675103613,-32.3623081749304,-0.16676215667204272
188.43914484977722,944.1293267314114,25.585752254426517,49.12437285789181,1017.1438562496173,-32.336882558394315,0.1023954037905275
188.69202399253845,944.7995095899363,25.595264864563617,49.12925518199228,1017.1587863275317,-32.378091907925445,-0.1628602302972142
188.9363625049591,944.5130792274573,25.603188786833535,49.13662244727847,1017.1569211796012,-32.464782597998614,-0.35474764056127656
189.1823582649231,943.9710071409742,25.613801706311985,49.14754410810047,1017.1565160242012,-32.45417668443398,0.04315930553009928
189.4358537197113,944.339651621677,25.61879319033274,49.15861281449832,1017.1564337461471,-32.377509910380134,0.30241598648111284
189.67976236343384,943.5014537182286,25.62017716069995,49.16984513077942,1017.1668177789707,-32.48774392956568,-0.4519612350828192
189.9234321117401,944.3965768364083,25.630161696807622,49.19370909933744,1017.1477372247303,-32.44967003358289,0.15625081990131795
190.16666650772095,943.8962426133828,25.631111367116535,49.21308289722931,1017.1391353299252,-32.43723840507757,0.05111091751639488
190.41985869407654,944.2916720520251,25.62990153412866,49.22558578328815,1017.1419919764166,-32.417594816229865,0.0775787412239473
190.66648769378662,944.1871783315768,25.632763686406705,49.23987317467104,1017.1534300366792,-32.51165807147751,-0.38142083505811547
190.91325616836548,944.4783778469395,25.63823900440628,49.25103654825405,1017.1564727372369,-32.298671298616775,0.8630928165297644
191.15812993049622,944.66525293169,25.638114194846924,49.25617100067959,1017.143513417591,-32.522292971772664,-0.9132040594580785
191.40169858932495,943.7104058942917,25.639853375977047,49.25740139824186,1017.1613778610547,-32.45836592249792,0.26246752894682207
191.64677739143372,943.4558976052474,25.6336923754222,49.260290604739424,1017.1549971920431,-32.38200868036876,0.3115674573835105
191.90187668800354,943.6508264067481,25.635196430112078,49.27036808001901,1017.1562505652666,-32.535012272390546,-0.5997620348761084
192.14581298828125,943.0594053506074,25.637980922544468,49.278934930990246,1017.1923070714481,-32.517483675881756,0.07185684827058589
192.38883876800537,943.754638073075,25.63612929604556,49.28240313799069,1017.1834817722853,-32.79666682989996,-1.148795773249725
192.64330577850342,944.2007984101574,25.638579582195955,49.32385615963077,1017.1643116119492,-32.56967256248201,0.8920447818130345
192.88676857948303,944.4871184292714,25.64015203478554,49.33376488794297,1017.1710815242586,-32.51967957832975,0.20532708993659302
193.13292908668518,944.6708621342397,25.641161144332234,49.34642345898383,1017.2187576428572,-32.86579131782266,-1.406085835000497
193.3768036365509,944.7887782660559,25.64362800946547,49.35458243146961,1017.2111111900432,-32.87752500710555,-0.048114803598501614
193.62059330940247,944.1479349120922,25.643391824771705,49.37213452435716,1017.2115115245323,-32.87634047859439,0.004863684011462101
193.87214636802673,944.0949361100425,25.637782424871993,49.38357628115087,1017.1974297392287,-32.86867473476175,0.030412011040412364
194.1161687374115,944.0609245300013,25.639640465106968,49.39487007938325,1017.1896207425796,-32.70137115560346,0.6863384805743236
194.37127709388733,944.0390978559604,25.644471401803525,49.40233145897963,1017.1913627335703,-32.62933871673175,0.2824367180038776
210.5387623310089,944.7416058921027,25.642113788700502,49.411070697941014,1017.1848951544689,-32.49443854532782,0.5557177162053386
210.80064463615417,946.2672078151523,25.543899253446387,49.392296914058676,1017.1686758929718,-32.414929893243524,0.0049126649462562875
211.0538215637207,947.9627664402236,25.531950511407288,49.47611662320228,1017.1571440314092,-32.4022006593887,0.050035121375295616
211.30159187316895,949.4091359228352,25.542545236032137,49.46407741462051,1017.1462719025554,-32.441046240751575,-0.1562702517054616
211.5460741519928,949.6208174510225,25.563898534124167,49.460694574637536,1017.1492163487212,-32.45693735987827,-0.06488093499227333
211.79030466079712,950.1149200389099,25.581240404981223,49.48738695288939,1017.1476404221037,-32.47913401084913,-0.09092138915509186
212.03509497642517,950.7902642040749,25.592369419334524,49.53146019189409,1017.1286879538668,-32.36271027924178,0.47540361031232364
212.29154706001282,950.8654036405593,25.59951138005473,49.57415672307617,1017.1390114867304,-32.36829108436226,-0.021776976773226785
212.54342246055603,950.5553662356599,25.600456125845692,49.6181437603082,1017.1433292285386,-32.38986625264724,-0.08560291909110523
212.78811478614807,951.0729172168836,25.604700962745984,49.640179514046594,1017.1461697812495,-32.25594621726099,0.5471967946645038
213.0320761203766,949.9720213635018,25.6111335803172,49.66055158582596,1017.1496163956916,-32.25901280814707,-0.012583096180368824
213.2782952785492,949.9820449218114,25.61526166395186,49.64896384031649,1017.135470535479,-32.208215712274736,0.20630406724413833
213.52331161499023,950.3467350339789,25.61420230475516,49.635261639573756,1017.1423543574474,-32.264049983083865,-0.2278855534943539
213.76728415489197,951.2972872919335,25.617230994631225,49.59343921882733,1017.1433065294331,-32.2363497082662,0.11354126815879101
214.01149535179138,950.8325242997879,25.619174633433534,49.537663037067546,1017.126114156443,-32.15052259886453,0.3515632896678685
214.25562453269958,949.8177510286087,25.618532700020914,49.47709634530622,1017.109090870662,-32.01901017977735,0.5384592745356206
214.50221395492554,949.1665279631512,25.614482190672287,49.42783396694003,1017.1208404377148,-32.04195260250759,-0.09304921344356945
243.14517617225647,948.748610490324,25.613702083678216,49.387962633803035,1017.1228554772109,-31.946386025471863,0.37117264336047184
243.40229105949402,930.2092790712869,26.592602080964646,51.08353151744078,1017.1952383663678,-32.604440779136844,-0.022976173560042112
243.65498447418213,917.9535458970115,27.271883436969745,52.17280228636775,1017.2431582955656,-32.98854222002871,-1.5176982498730818
243.90148043632507,910.446779471634,27.727889121471375,52.87453743740414,1017.2824658974037,-33.32140870385199,-1.3443831296897386
244.1536741256714,905.2711113710877,28.036900808248134,53.33950183391446,1017.2870963169389,-33.534130937702336,-0.8414383854503442
244.39859199523926,902.6661806837501,28.240664549334806,53.64214452215821,1017.2846504601692,-33.69334493728365,-0.6506980768217842
244.64340710639954,900.2779709941714,28.37877546685036,53.8324764384139,1017.3143224920221,-33.86828758270053,-0.714645860669704
244.89748978614807,902.6861887678783,28.47286493289627,53.96712533008221,1017.3060908216521,-33.776705233212375,0.3604221343860755
552.44873046875,906.0229321426389,28.542342519121913,54.05779109535172,1017.3053918361385,-33.70277406206672,0.3061662859069958
552.6939990520477,921.4197920172638,28.079910806717834,51.04375499231479,1017.2675349110314,-33.47198633029866,0.0007503991150382906
552.9446461200714,931.3006102953416,27.826951341302678,49.13061087982017,1017.2730300904436,-33.45178723855426,0.08035153450215143
553.1862812042236,937.9998082019832,27.67917073290882,47.913451302941745,1017.2708643091104,-33.50288901071715,-0.21071833360194223
553.430939912796,942.2989677490216,27.586152922816815,47.10109037459353,1017.2675750985,-33.3278896586284,0.714919983035993
553.6900851726532,944.6996632763686,27.533806526350094,46.61722747960816,1017.2586637557517,-33.29053409042028,0.1440767730510833
553.931679725647,946.2402914589894,27.498324373751757,46.31922107843108,1017.2538211640692,-33.313800006949165,-0.09624934829984998
554.1734855175018,946.8707203639125,27.479262496525504,46.17570200517643,1017.2422171165932,-33.31340216108478,0.0016469890664096221
554.4141371250153,947.6335509111136,27.46332115548262,46.08567465256014,1017.234468104014,-33.240360670165906,0.30350015655274487
554.6555335521698,949.1978643490243,27.44945236709607,46.04026816046705,1017.2401124125951,-33.329947366075416,-0.3711398266748208
554.8983232975006,948.4104628092618,27.433275070248357,46.00482384046213,1017.2509709142677,-33.1039148999102,0.9310003976842318
555.1386880874634,949.3381841093341,27.41925485901012,45.9903968415106,1017.2518633806138,-33.14597741442464,-0.17498702931541696
555.381908416748,949.5752846617776,27.406618941133722,46.005911745067934,1017.2579046504557,-33.15386296706329,-0.032422136433716886
555.6231327056885,948.6526694380899,27.396690659763973,45.98053994173356,1017.2487020085276,-33.15189078584176,0.008175505672298761
555.8639802932739,948.0605881020202,27.384861430186735,45.96014891720193,1017.244179492052,-33.16595212879842,-0.05838592245626507
556.1070544719696,949.1136546643369,27.382727941807126,45.93254087442005,1017.2289652411935,-33.14624572649161,0.08106925173417624
556.3479535579681,949.4311945900253,27.381358791788944,45.912748999661645,1017.2436733135017,-33.019031083930386,0.5280848022101127
556.5936133861542,949.9932310032143,27.375022319968267,45.91863784559022,1017.2663929986047,-32.971892880523384,0.19188330774668794
556.834226846695,950.3539136170463,27.35997030463913,45.92028207407772,1017.2868231398953,-32.942300826038206,0.12298732701086303
557.0755043029785,950.5853789542874,27.346672234297632,45.92752010042226,1017.256229313153,-33.245151237240606,-1.255169593945397
557.3181552886963,951.0921776518817,27.34177685175585,45.946726327478096,1017.2573721724756,-33.41396125023117,-0.6957015500349467
557.5584118366241,951.0591543103567,27.338635277065237,45.95071360476043,1017.2761096114798,-33.65894601763567,-1.0196515458535085
557.8083798885345,950.321446691912,27.329342088407294,45.95319124019279,1017.292521150879,-33.67696939516128,-0.07210238042473262
558.0487186908722,950.9228011203364,27.32337825493081,45.96720635435561,1017.2995909922718,-33.739617894863706,-0.260673126345082
558.2891366481781,951.3087157728281,27.319551009940486,45.974167055072066,1017.3016658473931,-33.61827576995515,0.5047718018430264
558.5315856933594,950.123343301903,27.315275627718165,45.98896429558823,1017.2696836341958,-33.56659274136608,0.21332004210149158
558.7841773033142,949.3626394913586,27.299727024317274,46.00667377778378,1017.2809351273559,-33.5149101707904,0.20395640394138662
559.0262775421143,949.9492362875725,27.278833165459268,46.028472241449336,1017.2797694256511,-33.3441993743352,0.7051216671445323
559.2717695236206,949.6091652023098,27.272701796573493,46.04248199077444,1017.2736032517248,-33.453277747101744,-0.4443217195375036
612.7777104377747,949.6091652023098,27.272701796573493,46.04248199077444,1017.2736032517248,-33.453277747101744,-0.4443217195375036
613.0251019001007,940.792745489615,26.951443193708965,46.74536592673033,1017.2543326700641,-33.263113738401685,0.0035378689313705935
613.2667007446289,935.4931324443387,26.821897455874836,47.21792382213932,1017.2728728411997,-33.447188682025605,-0.7597110908707482
613.5078876018524,932.4504034574259,26.753316672976432,47.505095162726164,1017.2717145053857,-33.521565316073875,-0.30724537685954967
613.7485868930817,930.4977551619982,26.72574893733571,47.68973473433477,1017.2605169746693,-33.54174299707537,-0.08370537923023692
613.9955041408539,929.2446578989701,26.7171539352626,47.80828510513321,1017.2485086605498,-33.474373204268204,0.2730181253529099
614.2546329498291,927.7239770767449,26.72626234368432,47.85546485803338,1017.2608497870101,-33.49184504221292,-0.06738840948530028
614.4959707260132,927.1063492393641,26.735746149283084,47.88577086514472,1017.269934186008,-33.42084815710822,0.2941317558288574
614.7366244792938,927.0682488193519,26.749109416618847,47.94490963795975,1017.2580891986763,-33.311600734051495,0.45443509465875104
614.9776420593262,927.4020557327055,26.76496229915876,48.02013379135604,1017.2500763052383,-33.340164749147995,-0.11851025315703571
615.2274341583252,927.6162737926003,26.782482845592348,47.99389132707974,1017.2663946328004,-33.341295237891536,-0.004525757457075819
615.4694204330444,928.1120041805107,26.799184353804687,47.92541997246189,1017.2665708278485,-33.432015343571294,-0.3748977324644319
615.7094280719757,928.0718778350275,26.815360250438246,47.86910886418295,1017.2772332835873,-33.61295873119385,-0.753941237428297
615.9497916698456,927.6878694870544,26.833018116539833,47.84755348437816,1017.2830055286878,-33.70900634739076,-0.39958113050857114
616.2001612186432,926.724919897501,26.853516274231403,47.87324361498095,1017.2922193755359,-33.615606570294354,0.3731937322745449
616.4409403800964,925.7486967179522,26.86849008848935,47.92911111102747,1017.2820694983559,-33.59083442682457,0.10287734496537161
616.6861941814423,926.1969855904805,26.889015080765734,48.010646121493735,1017.2840990783342,-33.510631745633376,0.3269031213069318
616.9273245334625,926.4846715811049,26.905825392635457,47.996806416667724,1017.2597225071246,-33.394104968855665,0.48325412652724536
617.1674342155457,926.3110343184546,26.923890389912646,47.946639085908316,1017.3092201728854,-33.412540049426845,-0.07678224586262548
617.4097657203674,926.557861488991,26.94101126751419,47.9413449299936,1017.2678145522422,-33.58297069222381,-0.7032456259084094
617.6503345966339,926.7162609573254,26.953817737838673,47.950434810493974,1017.3082318436748,-33.59854640812434,-0.06477764111274822
617.8924250602722,926.817912617125,26.969313300111267,47.917049860395295,1017.3179448044373,-33.720282529928156,-0.502633571059218
618.1333982944489,925.8083740918629,26.982896013346302,47.8397156851485,1017.320644693866,-34.04609927905146,-1.35206012863399
618.3742859363556,925.8770255239644,26.9916126167506,47.7362994716604,1017.3157674488278,-34.211136160149756,-0.6851943492358344
618.6164381504059,926.2793396303546,27.004483537885395,47.61194233713829,1017.3210224011209,-34.07708090993636,0.5535462440239504
618.8585441112518,925.8210065238244,27.00910480065708,47.5218027140778,1017.3217049170458,-33.86601736031947,0.8717267736180542
619.1010985374451,925.526874722059,27.021166844660655,47.47851391869091,1017.3356460549952,-33.824693623037945,0.17054058264433822
619.348461151123,925.6963754342011,27.027088293376263,47.44664292061692,1017.3160599005272,-33.82381206940873,0.003556595169214629
619.5890772342682,926.1634088026789,27.041873970769238,47.395132163053475,1017.3084973831154,-33.65273318407205,0.7117518053586879
619.8327858448029,926.4631239316925,27.05500112075625,47.36220515700574,1017.2989509733156,-33.48175781626869,0.7015798686686108
823.2039425373077,926.2972062775491,27.06342536989451,47.39298975308095,1017.2709026574698,-33.48568023960981,-0.015976813296436944
823.4519848823547,938.0132296722697,27.121730537257502,46.95730413349782,1017.3133066060575,-33.90418360044913,-0.002057823574426447
823.7034125328064,945.89015657094,27.20106077381572,46.68858837711652,1017.3561232166687,-34.20683860215515,-1.1998467702235402
823.9449372291565,950.5868572143027,27.26295598513919,46.51849289001343,1017.3720561692733,-34.49959824825687,-1.2076430056885086
824.1852900981903,953.9591868700214,27.328216614753366,46.446874647952825,1017.3879243703077,-34.654898315354416,-0.6451915317952323
824.4285635948181,955.765096330249,27.366388604196484,46.404955403933066,1017.3894882958731,-34.64727455553731,0.03133810314909608
824.669118642807,956.5657674870307,27.40005154526092,46.3698847484881,1017.4116482682178,-34.66726024534172,-0.0830804943332687
824.9192519187927,957.4378497107142,27.423473759597627,46.31005160720915,1017.4319457695667,-34.639213404785046,0.11212673156493487
825.1623115539551,957.6392443070449,27.434866234913674,46.26123730741156,1017.429195094735,-34.71058245570968,-0.2938222812818149
825.4110579490662,958.4850029037759,27.453092930033023,46.18637824051901,1017.4264306601435,-34.76852760493094,-0.23292168603946467
825.6624939441681,957.9529893727753,27.46842832709917,46.117668692442784,1017.4317319486998,-34.828661323021805,-0.2390115548158288
825.9027245044708,958.6863464248164,27.48372753224543,46.0632804574382,1017.4327521598135,-34.74848473201925,0.3340913525276843
826.1448481082916,958.7987151923253,27.48990712790059,46.00955907429471,1017.426401746095,-34.70725056928788,0.17029960335071911
826.3857977390289,958.8708269982992,27.501219915697785,45.99803226041367,1017.4094776341759,-34.83146525676039,-0.5155305675695936
826.6263949871063,958.2005890649418,27.50847981163454,45.98021777326341,1017.4193886802697,-34.80388367199952,0.11463798934223382
826.8720684051514,958.1287265140684,27.51677734833839,45.95226403163483,1017.4279795950218,-34.83727682844999,-0.13592393292633342
827.11305975914,958.4408668355042,27.520282952989824,45.92809890087141,1017.4302911038523,-34.929216992229144,-0.38151455884260144
827.3548200130463,958.6411805240408,27.522532648239224,45.922927903764105,1017.4254381005779,-34.96903434408759,-0.16478754347152905
827.6015453338623,958.41147274789,27.520267847514734,45.8614800829192,1017.4186294117507,-34.94224110794348,0.10826887451773587
827.847354888916,960.7718625077863,27.52070367769483,45.80331074493669,1017.4244136480733,-34.895410689119885,0.1905128291363095
905.3969211578369,960.7718625077863,27.52070367769483,45.80331074493669,1017.4244136480733,-34.895410689119885,0.1905128291363095
905.650374174118,911.414049900867,27.351370800355827,45.84944517356361,1017.3719242997798,-34.40092889760747,0.006355760892663321
905.8915991783142,879.3807897046255,27.293712428432183,45.8836267475374,1017.3315886878064,-34.06858549469291,1.3736332287647213
906.1330440044403,857.7489147408224,27.274973344077466,45.92024353862697,1017.3127054807854,-33.876381236551694,0.792807454362548
906.3754489421844,844.2250802946794,27.270224785418623,45.96470963957871,1017.3152373668272,-33.70706401817161,0.6974594771866538
906.6256875991821,835.5462619074722,27.274454540723884,45.98700230853033,1017.3103223754007,-33.75254934637956,-0.18177212186144984
906.8687546253204,830.6932110407506,27.279058203075557,46.02209149600992,1017.3153235780013,-33.708951545788,0.17937290884374849
907.1085696220398,826.862287243188,27.283831845262437,46.03428022658568,1017.3187641184059,-33.636272405382684,0.3030552323315276
907.3483030796051,824.7620784637585,27.28318676838007,46.027562004215305,1017.313278631299,-33.50854442356124,0.532794288535777
907.5977780818939,822.6977702380896,27.29011987423564,45.9920349906626,1017.3219139995141,-33.602801009347885,-0.37781976118602956
907.8401410579681,821.731273629534,27.289111312278052,45.98599281246628,1017.2994499575493,-33.61412519067106,-0.04674125296015357
908.0805962085724,821.4692893163809,27.299379735596645,45.979898519892,1017.2946511503739,-33.57095457857928,0.1798614623674965
908.3210418224335,820.9429052970085,27.296873034934094,45.96136647454378,1017.2977268574633,-33.6434953611498,-0.3011299565104337
908.5616269111633,820.6051023370377,27.286098022976347,45.93922455500308,1017.2964695704333,-33.54483774295554,0.4099351738040312
908.8123548030853,820.3883198444745,27.286530319675787,45.91254973765398,1017.2947841220528,-33.56197885193844,-0.06836792093059516
909.0536592006683,820.6074588903017,27.286807742810385,45.909909925160626,1017.2921190094944,-33.693923446049524,-0.5467794763539829
909.2935466766357,821.1063472836848,27.277819421225043,45.89782500641636,1017.3064122391072,-33.60657337068944,0.3641290075386532
909.533420085907,821.426505133805,27.268412680444523,45.892143753468815,1017.300626339576,-33.654591778844505,-0.2001856715868205
909.7731947898865,821.2737064411906,27.27147235935338,45.877987633060286,1017.2902197292658,-33.6547599131605,-0.0007012004757827197
910.0154898166656,820.8173914673188,27.267978054972627,45.85448372149322,1017.2884652155296,-33.57569335505426,0.32633793761078916
910.2572803497314,820.8828123564062,27.2657356115864,45.841395292475084,1017.3001110742417,-33.58561097254598,-0.0410160995054848
910.500693321228,820.5665381472795,27.253380880196886,45.818595132630236,1017.2780410247542,-33.46874438948346,0.4806192658013183
910.7538051605225,820.7218291371042,27.254548708447224,45.78932703426466,1017.2812651054205,-33.502289666570086,-0.13240298371210257
910.9942116737366,820.8214859543498,27.25165959994682,45.820361826249176,1017.2838728608446,-33.56659803118469,-0.2674615592983196
911.2364330291748,820.8854399624653,27.25708264331616,45.88179962453165,1017.2988891410024,-33.65921517570779,-0.38274660816249134
911.4863753318787,820.9264819630738,27.262382117068825,45.91301218352997,1017.2937533406292,-33.67241180070374,-0.05279803062059489
911.7265779972076,820.952820356297,27.262144460795064,45.93086670439072,1017.2851935531269,-33.56914433691891,0.42992872796937887
911.9700491428375,820.6114652512841,27.220078609936596,45.93821725951063,1017.2929335929422,-33.116295351227016,1.8607041338449504
912.2121024131775,821.1089183355192,27.22771939842879,45.930449511986396,1017.2920532610532,-33.10563174291371,0.04403927026893588
915.7629196643829,820.711639947867,27.23808064676702,45.842422459894586,1017.269407914825,-33.387372524851784,-1.1441542035318808
916.0189883708954,819.740174410797,27.140751237687088,45.98409932157438,1017.288017959798,-33.378457290741345,0.002505032721095612
916.2631561756134,819.8332588948776,27.125731965230123,46.09618475455014,1017.2861652085738,-33.492540382430114,-0.4658816938870298
916.504686832428,819.8929951579338,27.134356200201672,46.15790138496098,1017.2812090924735,-33.19096671419575,1.2440292720773187
916.7452261447906,819.5730728830811,27.139890737713554,46.203792895527215,1017.2593360404984,-33.138570907282656,0.21750579733094047
916.9913442134857,819.7260227543402,27.154358145588716,46.23963887298468,1017.2596425076172,-33.255633098796054,-0.47608994625592255
917.2419328689575,819.8241771764674,27.16728104852181,46.27503968354559,1017.2605754980659,-33.31762700506336,-0.2471861482829845
917.4839477539062,819.8871670338881,27.175574223659268,46.31024404924857,1017.268593292081,-33.386144327625374,-0.28305123016713707
917.7236652374268,820.2858478675819,27.186424108370403,46.31212213226954,1017.2766611477715,-33.43330997451681,-0.19695729799140793
917.9636063575745,819.8251831358009,27.19702549319581,46.2864344376033,1017.2559902851707,-33.515281301878936,-0.34162354257942595
918.2033958435059,820.2460701701713,27.198301049318555,46.26986351227755,1017.2603835994998,-33.60845966134808,-0.38858941693929816
918.4456558227539,820.1579136690804,27.193661797644726,46.25709026660418,1017.2685115406509,-33.66186062332081,-0.22043266594568914
918.6873319149017,819.7430823323099,27.192503869719935,46.25507070699281,1017.2825735131009,-33.64123847563809,0.08533146467316208
918.9274291992188,819.4768674620015,27.189941501519037,46.27867858733226,1017.2911374754724,-33.64332629874217,-0.008695375452392639
919.1671018600464,821.0973139315712,27.191935674562135,46.31458575060421,1017.2865563291853,-33.58146723144462,0.25809967769575787
919.4071700572968,828.9441170078713,27.191396143297563,46.33138637744133,1017.2993873713799,-33.68286489539496,-0.42238031522408376
919.6491641998291,830.7554253602855,27.194688456632694,46.3276754499412,1017.282849548025,-33.833469872218785,-0.6223466128264683
919.8904573917389,831.2013036457654,27.193162720354174,46.316934534587645,1017.268774296566,-33.93393626797372,-0.4165356316147236
920.1301920413971,831.8457002298941,27.192183590646486,46.32455586586483,1017.286589892828,-34.004807178388866,-0.2956508285944179
920.370281457901,831.9009792905059,27.191555241568096,46.343982957405935,1017.2735607559686,-33.69468808314903,1.2915905918411732
920.6104578971863,831.2199390702278,27.189332726583228,46.366861766510105,1017.2687372011849,-33.72678996361944,-0.13365957362818826
920.8526132106781,832.2159169419776,27.191544997855196,46.38778676158069,1017.2764891140662,-34.045509070958566,-1.3156440085553283
921.0938394069672,832.4968206326274,27.1947839829183,46.409509151178426,1017.2851905529594,-33.87559926731246,0.7043379551733037
921.3341829776764,832.318830880307,27.196862577065062,46.423494919183966,1017.289774064126,-33.856583704401665,0.07911730901827678
921.5769011974335,831.8463497345525,27.20190502474657,46.41588187697589,1017.2927154977224,-33.794934159683585,0.2539898748690845
921.8174016475677,831.184880966213,27.195974621595376,46.39639239977978,1017.302569400425,-33.738762033126136,0.23357021353997648
922.0618557929993,831.8351610996027,27.193988106983355,46.37137855014491,1017.303043708279,-33.77163503259896,-0.13454742085090374
922.3180873394012,833.3272461613997,27.17997833922734,46.342820158575485,1017.3195041903842,-33.5217038832259,0.9726256941652229
922.5586795806885,834.6430380249722,27.167349123376603,46.320149792708804,1017.298869805358,-33.53844368785167,-0.06957507838372459
922.8003582954407,834.4126647850524,27.15742514298109,46.30782761305038,1017.2908161401448,-33.68584547130273,-0.610118066697171
923.0465140342712,834.6230820716387,27.158333610562174,46.289596458232474,1017.2888062520065,-33.65528778527186,0.12410190183450284
937.0150933265686,834.6230820716387,27.158333610562174,46.289596458232474,1017.2888062520065,-33.65528778527186,0.12410190183450284
937.2682514190674,879.5403119595007,27.082297073967087,46.38299366905667,1017.294228821436,-33.64551006564857,0.0006876316977730899
937.5175859928131,909.0821193782541,27.095496555011724,46.43717010368729,1017.2893800609866,-33.559196772741984,0.34517745864466387
937.7578499317169,928.0403506726583,27.125868514881386,46.45564717030334,1017.3074285932857,-33.599603417379704,-0.1675648311185187
937.999781370163,940.206652101594,27.156345122729437,46.45091752598566,1017.3273567430809,-33.6095896605985,-0.04121749284107175
938.2422561645508,949.0890566593354,27.172194729501644,46.4438255509039,1017.3165694712716,-33.56301328232944,0.1922150797071702
938.488477230072,954.0727574099527,27.18236609467418,46.42259682135304,1017.3000302516167,-33.67803941874778,-0.46688174352857864
938.730849981308,956.9127520730649,27.190782740183185,46.4111133067214,1017.3006489673826,-33.46903649407313,0.8624661461183414
938.9715576171875,959.0935547202857,27.19429480982719,46.4079360709006,1017.2902324382728,-33.53118976896622,-0.2583931313457929
939.2216994762421,960.8513258810592,27.20025717955837,46.42248540682309,1017.2746674685764,-33.689831724603636,-0.6341982783791904
939.4628374576569,960.5463319400623,27.209541315361506,46.456727003780934,1017.3021792168631,-33.75462712557732,-0.26870806879322523
939.7036921977997,961.78363466506,27.220957169397227,46.50367473818588,1017.3059878304879,-33.740024170302114,0.06062839891770982
939.9444391727448,962.5776643230699,27.23737959091287,46.56085182514616,1017.3198519366188,-33.66489021599035,0.31209484135090215
940.1841824054718,962.012454137207,27.247918555611086,46.605979723323166,1017.3096681190787,-33.624973291456826,0.16649715954577546
940.4337422847748,963.0827650567678,27.263848212213535,46.63086237670099,1017.2963620589013,-33.59643172351002,0.1144304740746332
940.6808760166168,963.4113714181866,27.272251672038596,46.6467368831599,1017.3199065534568,-33.76966345952008,-0.6990926476280217
940.921462059021,963.6222520632427,27.284921635651756,46.677708994693546,1017.3120877293665,-33.81442811710418,-0.18600718479064945
941.1713280677795,963.0410679819562,27.29669104233546,46.7164140238994,1017.3030676843509,-33.65414897301751,0.6414817998827045
941.4106993675232,963.7428702055477,27.302424693266158,46.74332653998519,1017.310896067623,-33.755596660128354,-0.42395035758064775
966.1253609657288,963.7428702055477,27.302424693266158,46.74332653998519,1017.310896067623,-33.755596660128354,-0.42395035758064775
966.3690783977509,963.1184737617618,27.23312323500167,46.973006014879694,1017.3347010772352,-33.643925380678866,0.004474702613020588
966.619827747345,962.3595145008329,27.223355750782403,47.13572659644387,1017.3170107838877,-33.651744541961534,-0.031028376924652195
966.8639640808105,961.8724581400705,27.25172377158296,47.2816133561266,1017.3194623527845,-33.77770221458048,-0.5144736602151089
967.1069736480713,962.2764085463134,27.06197141065697,47.37534204854809,1017.1631964669037,-33.02091468357903,3.11414076379963
967.347282409668,961.4608679533322,27.155433699785892,47.43788674394688,1017.2177509926333,-33.28730347076481,-1.108544749589722
967.5973162651062,961.295758520513,27.2135931396519,47.44679048389748,1017.2672561372448,-32.641080959895156,2.5845425050138795
967.8391568660736,961.1898007917964,27.245458689788002,47.41188348465182,1017.277990649714,-33.321546640824124,-2.8137310244918816
968.0824391841888,961.1218032214391,27.28592020930275,47.42624679465855,1017.29518726656,-33.64649723159656,-1.335642368313247
968.3234980106354,961.4364238648652,27.30642825301776,47.472734834121034,1017.3021761199705,-33.75923720675399,-0.4676962817603887
968.5643107891083,961.6383292812643,27.328755490618335,47.52551267668141,1017.3024740875926,-33.92480776207629,-0.6875597682342459
968.8069546222687,961.0513854149251,27.34672237978277,47.538539261965745,1017.300848871307,-33.82393153140562,0.41572643361033634
969.0482642650604,961.0329762010665,27.35643321818366,47.53036356198156,1017.3049622802922,-33.82712650740159,-0.013240359842101767
969.291934967041,960.6629046579257,27.362665075221283,47.51057502133565,1017.2891830897725,-33.83428553260769,-0.029380435296729783
969.5335357189178,960.7836716158655,27.370302875743356,47.522732468615295,1017.2945988362158,-33.90529192281868,-0.29389071648241205
969.774899482727,960.5029153274828,27.371565822973906,47.559671886736766,1017.303998704981,-33.91894183553215,-0.05655372772501577
970.0183353424072,961.0392572435879,27.37237630979924,47.53765141210015,1017.3079832763459,-33.83868061772677,0.32973496694321536
970.2593832015991,961.3834506084106,27.378354263744704,47.51269447146382,1017.314434807672,-33.904269275916015,-0.27207869785161654
970.5106029510498,961.6043340949154,27.376732740278825,47.43699994868269,1017.3163748529528,-33.95212450648631,-0.1905582475668886
970.7519857883453,962.1043419698989,27.353790847046035,47.38409556528545,1017.3192044585631,-34.00645701842694,-0.22500298391483758
970.9951462745667,962.0669606693665,27.36096935354513,47.354445895374774,1017.3251286490938,-33.961508377810304,0.18485065926681649
971.2404630184174,961.3264563637163,27.356409749971235,47.350038539284895,1017.3232375447382,-33.75426227108419,0.8451552624281664
971.4818449020386,960.8512433308093,27.359011461233415,47.32854621943307,1017.3267171783091,-33.94715791812049,-0.7988134090948532
971.7326657772064,961.2627941030554,27.36250036646237,47.318720428828286,1017.3230257918665,-34.18905397834245,-0.96441024134667
971.9766221046448,961.5269036959126,27.3647393449838,47.31254426191222,1017.3215773148977,-34.01738474518937,0.7036732518584484
972.2169413566589,961.3381364584567,27.36981474594218,47.29416659586501,1017.3208794116176,-33.97423646091512,0.17954408002194958
972.4667055606842,961.5752540821877,27.3712525693689,47.28854324329362,1017.328818424425,-33.97466998895713,-0.0017357791235823256
972.7069544792175,961.3691649528607,27.37399455838949,47.28915895411929,1017.3183707492756,-33.96341341979832,0.046854334574560404
972.9497103691101,961.2369088141058,27.379392762528173,47.23968025105548,1017.3105870578087,-33.89938975734903,0.2637303281183919
973.1904106140137,960.7937768686767,27.371871386670378,47.17472095603296,1017.3011003161381,-33.740800237499656,0.6591656806148557
973.4310986995697,961.5841730054696,27.37439167970858,47.137255804654515,1017.2919644763917,-33.817833829503535,-0.32003857380916234
973.6739368438721,961.7331461738606,27.372370505248313,47.090399233163765,1017.3039539985157,-33.79959174943894,0.07509031839164278
973.9145367145538,961.4704910075284,27.38380836887837,47.0147488372757,1017.3022312311962,-33.821470524831774,-0.09093797209542569
974.1571378707886,961.3019340427018,27.365608685021233,46.92452897720074,1017.2968952939254,-33.84127159839808,-0.08161834076297268
974.3974421024323,961.1937638864155,27.35029062222815,46.87066115564221,1017.3016261939332,-33.88589810198232,-0.18571351428332586
974.6373205184937,960.7660889379166,27.344098924820887,46.844505671448715,1017.3058933529966,-33.99652846442919,-0.46118614995776347
974.8800103664398,960.4916317770012,27.34558328003809,46.84424066080895,1017.3100463219587,-33.94466520430611,0.21379317469362094
975.1208176612854,959.9572434019904,27.352063656104733,46.83787275366439,1017.3120652727106,-33.85007981295694,0.3927942990526582
975.3643465042114,960.3308188463687,27.341598202450022,46.82956715142109,1017.2924359995793,-33.798329971747904,0.21240398082232634
975.6046459674835,960.570558060021,27.34397846038579,46.7703623175657,1017.3106132606899,-33.81109605982272,-0.05312400590178396
975.8454682826996,960.3661513161818,27.33822886601834,46.715776116607735,1017.3186632845694,-33.83015462072198,-0.07914014043922761
976.088445186615,960.2349748355789,27.336358384074654,46.66201140162489,1017.3245229063469,-33.7255417663542,0.43054142551467406
976.3288335800171,959.7925357525962,27.329700186285613,46.62338305565467,1017.3365136836858,-33.71970671280517,0.02427435613603826
976.5717346668243,960.225118959124,27.31996950809341,46.56748321748598,1017.3251295522247,-33.924752012230414,-0.8441406572352735
976.8128039836884,961.5774986659632,27.315544195739985,46.54815715394869,1017.3259035729023,-33.90246516890586,0.09245103490982853
977.0561559200287,963.1618932449862,27.31816211519484,46.43404006938149,1017.3220915782958,-33.70528681541375,0.8102298911224158
977.2988951206207,964.536924042502,27.308926484868095,46.439573298187554,1017.3194916963945,-33.79419001347213,-0.36626676740816266
977.5393626689911,964.3445669400315,27.30299958901497,46.434805607324186,1017.3264405392034,-33.829535270534166,-0.1469830817592857
977.7893617153168,963.8628656560717,27.29919604846484,46.43377535764411,1017.3064774720762,-33.72552293514489,0.4160556900631254
978.0298252105713,962.837222364335,27.29857443182777,46.43712800402293,1017.3113623394578,-33.79796236433578,-0.3012494721400092
978.2707977294922,961.8207659759698,27.28173205139386,46.43515446311076,1017.3212675754822,-33.741015404530394,0.236403952753006
978.5135929584503,961.8849779217898,27.267285027798533,46.43598394045556,1017.3056196081162,-33.77215078775371,-0.1281890005252409
978.7545320987701,961.5679278824721,27.261652313203104,46.44472155506856,1017.316659377545,-33.77617339935978,-0.01669588101332476
979.0061161518097,960.6479482806577,27.26349539140858,46.45050787410164,1017.0721275837519,-33.843241857729744,-0.26657762271521496
979.2467849254608,961.1323310434616,27.250123959135014,46.47279491258572,1017.162816547503,-33.89904578275965,-0.23187804483500668
979.4870314598083,961.0849224454622,27.254277880729113,46.46829992533461,1017.2252456285879,-33.792475272799834,0.4435713985804347
979.7367277145386,960.6962407670597,27.253305075028845,46.45297385667622,1017.2646175472341,-33.60915262373691,0.7341763050853223
979.977290391922,960.8050648115648,27.245403677453968,46.445234332100256,1017.2827289868663,-33.589834029882006,0.08031127732983458
980.2207925319672,960.5166442488871,27.233055908489504,46.45061313142776,1017.2688517056039,-33.60999448153828,-0.0828488149369723
980.4615609645844,961.0480676749781,27.22695109794304,46.4561833362095,1017.2941387563116,-33.73275644319677,-0.5095154089593521
980.7022705078125,961.0308470665692,27.221214105265087,46.4721995503052,1017.3013650246113,-33.779610021180225,-0.19464373042631333
980.9526519775391,961.3780534409697,27.23208664740091,46.494987358443296,1017.3062328155321,-33.8843783031098,-0.41844022538459374
981.1934125423431,961.9591280730596,27.22632908197625,46.59665346268146,1017.3212837818483,-33.760067809477086,0.5163221033757882
981.4353349208832,961.2572556112747,27.224453484666938,46.720024821861635,1017.3129393465405,-33.85014389848785,-0.3723416421602213
981.676266670227,961.8816069802315,27.23052694117139,46.81576012481523,1017.3215098090134,-33.93731527016964,-0.36179615322164327
981.9196147918701,961.924022175739,27.230785982469932,46.902052797344844,1017.3224708591641,-33.91983554986411,0.07183186103415186
982.1626222133636,962.6677569453855,27.230952220262456,46.94084400356988,1017.32085628364,-33.91691931141222,0.012000720738148715
982.4033687114716,964.2198158125958,27.231058902107474,46.96581177489189,1017.3082024217721,-33.86971265060107,0.1960804391695712
982.6533925533295,963.782807564343,27.231127364373986,46.95266113190182,1017.3063124970346,-33.836855368991245,0.1314150897933713
982.8939709663391,964.2188759679499,27.23299057623539,46.95046605429034,1017.3114088488687,-33.82917960741521,0.031905667380268815
983.1348168849945,964.1404619956512,27.22872844818359,46.95110630842881,1017.3207581520917,-33.76678791891634,0.2590558874300639
983.3760764598846,964.0901404224827,27.235089643368976,46.97017662758277,1017.3061386794,-33.81614180752838,-0.20456414843772247
983.6263520717621,964.0578469338108,27.23553333878797,46.98870859292344,1017.3234547593652,-33.78204637620309,0.13678284763897167
983.8672556877136,963.6788652624053,27.233998800244464,46.9901856387648,1017.3281792948769,-33.726954022175796,0.22774064110228426
984.1076924800873,963.435656643481,27.240291128630233,46.9806937461234,1017.3234406705045,-33.667689680451225,0.24648787113864468
984.3477993011475,962.5630642142618,27.22977496898129,46.97462683378048,1017.3124744751234,-33.673712849645874,-0.02508445151987213
984.590788602829,963.0778573363816,27.215679224066683,46.94582994805612,1017.3294390817827,-33.82377840247402,-0.6178039802486863
984.8410983085632,963.7664794952733,27.217619018967525,46.95013116413554,1017.3291727494875,-33.92676088629346,-0.41142887986585436
985.0819599628448,963.1336248447329,27.20787823515976,46.96113428426407,1017.3310784823367,-33.997956477530956,-0.29548031599644653
985.3228759765625,962.7274951631391,27.216251346826247,46.94965938769766,1017.3284538609896,-34.046841856968626,-0.20291983318004256
985.5636076927185,962.8251220836687,27.217986174417796,46.94219826220626,1017.3601634766104,-33.99903261820296,0.19859789721196217
985.8145513534546,962.5295158514364,27.21546093345271,46.92089670984605,1017.3565055784785,-33.92749248568859,0.2850833546775119
986.0565810203552,961.9815552199958,27.22293676277864,46.90317619757361,1017.3496950114842,-33.9307449364481,-0.013438178821278929
986.2970840930939,961.6299056325544,27.218637936059825,46.90819640946256,1017.3397854397675,-33.934742959440115,-0.016623517916285403
986.5376088619232,961.4042371716239,27.201255010610677,46.93836926892221,1017.3245454932912,-33.921701349849926,0.054221482692464094
986.7778925895691,961.9759312840093,27.199196033384137,46.97014656623888,1017.3252620100617,-33.99981691332462,-0.32510621737969914
987.0302593708038,961.6262965142055,27.201583225956156,46.99271236781321,1017.3170714749216,-34.03524953047583,-0.1404520922464204
987.2724778652191,960.3271483387559,27.195768109657482,46.99880152293091,1017.3145071269552,-34.05479089242023,-0.08064626551562244
987.5131359100342,959.4934298310576,27.1938555795104,46.99436761763038,1017.3017036483378,-33.958504631585235,0.400087425937482
987.7538368701935,959.6749124285619,27.18353184416493,46.987327004251284,1017.313720908693,-33.790082992559775,0.6996840917092605
987.9944097995758,959.7913775117786,27.17326811171225,46.97034607402433,1017.3075830270465,-33.82819699392247,-0.1584367284359965
988.2360565662384,959.1496029583598,27.17031999254221,46.97393530959168,1017.3173384268389,-33.733903350308516,0.390236982767811
988.4788262844086,958.7377489966128,27.164789505940423,46.96375186308254,1017.3152873786502,-33.833000071578596,-0.4081718218974346
988.7225408554077,959.1899599731797,27.164878911466907,47.00074814011639,1017.3228235815459,-33.82700456703347,0.024600613666716457
988.9635169506073,959.4801629443825,27.16311701006668,46.97903210902637,1017.3154262725234,-33.87041113338905,-0.18012364545553042
989.2049388885498,960.0246560739573,27.158347769739603,46.93604813739177,1017.3049035794654,-33.71244791866485,0.6542957285295339
989.4470427036285,961.4488531268104,27.1698413596212,46.86897892392273,1017.2981507208469,-33.75536330309838,-0.17726322440624961
989.69704246521,961.2880480965388,27.157205240005993,46.81147283446598,1017.3097430364254,-33.904855063997445,-0.5979647625417257
989.9374556541443,961.5431102550706,27.145387580270256,46.77657149386438,1017.3106428750192,-33.96184228432783,-0.237044772775664
990.1777107715607,960.9902793256252,27.148789319090678,46.76654150538095,1017.3040298602939,-33.9345436244768,0.11361889982863004
990.4181127548218,962.0685345392874,27.15097235922924,46.77668881775962,1017.3212862180818,-33.95726718741652,-0.09452469241121692
