2021-08-11 18:37:54.868 [INFO   ]: initialize start
2021-08-11 18:37:54.876 [INFO   ]: Bluetooth initialized
2021-08-11 18:37:55.218 [INFO   ]: Air initialized
2021-08-11 18:37:55.221 [INFO   ]: Motor initialized
2021-08-11 18:37:55.225 [INFO   ]: initialize finished
2021-08-11 18:37:57.847 [INFO   ]: temperature: 29.3484 humidity: 44.6439 pressure: 1008.9094 altitude: 35.8872
2021-08-11 18:37:58.608 [INFO   ]: temperature: 29.5063 humidity: 44.7733 pressure: 1008.9104 altitude: 36.0114
2021-08-11 18:37:59.289 [INFO   ]: temperature: 29.5063 humidity: 44.5806 pressure: 1008.9443 altitude: 36.0297
2021-08-11 18:38:00.13  [INFO   ]: temperature: 29.5063 humidity: 44.5164 pressure: 1008.9238 altitude: 35.9685
2021-08-11 18:38:00.753 [INFO   ]: temperature: 29.5164 humidity: 44.5631 pressure: 1008.8981 altitude: 35.8741
2021-08-11 18:38:01.435 [INFO   ]: temperature: 29.5063 humidity: 44.6447 pressure: 1008.9259 altitude: 36.1995
2021-08-11 18:38:02.158 [INFO   ]: temperature: 29.5010 humidity: 44.8314 pressure: 1008.9374 altitude: 35.8892
2021-08-11 18:38:02.886 [INFO   ]: temperature: 29.5164 humidity: 44.6213 pressure: 1008.9340 altitude: 35.9971
2021-08-11 18:38:03.576 [INFO   ]: temperature: 29.5063 humidity: 44.7148 pressure: 1008.9106 altitude: 35.6828
2021-08-11 18:38:04.297 [INFO   ]: temperature: 29.4553 humidity: 44.5453 pressure: 1008.9282 altitude: 36.2226
2021-08-11 18:38:05.19  [INFO   ]: temperature: 29.4756 humidity: 44.6854 pressure: 1008.8805 altitude: 36.3261
2021-08-11 18:38:05.704 [INFO   ]: temperature: 29.4248 humidity: 44.7960 pressure: 1008.9252 altitude: 35.7432
2021-08-11 18:38:06.438 [INFO   ]: temperature: 29.4299 humidity: 44.7378 pressure: 1008.9367 altitude: 36.0496
