time, cds, temprature, relative_humidity ,pressure, altitude
1628679554.0396118,0,26.967578125,52.781137190301294,1009.5097659404524,31.26431452478624
1628679554.273453,0,27.145703125,52.54240098706466,1009.5269833213653,30.93253522061416
1628679554.5195827,0,27.196484375,52.46852754199993,1009.5473573203329,30.730460901208566
1628679554.7685952,0,27.2015625,52.70037181276628,1009.5320226495329,30.74092426580933
1628679555.014443,0,27.2220703125,52.72354246095497,1009.5380023978621,30.687501594020773
1628679555.251576,0,27.2169921875,52.56160481141408,1009.5593170670858,30.54871098388626
1628679555.5031736,0,27.2220703125,52.5846465693104,1009.5248206088888,30.60186891085113
1628679555.7494633,0,27.2271484375,52.700898464969725,1009.5644287892851,30.947101995055846
1628679555.9935632,0,27.2271484375,52.57345132480538,1009.5440124643504,30.53797287008576
1628679556.2491305,0,27.2474609375,52.57963524829563,1009.5188717720749,30.968318266440168
1628679556.4829538,0,27.2271484375,52.510114375675876,1009.5721429057207,30.761876917501212
1628679556.7937753,0,27.186328125,52.55542161611024,1009.5686722371922,30.868977164421686
1628679557.0333102,0,27.2220703125,52.544745136344254,1009.5457164251923,30.857983094391017
1628679557.2817771,0,27.2474609375,52.47522433425026,1009.5759987795194,30.729679068030446
1628679557.5306067,0,27.2474609375,52.53947088250058,1009.5644894797629,31.106869946723666
1628679557.766319,0,27.2474609375,52.57397206652734,1009.5256875574894,30.83278147412081
1628679558.0059302,0,27.2525390625,52.376990001933684,1009.5542653861088,30.83278147412081
1628679558.2555583,0,27.2830078125,52.55131783092407,1009.5466111249762,30.587153585067046
1628679558.4963043,0,27.2525390625,52.47574055385786,1009.5674786311804,30.56592634274506
1628679558.7384105,0,27.2728515625,52.319306486185305,1009.5990176128912,31.0177635416303
1628679558.967434,0,27.2830078125,52.43544139989064,1009.5653555929723,30.59788317470276
1628679559.2230928,0,27.2728515625,52.38342367738642,1009.538090915115,30.871970187002297
1628679559.5204408,0,27.2373046875,52.38819322519923,1009.5644599991792,30.911403343325762
1628679559.7670398,0,27.2576171875,52.46376633524066,1009.5410522471103,30.750905284539456
1628679560.004313,0,27.2677734375,52.4180595936375,1009.5602434644777,30.63707171261086
1628679560.2494633,0,27.2830078125,52.29059029156423,1009.5500192094219,30.658300226103282
1628679560.4953914,0,27.2880859375,52.435955542046266,1009.5628131609242,30.786365367483235
1628679560.7340357,0,27.2728515625,52.34299240626408,1009.6028726598427,30.882470589352625
1628679560.972707,0,27.2982421875,52.25053665790262,1009.5632588262031,30.629841513143326
1628679561.2137203,0,27.2982421875,52.337198191754474,1009.5355480515155,30.825334656330526
1628679561.455546,0,27.2880859375,52.267540197823145,1009.5440683962364,30.971351045014785
1628679561.6938653,0,27.2880859375,52.250283785889216,1009.5670866034939,30.90020233049568
1628679561.9381294,0,27.3083984375,52.35483602792202,1009.5300162217547,30.839781996493628
1628679562.2219293,0,27.2525390625,52.15127667022716,1009.5410522471103,30.911159323640078
1628679562.462148,0,27.2728515625,52.18075065709849,1009.5487611288808,30.907428415672108
1628679562.7114599,0,27.2779296875,52.180624988975765,1009.5572815440752,31.11364988785193
1628679562.9544961,0,27.2830078125,52.41277873605657,1009.5368325506163,31.031774548125846
1628679563.2010765,0,27.2880859375,52.2564576372135,1009.5453529633041,31.29163122581799
1628679563.444193,0,27.2982421875,52.09962687137396,1009.5939328276697,30.750681454111163
1628679563.6782205,0,27.3033203125,52.30899426522114,1009.5286481371209,31.09921438308421
1628679563.9275577,0,27.2982421875,51.990021150307555,1009.5435652919726,30.84307002713782
1628679564.17068,0,27.2880859375,52.11171553686857,1009.567423411028,30.754185213077193
1628679564.4100688,0,27.3033203125,52.23340555632204,1009.5381169619615,30.729230051715785
1628679564.6529992,0,27.313671875,52.384063339358065,1009.570831714896,30.981865090377514
1628679564.9505827,0,27.2576171875,52.05856700052997,1009.5432030408169,30.700988436916713
1628679565.1936111,0,27.2931640625,52.180624988975765,1009.5487611288808,30.68303624108853
1628679565.4367018,0,27.2880859375,52.21551739972702,1009.5619743123078,30.67953307062505
1628679565.6758003,0,27.2982421875,52.28530347105821,1009.511691095821,31.177581651713933
1628679565.921614,0,27.3083984375,52.23920021022304,1009.5798803725127,30.65107384917822
1628679566.1551898,0,27.3033203125,52.07102684064224,1009.5236442935666,31.1241674643727
1628679566.4055443,0,27.3033203125,52.082741079035,1009.492526433498,31.141905702913682
1628679566.6483796,0,27.323828125,52.065356285502006,1009.511186438564,31.04670824726221
1628679566.8873515,0,27.313671875,52.18201159550994,1009.5197071869545,31.189014915694514
1628679567.1399195,0,27.313671875,52.13502482975983,1009.5465534277068,30.71941006438658
1628679567.3785915,0,27.323828125,52.03071511541179,1009.5503818959846,31.249449728266935
1628679567.661362,0,27.2830078125,52.23302688270508,1009.5291766295647,31.138397805461867
1628679567.8995097,0,27.31875,51.98422607058881,1009.56487910954,30.91142200901735
1628679568.1424153,0,27.31875,52.11209480373341,1009.5209909678903,31.238731243614094
1628679568.388322,0,27.323828125,51.984724337082646,1009.5452694428682,31.228196744811324
1628679568.6341057,0,27.313671875,51.984600972608575,1009.5354646844673,31.10363068840013
1628679568.8762362,0,27.3083984375,52.00198677728212,1009.5316362377089,30.971855821876137
1628679569.114308,0,27.31875,52.222199255050626,1009.6015310469849,30.79056099493339
1628679569.357621,0,27.32890625,52.34414430398526,1009.5410206128737,31.089400049838492
1628679569.6101544,0,27.333984375,52.22812023398836,1009.5299320873862,31.107141128557014
1628679569.8492413,0,27.323828125,52.22812023398836,1009.5764106986378,30.858009924373714
1628679570.1005137,0,27.31875,52.100629323934314,1009.5367712154343,30.786856851151
1628679570.3794124,0,27.2880859375,51.983979247237116,1009.5571985011426,30.936373297527496
1628679570.6228323,0,27.32890625,51.98484769115632,1009.5359080797,30.569892571088282
1628679570.8784978,0,27.3390625,51.97301038664246,1009.5192868044754,31.0003174847805
1628679571.1294224,0,27.32890625,52.06573396518854,1009.5725595306119,30.939883285673076
1628679571.3725903,0,27.323828125,52.0426773256906,1009.5120496000792,31.060753887847817
1628679571.6235228,0,27.32890625,51.97325684399181,1009.551688489327,30.87575191628874
1628679571.866521,0,27.32890625,52.135525099287555,1009.5193083431706,31.284938261680654
1628679572.1084018,0,27.3390625,51.95044385523373,1009.5384754202026,31.15668692365952
1628679572.3519087,0,27.34921875,52.11271870476205,1009.5171831687303,30.928985181418614
1628679572.5949287,0,27.3390625,52.257600401513045,1009.5188873997549,30.729750116374813
1628679572.832017,0,27.359375,52.0837416225715,1009.5061153632472,30.80441952946112
