time,cds,temprature,relative_humidity,pressure,altitude,altvel
57.71281409263611,0.0,0,0,0,0,0
58.21106195449829,624.0,11.3953125,64.77773976023167,1025.4983277940346,-102.28147831118626,-0.020198577627244675
58.47271800041199,624.8333333333334,11.407350852272726,64.77288812744759,1025.5067051820545,-102.2933464452752,-0.04535032937041338
58.71872091293335,628.6341463414634,11.429905176526717,64.7520447233927,1025.5219493084126,-102.03741540767057,1.0331046717924373
58.97184467315674,635.767441860465,11.457452869473046,64.72031902102064,1025.538393623335,-102.07118158171511,-0.1331080168608045
59.21813702583313,643.7047244094488,11.479899517871216,64.68390192809964,1025.5508555145705,-102.04973537133617,0.0871690539304989
59.460105895996094,650.8353101413086,11.480385023514758,64.64993666095454,1025.5142253233826,-102.03768085415827,0.04984601620512118
59.71295785903931,656.2247934972673,11.479443196577373,64.6162868328213,1025.5344736546267,-102.05185102645885,-0.055891548147856504
59.967469930648804,661.8577612077903,11.50162002374701,64.59074483991353,1025.5401746415787,-101.98200275310076,0.27434817395096683
60.21878385543823,676.2194947533116,11.509952827538562,64.57342154281481,1025.551188192327,-102.03360702581323,-0.20586305799991186
60.46208190917969,686.1665038124911,11.518819147844193,64.57715595224012,1025.5637412288052,-102.07956156978781,-0.1890953295119269
60.708024978637695,696.8521171218551,11.528057642295225,64.61405915688104,1025.573726632106,-102.12340276437804,-0.17813661077109952
60.9574818611145,707.6517994761375,11.512852579232195,64.67120068225455,1025.5457851847896,-102.23002991558019,-0.42614893435370266
61.211617946624756,717.807359998794,11.497627555945682,64.73545807651863,1025.56121773215,-102.24558219378675,-0.06119763046013467
61.454646825790405,726.4744169096938,11.51124210018849,64.80622501864205,1025.5717860301097,-102.29643978106535,-0.20925185868701687
63.283997774124146,726.4744169096938,11.51124210018849,64.80622501864205,1025.5717860301097,-102.29643978106535,-0.20925185868701687
63.54048991203308,722.0053922491809,11.45244755412955,64.88449432709116,1025.5794349447026,-102.33638973067292,-0.01917523482527429
63.78570079803467,719.1374077081107,11.448040626610156,64.9842262835841,1025.5823015117762,-102.08394403180365,1.0263181916037685
64.02964282035828,716.2221230780158,11.457169976307659,65.04814992078387,1025.57943002312,-101.80057638039507,1.1573972452730235
64.27080488204956,713.6347440154163,11.47069255054101,65.11182544452775,1025.5861403670197,-101.92387262263836,-0.5108265731027097
64.52425074577332,711.2577972034507,11.483305954754524,65.17047922685431,1025.5928089750298,-102.0700437505082,-0.5764027241393421
64.77905583381653,709.374151704357,11.470561977316272,65.22837963646705,1025.5941160045384,-102.14294553290335,-0.28608233473652855
65.029944896698,707.8070787968277,11.459836135426336,65.26322118266471,1025.5914473077182,-102.22838859702459,-0.3405491614094627
65.2777190208435,706.8014215830875,11.475382679259887,65.288650193323,1025.5965572051416,-101.98945790643069,0.9652781856997837
65.52191376686096,706.1560486686336,11.493641445795689,65.30574671574965,1025.5943996943909,-101.74362877316841,1.0072613922921811
65.77558398246765,705.3836279146395,11.504223740056974,65.3168575948607,1025.5934656691363,-101.89691473078713,-0.6024657059094463
66.02921080589294,704.171417602991,11.51057528114015,65.27668885117004,1025.5882960949507,-101.94957132174721,-0.20761268370773883
66.28176093101501,702.6769756717649,11.513839029104188,65.24119556649006,1025.5668481296887,-101.99868658302137,-0.19496539609625507
66.5253176689148,702.07618644359,11.494218101623233,65.20495970439995,1025.5737880127579,-102.09104952145229,-0.379207734260289
66.77917098999023,700.9741193650658,11.501900843514406,65.1814295200979,1025.574324765308,-101.79724828537194,1.158006726216704
67.03100275993347,700.9833912984341,11.5019677325651,65.13871141559945,1025.573030271212,-101.8841149333877,-0.34391162031795086
67.27548575401306,700.6310839219979,11.507556863951656,65.0803808033601,1025.575583043665,-101.94378064566187,-0.24403471463937368
189.6845371723175,700.6310839219979,11.507556863951656,65.0803808033601,1025.575583043665,-101.94378064566187,-0.24403471463937368
189.937655210495,753.427113615062,11.849858966895846,64.12939573988287,1025.5757633153964,-101.78059879910285,0.001330361674493849
190.1828010082245,789.0998538789231,12.138204398569155,63.46071145279761,1025.5628498719163,-101.84112346517256,-0.24624137214746916
190.43577694892883,817.0081708915894,12.36653881772611,62.93256565666653,1025.5494640809313,-101.78762383995459,0.2115773915566731
190.69024062156677,836.7094099300789,12.529071614556258,62.519114497298006,1025.513939910471,-101.69125978010374,0.376557766711559
190.94395637512207,850.7855612325743,12.664157810998097,62.20544318985179,1025.516003227356,-101.68170856046001,0.03763463936455955
191.18789553642273,856.5945066561269,12.771033719366358,61.978452882377965,1025.5119183929755,-101.50975326166365,0.7056464781533273
191.4317193031311,859.9640958414097,12.853152098258871,61.804669808144915,1025.5087935329223,-101.35756820422137,0.6241692173813976
191.67541027069092,862.1265041949746,12.914457574010312,61.67460103565178,1025.5067512589692,-101.35779105601507,-0.0009144852430925707
191.92720413208008,873.5454253334107,12.96194476869729,61.59719653348932,1025.5116880790313,-101.42532575358065,-0.2682058529920854
196.1315598487854,889.1133556369273,12.995231115743888,61.5271331760323,1025.4904445473128,-101.4060581299406,0.08001333739660495
196.37813687324524,914.5090325561396,12.938372556035938,61.33222665700578,1025.474037113588,-101.50134223808912,-0.022641825141416508
196.62379217147827,929.3734857085974,12.929905507522248,61.16736762419613,1025.494576966503,-101.18196670613527,1.2980515740445235
206.24594902992249,940.3456662807571,12.94435695484687,61.04456701252901,1025.5148995910502,-101.36187711508926,-0.7100704311781598
206.49617624282837,892.5735719762438,12.886151608580539,60.937827208093665,1025.527006291319,-101.6028796071107,-0.02505577766943959
206.75179934501648,857.2588436635367,12.875276964365616,60.840431054107675,1025.5230377542534,-101.6927053308258,-0.35039870118094185
206.9971821308136,828.505505402112,12.905858538982967,60.767101610788565,1025.5191885422664,-101.66550967310381,0.11025543580560788
207.24130129814148,810.0532682211096,12.93915340735592,60.71912535870658,1025.5281479490407,-101.46955423513565,0.8027095118303508
207.49458479881287,803.9438057962586,12.968993773153255,60.69119182436873,1025.521307825848,-101.58293342132455,-0.4476572780679689
207.7384910583496,810.0543164765356,12.994888239806153,60.699596402265676,1025.5162438688908,-101.63455834479348,-0.2116518365217278
207.9868004322052,847.6519019847048,12.998643633407022,60.67721810332272,1025.487306534543,-101.63421639551444,0.0013770992496777632
208.2309639453888,885.0353979611514,13.005500145138825,60.6898187619554,1025.5061217602574,-101.64775390320445,-0.05544465014296716
208.47483730316162,900.7860494314299,13.029763510707392,60.67495552647317,1025.4956275163577,-101.65763416909874,-0.04051542591811285
208.72078776359558,908.7443653710209,13.03238122019918,60.64155493230002,1025.5025897167816,-101.63864471426493,0.07720463723587023
208.96462845802307,913.1350392458248,13.052126270385227,60.638292185631244,1025.5125928324214,-101.50285564714189,0.5568859510390333
209.21918749809265,916.3109785392894,13.066537072609794,60.62945947868597,1025.522235209157,-101.59620349718766,-0.36670240772798185
209.47059392929077,920.8569165270809,13.074310933068519,60.60231712903103,1025.522081018754,-101.63379692448017,-0.14952893548285356
209.7149453163147,923.7742378202886,13.073125201767043,60.59608118726034,1025.4984837020418,-101.65315534144209,-0.07922855376407671
209.96818256378174,926.0046642470495,13.061231942149854,60.582411197421585,1025.4714185030211,-101.6578334603151,-0.0184725870925233
210.21264219284058,927.0777659537248,13.071810903570533,60.55447467811963,1025.4875728655002,-101.6488333741223,0.03682910643993218
210.45924162864685,927.4081632816494,13.079531892848264,60.499464091207344,1025.4980011167183,-101.69466615825044,-0.18578757161392082
210.7033360004425,927.6201932659039,13.089282669951054,60.464726701415174,1025.5028163777183,-101.45765616899088,0.9714266200913656
210.94719767570496,927.7562619033392,13.09639921404895,60.41874117253698,1025.4997590615437,-101.48223944493269,-0.1007681823622763
211.19123220443726,928.201840490938,13.10159317955174,60.388542342818155,1025.5119957709044,-101.5333783243835,-0.2095491610258064
211.43528985977173,937.4442264141139,13.108180501921657,60.36121740815548,1025.5150968064145,-101.54617829210558,-0.05244649140192853
211.68894290924072,940.1511394946524,13.103332244254734,60.3191993440462,1025.4993823500574,-101.62496090560579,-0.31059669299262654
211.9324996471405,938.6639623486611,13.101165660526696,60.29922862247771,1025.5111948044635,-101.64443470325409,-0.07998619944638291
212.1782581806183,935.9182898249242,13.106443827918381,60.25914923625295,1025.5130782026183,-101.65924177604698,-0.06022723844000116
212.43326258659363,933.7980176966764,13.110296065601904,60.220983075566764,1025.5139987970833,-101.61302428536828,0.18130651479737694
212.67768001556396,939.6025004976756,13.11727602327098,60.14417416175567,1025.5239883861475,-101.47941709334815,0.5464274130870387
212.92258858680725,947.6265742321568,13.123742189030565,60.088592021362345,1025.520073452127,-101.35314683243963,0.5158383343377894
213.1685540676117,953.4924779520607,13.106458522843505,60.04426185678657,1025.5118779887543,-101.2621751721334,0.3696733639768704
213.4125154018402,957.2568772623766,13.081444398434968,59.972622127700554,1025.471661829602,-101.12091924309253,0.5792013837006252
213.6584370136261,959.3143944556724,13.075587743125753,59.8948936273512,1025.4586025893009,-101.08460642246477,0.14761391946861604
213.91141152381897,960.9930481095982,13.075428960669345,59.84419798682301,1025.452320949807,-101.26247782188983,-0.7031145478051369
214.15528512001038,962.0703113854437,13.067081752199408,59.791712084277776,1025.4386347540988,-101.04717283000888,0.8828401966828139
214.39905261993408,958.1042885349353,13.059617706936002,59.721127443979796,1025.428358556071,-100.78956589996127,1.0567823755717987
214.64275431632996,947.6774568625112,13.083032512032952,59.677486019773255,1025.4449624987317,-100.76594534539504,0.09696265483148657
214.8960735797882,938.8365711456158,13.101493549096608,59.644218521823426,1025.4645947583099,-101.05313550978612,-1.1332785040809574
215.14106130599976,930.6551966713745,13.101195587300687,59.606491576252445,1025.4855168599463,-101.24283300767213,-0.7750678231961566
215.38545060157776,918.597967710992,13.11200598272725,59.56085013542181,1025.4801191371475,-101.36945700349462,-0.5176363288959742
215.629328250885,901.5456354859227,13.126755317743592,59.517108528639845,1025.4792853973102,-101.47250686805907,-0.42253004249730286
215.87241578102112,871.614779174772,13.140263802311114,59.47927989490187,1025.49133721723,-101.49411660036229,-0.08892648535416396
216.1185324192047,813.7150611930526,13.15149477287316,59.447012241314646,1025.505963213189,-101.43111169560201,0.25591629371751956
216.37193489074707,732.492674401987,13.1569478529457,59.415982732345995,1025.5038328207238,-101.24754374749712,0.7244044402956085
216.61676144599915,687.1757163117348,13.165043410603042,59.395696196871796,1025.5085092866502,-101.22120473012728,0.10758319309509816
216.8605079650879,656.6608712058473,13.17506756411092,59.3848950220941,1025.5084349922454,-101.35648355235621,-0.5549974227856606
217.11323261260986,630.9878216597044,13.18101174326648,59.380164187656604,1025.490726790222,-101.46634757286223,-0.44967543241398006
217.35849928855896,615.5871091539891,13.185350065498685,59.36011103672474,1025.4957461094232,-101.40590853422016,0.23825921273104808
217.60758185386658,624.3332120928419,13.189888250044172,59.405239322787374,1025.509345460959,-101.59985077111,-0.7786128876837048
217.85126638412476,691.208001834008,13.168453684717552,59.397171673490966,1025.52458658641,-101.05471984700331,2.237116398908441
218.0937602519989,739.856513053905,13.155553574389508,59.397769339137724,1025.507146930774,-100.67557637170177,1.5635008760472655
218.33993673324585,764.9859482031583,13.15442259596601,59.3753847129027,1025.4944911880173,-100.7570451542161,-0.3309352156520418
218.58435034751892,777.8882548675829,13.164572254496397,59.38100716456308,1025.4916298268583,-101.05905220464406,-1.235639231170415
218.83825063705444,787.959500353002,13.166492371672781,59.38362662640249,1025.4039793105799,-101.0788567728526,-0.07799916396816907
219.0822594165802,794.0643883395259,13.183037279299093,59.392355907864605,1025.3445471977598,-101.1151747480965,-0.1488382236544853
219.32641291618347,794.7578358684947,13.197856251382136,59.384100355745694,1025.3969900623504,-101.20048162652039,-0.3494094671801854
219.58035850524902,799.8601989746049,13.20181235103634,59.40372967452449,1025.4390432574874,-100.59766281111783,2.3737663592451796
219.82431507110596,801.3433140281583,13.200531259868812,59.41614784600999,1025.4611807996803,-100.50270496013586,0.3892377654862431
220.06554579734802,800.8620616093609,13.216111672484226,59.41695159070147,1025.489379719214,-100.96342071223792,-1.9098306416876356
220.3096513748169,800.1949639429403,13.227482939848063,59.39975640850825,1025.5004975328945,-101.22539478545465,-1.073234458390383
220.55420804023743,801.1998893430899,13.237154075710116,59.41135528115824,1025.5186918985098,-101.41599460590045,-0.7793497463321107
220.7997739315033,803.9943380288312,13.216721988989836,59.43963969172071,1025.49104000755,-101.58010882151667,-0.6683271754567081
221.04379844665527,806.8624270288253,13.204553531445361,59.452736402301994,1025.5107354567556,-101.73247598487364,-0.6247792534185779
221.28983521461487,809.4195165735757,13.228703276387542,59.432242490523834,1025.5232936328644,-101.77314566861097,-0.16519323966645635
221.53696060180664,811.4187670025369,13.244904165819934,59.4655843384108,1025.5338330696068,-101.76649525983213,0.026911486163299858
221.7821922302246,806.9696497200761,13.258152936232863,59.48734508312651,1025.5356831507954,-101.48430864056816,1.1507121275621606
222.02706098556519,804.1144623816305,13.267822469019077,59.5242840396832,1025.535609722879,-101.59516465495514,-0.45271428153753496
222.27084064483643,802.6404250890065,13.274879717457198,59.54641049052612,1025.544111289274,-101.64551751498334,-0.2065490870633096
222.5234272480011,801.6944728141839,13.278605754492498,59.57154851459568,1025.543504399281,-101.69410162848112,-0.19240810849006473
222.76777386665344,800.3708999632069,13.281325179477047,59.58563374707734,1025.51077666383,-101.7470767298232,-0.21673224365173224
223.01424551010132,796.6554465489065,13.287478360834665,59.61402578829978,1025.483639161821,-101.73392478112643,0.05336110638086981
223.2682089805603,794.2710824443875,13.289225447998929,59.61073105955831,1025.502474995921,-101.49991920141197,0.9214143250269344
223.51230478286743,791.3079045507636,13.294616209753318,59.63921826691758,1025.5101725182194,-101.47287958321554,0.11077234154373007
223.76644229888916,789.4063075672925,13.301294397759861,59.63999059938439,1025.514735952295,-101.59878806266717,-0.4954400235270112
224.01040291786194,787.4694569582887,13.307540318805799,59.66439674291578,1025.5324525787005,-101.71194071720791,-0.46380572749495097
224.25439381599426,785.868240171447,13.312098865482318,59.68063321329893,1025.4986239823904,-101.80455039984251,-0.37957910022128244
224.51220512390137,784.8406714188948,13.292051048343955,59.69405950221461,1025.4900055299427,-101.82406898775906,-0.07570706198166414
224.75874090194702,783.4647218111304,13.303537891679921,59.72498907845785,1025.5080452802385,-101.84205880596713,-0.07296843984991344
225.0031316280365,781.5069438571053,13.31192149293388,59.72656610734762,1025.5234090025524,-101.89951627864656,-0.23519146369689836
225.24794602394104,780.2505546745012,13.319412099244637,59.701657889606714,1025.53402152946,-101.92901052372788,-0.12043582950556947
225.49195504188538,779.086018857302,13.32350718471645,59.70816231645145,1025.5394962642333,-101.65306595568032,1.1308896147496657
225.7381808757782,777.9804292420674,13.325124070396495,59.70090087958553,1025.539858763071,-101.67171718079373,-0.07574852272158338
225.99177932739258,776.5544103362552,13.331791692419833,59.713647438101404,1025.545045707771,-101.74523919642547,-0.28990690435194744
226.23632788658142,775.9975310671896,13.320142605889094,59.71848908930941,1025.5049446909998,-101.80517929585511,-0.2451060573810376
226.48040676116943,777.7897034285354,13.325412227466503,59.72044646300121,1025.5119899193946,-101.79082908438947,0.05879333674355096
226.72437143325806,781.4476194620574,13.32788634102715,59.72049928869218,1025.5273574455846,-101.86840751679789,-0.3179801810468608
226.97800493240356,783.7950593879909,13.331063944453925,59.72476579206569,1025.532288466765,-101.39842550304765,1.8530314460673725
227.22437572479248,784.943253622027,13.336126872602913,59.72522801394444,1025.5240793459493,-101.49275376998277,-0.3828855937628408
227.46873235702515,785.6800985804684,13.341193906275603,59.730093740489764,1025.5249002739447,-101.55664461556466,-0.26145459841174956
227.71230816841125,785.794705685508,13.347635823352674,59.729151886316416,1025.518072263935,-101.66511553300404,-0.44537116178638586
227.95849895477295,784.4352236496668,13.319359363308024,59.7300054970549,1025.4826225042814,-101.69741962979903,-0.13120502845849596
228.204895734787,783.5627863437591,13.330328130787754,59.73988876807581,1025.5061579535788,-101.75236679719606,-0.22300925556087278
228.4509744644165,783.002906306603,13.34244927863649,59.76823498915836,1025.4865946292732,-101.82870333844558,-0.31020555181806586
228.69478106498718,783.0018651002632,13.349923936085466,59.77060579833634,1025.5021820236543,-101.86428107120427,-0.14593075343863493
228.93903470039368,783.0011969139761,13.354007381379578,59.76988867743758,1025.5127124791097,-101.85219700971706,0.04947158006160217
229.18411564826965,780.1347075545194,13.358359545575057,59.77808230357914,1025.5185924277055,-101.83963299807975,0.05126499166430329
229.42825436592102,777.22038699748,13.361535945578042,59.77655381051132,1025.5283228596227,-101.78673995926749,0.2166532721823845
229.68143677711487,773.9171135619541,13.365226108402243,59.776811226105124,1025.4440235833758,-101.83304919028281,-0.18290752957770956
229.92624068260193,771.4390052693235,13.288191609383455,59.77398010890739,1025.3699320410465,-101.80702622602504,0.1063070605772049
230.17076539993286,769.490440461062,13.311696200236225,59.77349287997833,1025.3641324559371,-101.76495953281788,0.17202110536757065
230.4250030517578,769.3147364534997,13.334391192801393,59.765656562688704,1025.4091703592242,-101.56664758548538,0.7800346550010315
230.66892004013062,770.6350100146195,13.345414679207925,59.77127357012022,1025.4452937163846,-101.39763002885991,0.6929516444999838
230.91569542884827,771.4822855786633,13.356256641197204,59.77688243704979,1025.470222104818,-101.56484354825193,-0.6775769660035265
231.2093584537506,771.3095031194487,13.350397944786964,59.778158461950994,1025.492405209121,-101.68668241528997,-0.4148863815235153
231.4538562297821,770.1238485756369,13.352981446672475,59.77496338062064,1025.5093570599536,-101.72257773391804,-0.14681846759200257
231.69820928573608,769.7212213164481,13.357610773502053,59.78038262383361,1025.5124991134567,-101.66760691360739,0.22497044148475395
231.95138573646545,769.462838320549,13.36652977187061,59.762934291068916,1025.5254830193005,-101.65744325513005,0.0403977406231507
232.19694566726685,769.2970229887597,13.368870821500867,59.72611389119826,1025.5396479986641,-101.74191305542168,-0.3417748588132053
232.44140124320984,768.8323546852267,13.367835648004387,59.72188387219034,1025.534299531639,-101.72918649035437,0.05205927600285816
232.68593192100525,768.8924148882347,13.367080133058346,59.71440405759906,1025.5339558525934,-101.75734359868626,-0.11515080543025451
232.93971157073975,768.9309580688897,13.348694193993802,59.71800231143379,1025.5340232622248,-101.73670379874079,0.08132571346618825
233.18805932998657,768.597435293827,13.35727828767834,59.73723338277941,1025.5286959042517,-101.75857062462813,-0.0880507391185612
233.43197011947632,768.3833995775296,13.358003022191939,59.7330184043883,1025.534431887413,-101.68203634662758,0.31377212928146375
233.6758999824524,768.6043013462338,13.369559826167146,59.72843260967155,1025.5364209177105,-101.67373644576072,0.034026732238286485
233.91986274719238,768.7460633841847,13.377994487759068,59.728374613096534,1025.5459744225006,-101.7651443211844,-0.3746766883955428
234.16644740104675,766.6874926819992,13.38826613416713,59.71316965262661,1025.5507495983838,-101.76313638570267,0.008142844678468887
234.41945123672485,765.0081629467178,13.388903396424851,59.702272344191684,1025.555977930046,-101.8290742874655,-0.26062434163006193
234.66336798667908,763.5722082312844,13.383828185386283,59.72149223151555,1025.5557796600258,-101.92031485262345,-0.3741916524032005
234.90740776062012,761.9341800231168,13.382920613048297,59.73099093308003,1025.553364018154,-101.98690621232929,-0.2727827171773637
235.16052651405334,761.2412453890681,13.386373888055374,59.73497114745189,1025.552055164048,-102.0236668414188,-0.14524799900583654
235.4049174785614,760.4383022633374,13.387522352354576,59.71798409224904,1025.55731140338,-101.877332440625,0.5986911303946774
235.6508162021637,760.6395347292653,13.391104325916057,59.70867206083641,1025.5537207040204,-101.85878113950106,0.07544592479368963
235.89494490623474,760.4104165715506,13.393718607069145,59.69019800892138,1025.5534571994438,-101.85273101476457,0.02478109311808555
236.1392138004303,760.6216392976418,13.4024860589962,59.69154519607493,1025.5453839896186,-101.89203768487698,-0.1609202892306952
236.38566851615906,760.7571898832613,13.39790983321559,59.659448486721175,1025.5413085404116,-101.96505469986681,-0.2962801032437885
236.62980723381042,760.844178445533,13.384913929277532,59.61337673439434,1025.540838350782,-101.95154806396248,0.05532247832800545
236.8832221031189,760.1834875579202,13.387828697523057,59.57975155215042,1025.5417841033538,-101.92731867969447,0.09564248754450982
237.12883687019348,756.5351760564312,13.384415710082113,59.56991047835314,1025.5422410738956,-101.82331301329097,0.4232991696857744
237.372704744339,754.9104149052196,13.392952623391796,59.53089087620842,1025.5495472044342,-101.74000624627858,0.3417474847810347
237.62601232528687,753.8677367350518,13.40192701056748,59.498149553605906,1025.554351661592,-101.84033056068456,-0.3959007866541063
237.86988234519958,753.1986059118946,13.40436125025968,59.45646462154355,1025.5557344927286,-101.86740098018421,-0.11100304026132857
238.11571216583252,752.052681132125,13.397906542897383,59.44553725486211,1025.5453765088332,-101.90274446801057,-0.14377579979809374
238.3600549697876,751.3172925787804,13.4027988239187,59.43624964079985,1025.5438073322648,-101.92853969305142,-0.10556806561815117
238.60380482673645,751.9201352496788,13.404997537818474,59.437020268599625,1025.545546654093,-101.96173781974008,-0.13619752275639788
238.84983944892883,751.9487474010173,13.410717916540328,59.44526373943388,1025.5582449718813,-102.01410264194527,-0.2128374451001419
239.09375429153442,751.9671090325592,13.417636673443036,59.44760093102038,1025.5616817519945,-102.07914157460665,-0.2667315802560404
239.3508219718933,749.8293470536394,13.42543005921687,59.45593963810296,1025.5688915978421,-102.14786324820498,-0.26725648226788296
239.5948190689087,748.0991969159519,13.431118013412389,59.46360144241803,1025.5696852455799,-102.19366678504421,-0.18772017926309859
239.83898377418518,744.4810831749857,13.421550461315041,59.48291415280057,1025.5695034915022,-102.19400104368512,-0.0013689990602233938
240.0924835205078,738.9348679435564,13.392564685749495,59.46635105798476,1025.578381328742,-102.14799367832082,0.18155761721948124
240.33709120750427,738.241686856803,13.398900102662243,59.445401112548566,1025.5692582781955,-102.08071268388034,0.2749350837388895
240.58215403556824,737.0803280024189,13.400780193314395,59.421117451706884,1025.573733929797,-101.8783824890444,0.8256595430755322
240.82643914222717,728.8116257891114,13.402152365797987,59.39623720151539,1025.577528293045,-101.66766087794556,0.8625496708393326
241.07046675682068,717.0566124827058,13.405897611388196,59.39770293244951,1025.5680341322163,-101.76141614660007,-0.38420655485371724
241.31673860549927,698.7651945879737,13.41411860367087,59.375932549390114,1025.5608835977432,-101.79613892569333,-0.14099561075776817
241.56080150604248,689.1763610278099,13.41874675680722,59.36772443591372,1025.5555171531175,-101.80589259918122,-0.03996279348222787
241.81490015983582,683.7393148121993,13.423496472637702,59.36304695418048,1025.5114390546753,-101.76371693450442,0.1659878421438344
242.05939316749573,680.9666466980195,13.433875223184138,59.34630809429505,1025.5106522513122,-101.74356070819616,0.08244131306200869
242.30391097068787,678.8290503539482,13.4428219768124,59.37039663379674,1025.519553387685,-101.72257894170491,0.0859011332797458
242.55763363838196,672.0834005382328,13.44797982235849,59.37648463168273,1025.5148315346428,-101.29242254716195,1.6935437626317171
242.80208349227905,671.3370065251197,13.451744243890431,59.40559916306322,1025.5089765736668,-101.36413800988853,-0.2933858197547886
243.049063205719,669.0667259695526,13.458607344601646,59.442491086958995,1025.505991975507,-101.43833934797291,-0.3004384312060881
243.29374718666077,670.4758511638609,13.467731997063257,59.46652880944805,1025.5125278904466,-101.44067248616217,-0.00953839802617049
243.538583278656,675.6792374248881,13.452388610881492,59.44645342565039,1025.445008979614,-101.519802994175,-0.32308997359988667
243.78414583206177,690.1244558252562,13.427418700768639,59.46659901722033,1025.4609743265446,-101.55638228639212,-0.14896409092481058
244.0382537841797,703.6936562246225,13.446341046115,59.48432224511564,1025.4823975797617,-101.6916933819453,-0.5324905371134877
244.28257250785828,716.3424211333647,13.461523289336272,59.507960185796804,1025.5038644156587,-101.63978343024506,0.21254885309249158
244.52713751792908,726.6092156857535,13.47123206822776,59.55139153691273,1025.5265034266579,-101.61452296801241,0.10324564145206395
244.7815089225769,734.9891412227709,13.482433621232257,59.560976277424935,1025.5486259510087,-101.8227894061314,-0.8469462642860586
245.0271120071411,741.4416677128291,13.487865231083159,59.527597627081,1025.531581734661,-101.87114797302883,-0.19033503549206246
245.27404475212097,744.8660126064622,13.472570274719494,59.489645389060776,1025.4911191068002,-101.93701527965594,-0.26674060037242114
245.518492937088,744.5557570349185,13.480666528900661,59.46634509070593,1025.4811286086126,-102.03568722336412,-0.40364901895061356
245.7628095149994,745.4314255788453,13.485203642708482,59.4373243527207,1025.4999900539774,-101.99282261231664,0.17558905095558122
246.0087993144989,746.7098943775322,13.491258801063974,59.42986623065764,1025.5258729192078,-101.90597028773075,0.3527931677728675
246.25325441360474,747.8885996212213,13.499793781816095,59.40262572931262,1025.5398405422784,-101.89876124336111,0.029500445025713865
246.50709891319275,732.1651765923577,13.507394871513236,59.359497357937656,1025.556320389069,-101.98407272742388,-0.33597801617290346
246.7517569065094,719.9252434649923,13.512942479611702,59.35218452866253,1025.5634252659265,-102.04824481764429,-0.26228665575239235
246.99643993377686,712.7868741696163,13.489500861767992,59.36208088829328,1025.5340691815638,-102.12940114999329,-0.3316700796223387
247.24993658065796,709.2806524166505,13.490279438660552,59.348094541070324,1025.5434025931365,-102.21423752783497,-0.33466469432817775
247.49418950080872,718.4948033708733,13.501822774276453,59.330270000991256,1025.5614231021266,-102.21684184004657,-0.010662795690449861
247.74065041542053,725.1244301382621,13.51161949308341,59.340045690228905,1025.5773010028636,-102.14567276835923,0.28874765020635845
247.98730611801147,725.7963672383476,13.518769567448707,59.3402218644085,1025.5816309128802,-101.72576678994795,1.7024942965851206
248.23211908340454,720.1371991046775,13.526784543720828,59.33844634462442,1025.579793835053,-101.58991273441572,0.5549116121036439
248.47680020332336,711.8481223885003,13.532634224365031,59.36584625859436,1025.5806501407199,-101.8043722498864,-0.8764618395068978
248.72130489349365,702.9460944550674,13.534107038533785,59.36456862922131,1025.5367856288171,-101.87650494509325,-0.29501041108567405
248.97498965263367,697.5915429821436,13.53797850171787,59.37420805614997,1025.5079509184227,-101.97784052583935,-0.39947051300880976
249.21921753883362,695.9465879531263,13.536635639148379,59.347753212209064,1025.5313030383456,-101.96810610161329,0.03985873373751827
249.4627025127411,695.6074656537254,13.528796124176672,59.3193837844625,1025.5506178172222,-102.03651875474031,-0.28108839342623176
249.7167112827301,704.7045332919549,13.525818276899455,59.28503139190191,1025.55592583623,-101.75157777339157,1.1213130591510323
249.96136212348938,719.4989468259649,13.51952925252195,59.268945538837514,1025.5610885095793,-101.6672891149277,0.34452768185666416
250.20817112922668,729.7096648641591,13.517683021173463,59.25418490584203,1025.5554652943533,-101.79701976019759,-0.5256429034632677
250.4523208141327,736.6205734446808,13.519079334719143,59.24347707534318,1025.5629495631092,-101.89919345078091,-0.41848545483242383
250.69719076156616,742.1303694226252,13.50912332937945,59.231196321398215,1025.5359190031727,-102.00938095967958,-0.4499767877941653
250.94386887550354,743.1584362986257,13.51557587086181,59.21947533611433,1025.5474040666488,-102.07229843910774,-0.25506642158514475
251.188729763031,743.1016752953602,13.523028992207172,59.23048751913669,1025.5088874394348,-102.0827560331771,-0.04270743419988061
251.4422733783722,743.7817644901579,13.52298105846961,59.249230671308375,1025.5253395807483,-101.88798294342288,0.7670170141026343
251.6871621608734,744.5764641524827,13.529858274281192,59.249582034873775,1025.543707191727,-101.93325262564201,-0.18542824001486324
251.9326343536377,745.0864566453041,13.537621341547714,59.25108337313198,1025.5619612408343,-101.96995447287185,-0.1493584775703166
252.1863169670105,744.3389677586996,13.541915280955598,59.27332369678811,1025.5248142279033,-102.04864763684976,-0.3100796587569805
252.43328976631165,744.5757875628261,13.531277550939803,59.28975207154058,1025.5419608835116,-102.11295895436545,-0.2604826219854704
252.67747282981873,745.444280018509,13.501510712668287,59.31218350917415,1025.5554660283374,-102.18863291598221,-0.30980141051082555
252.92194056510925,746.7181436168848,13.521047710836182,59.33177244593555,1025.5626713053691,-102.16268940368543,0.10612119693736405
253.16857981681824,747.177378369142,13.529819119534052,59.36858121881972,1025.561189932872,-102.09131681106561,0.28938302834559576
253.41524744033813,747.4720887952277,13.545824086779202,59.37910675021908,1025.5563251734648,-102.07858434661516,0.05161829802732207
253.66933917999268,747.6612169803589,13.554761438675452,59.40300747660907,1025.5537578662638,-102.0718074883441,0.026670586050315498
253.91427636146545,747.7825885615619,13.557168648399015,59.417760034724694,1025.5462763454123,-102.09744160632889,-0.10465812819584991
254.1588842868805,747.8604778550772,13.52315094334354,59.41355488696547,1025.4846679655532,-102.0674569832661,0.1225852533206196
254.40915703773499,747.5522051501125,13.510723080628246,59.407333709832294,1025.4534127609356,-102.07179258385806,-0.017323914951724594
254.65375399589539,747.3543734751703,13.530515074392532,59.38039882929888,1025.4850895659765,-101.9744380405912,0.39812153841734427
254.90087485313416,747.5856740647577,13.546332025109482,59.403950492499234,1025.5038147577122,-101.49285937611701,1.948182513140097
255.14625477790833,747.375851897801,13.55924781535079,59.415486503047696,1025.5314160218009,-101.68367657597685,-0.7776420839985723
255.39044165611267,747.5994576799001,13.57004621164059,59.42574545079529,1025.550502727933,-101.48060416037924,0.8316238120272538
255.63825869560242,747.7429549979792,13.577927354094449,59.41353813827725,1025.5638293284278,-101.606691955459,-0.5087796931395351
255.93088054656982,748.1933008851497,13.5768199218907,59.40889750913452,1025.5623403290454,-101.7055407095692,-0.33780593655977087
256.1763164997101,748.1240493798547,13.582871104443072,59.40281580641737,1025.5690583031126,-101.427236458876,1.133909210823676
256.4202275276184,748.7961228895217,13.590031296466574,59.38170065544847,1025.5751750126815,-101.66451671413009,-0.9727900664311565
256.66458463668823,748.8691634075974,13.595257118136733,59.40102814852992,1025.5818362421903,-101.82522465213235,-0.6576989999684213
256.91064858436584,749.2742941766883,13.603186812660796,59.391491314595164,1025.5743558378028,-101.85948962360507,-0.13925000959992404
257.1550443172455,749.5342837811168,13.57325242371713,59.39635293848147,1025.53623239932,-101.92006126252369,-0.2478371379377765
257.40841603279114,749.7011301417685,13.55552065693541,59.422426859504185,1025.5484164566778,-102.02296973412568,-0.40617675396373915
257.6524691581726,749.0916873917829,13.574185403290809,59.43108348473152,1025.5592910341256,-102.02254243904241,0.0017514184442108949
257.896812915802,748.3423245506582,13.585063978448465,59.452506548136654,1025.5569177960624,-101.83048047475386,0.7857672867393735
258.1527259349823,748.5779417586563,13.601287725916563,59.474965078126075,1025.5588953360711,-101.7752739459781,0.21580341541021444
258.3965768814087,749.0874048878812,13.609012866186086,59.47540183338151,1025.5618660671475,-101.60880833743043,0.6824035832103492
258.64269375801086,749.7726065641781,13.614651011824218,59.48032052208712,1025.5583428191258,-101.81901996698905,-0.8544076783126561
258.8875615596771,749.854071983815,13.598134907308479,59.51418622637415,1025.5143275238293,-101.91374110972767,-0.38668519964334847
259.1320037841797,750.2646093697103,13.610827462150112,59.504293149498125,1025.5309309967715,-101.93104634346837,-0.07079595483195589
259.3782296180725,749.453295921061,13.620091044456757,59.47723830273577,1025.5435783348837,-102.00175928773146,-0.2871781716848113
259.63210439682007,748.9326416566238,13.628223899472488,59.500117343365936,1025.5474314976284,-101.95095124560878,0.20012863406073833
259.87672448158264,748.5985157235115,13.634159613185467,59.52106446672863,1025.5511524392882,-101.97820766064224,-0.11142584433216575
260.1210482120514,748.3840929351013,13.639863643980405,59.54528026324724,1025.5550811835003,-101.97063953678979,0.030975259368132037
260.3652272224426,748.6047463032071,13.645398582436794,59.566459669009824,1025.5578734754909,-101.99883172778416,-0.11545661046459312
260.6189868450165,748.3880913624587,13.612291743754511,59.574563194859024,1025.5102012324737,-102.06872593698758,-0.27543445574907605
260.8642427921295,748.6073122636976,13.608759993283972,59.57896688620124,1025.5346600736864,-102.0560537712566,0.05166914759924381
261.1091570854187,748.747995617676,13.62544155021471,59.574297197570544,1025.503113675451,-102.09863225081662,-0.17385002174013825
261.3558437824249,748.8382780951896,13.634872706890096,59.552960082320936,1025.5263816390027,-101.901043425914,0.800973831052626
261.5997498035431,748.8962161917411,13.643127865017902,59.52602077739121,1025.5382153297865,-101.79753868849602,0.42437190227828675
261.84599351882935,748.933397526641,13.6491528408975,59.52297389640979,1025.5428377665478,-101.87936840031098,-0.3323022271211826
262.0996675491333,748.9572583668689,13.654922019130257,59.50978870039929,1025.5518930057638,-101.89100987711625,-0.045891696120735286
262.3436014652252,749.3308284499664,13.645360983006803,59.496946750048586,1025.5091061718945,-101.87640923067363,0.05987628648613579
262.5882143974304,749.2123066535614,13.631523485116976,59.47259848277093,1025.478332777356,-101.99126657834339,-0.46938399704643496
262.8430333137512,748.7779886183732,13.643427230338547,59.46855610310791,1025.4959552223113,-101.96957813958262,0.08514899352828366
263.089732170105,749.2157834458508,13.653486991857385,59.45936569044466,1025.513132177229,-101.56455373840488,1.641062874048381
263.3362913131714,748.7802198235073,13.660829046311962,59.4297354789073,1025.527335808262,-101.61130299692958,-0.18960080491829032
263.5804092884064,747.7841850268742,13.667559486161146,59.413625944754024,1025.5336126697377,-101.74659767456887,-0.5542276182562952
263.82461309432983,747.1449872356159,13.673843542889855,59.41802726669087,1025.541082444173,-101.80350959521961,-0.2330561492626307
264.07075810432434,746.7347868914807,13.681173696684372,59.41841255054329,1025.5309978294176,-101.78696685960365,0.06720649480971425
264.31429505348206,746.4715439256416,13.672804693763217,59.42152074119239,1025.5292408897164,-101.81798681699786,-0.12737169681750002
264.56808376312256,745.2278370364442,13.683159273129313,59.396725537711134,1025.5198549573827,-101.83000858535668,-0.04736826635384873
264.81230783462524,738.3393188731105,13.683857063491287,59.414823009938274,1025.5260428969073,-101.7975709458874,0.1328217673762902
265.0568919181824,722.8126798300359,13.694022315431395,59.42179106492028,1025.512828041864,-101.65524985331453,0.5819407332267762
265.3098545074463,717.1476675869154,13.69864482250269,59.425234517821835,1025.5084940086435,-101.4989243600977,0.6179490011350116
265.55376172065735,720.3190826815941,13.704815069486207,59.430900575997384,1025.512526037007,-101.4573471255185,0.17046215871365167
265.7996735572815,723.7873445905739,13.712062159945166,59.40383525539084,1025.5118333819996,-101.44136588017525,0.06498524556082835
266.04360151290894,719.9226967362436,13.707695429919635,59.42789767993871,1025.4899606582926,-101.42158484722171,0.08114363780692671
266.2873303890228,714.9347852426928,13.711420599088253,59.44408029198432,1025.494834135282,-101.50331678044708,-0.33514285200108285
266.53258752822876,703.8521642687778,13.714139390665695,59.4572044190164,1025.5047530242848,-101.51488395437363,-0.04718253514780482
266.77669954299927,616.4902805816075,13.72161123186335,59.45338240410907,1025.5118410363168,-101.57890404120089,-0.2621497299713329
267.03029441833496,532.8406201595989,13.725692621733929,59.47161360811156,1025.5073948152308,-101.42134634079738,0.6212939419806597
267.27510142326355,470.9191596711116,13.72729951176449,59.457855186525826,1025.5083915624998,-101.55934339020982,-0.5636956600409896
267.51892614364624,428.67372813037747,13.731216064498323,59.486565655040444,1025.5044232538075,-101.58137842072306,-0.09037410098976813
267.77160811424255,400.4882695072321,13.735446423195398,59.48716203230382,1025.4957613965107,-101.58559630616745,-0.016692671710594322
268.01807594299316,383.1169799245243,13.739905811225425,59.488910746305166,1025.4786094429319,-101.56182246767514,0.09645696823834046
268.26233196258545,370.1777984792434,13.743160467877994,59.48565429712389,1025.4851105725431,-101.49014114709291,0.2934691254522546
268.5070140361786,359.7246313128377,13.74279208479154,59.4621900684664,1025.491143000215,-101.54398689158701,-0.22005532578257947
268.75096321105957,350.15032985303486,13.745266996711061,59.465823398511425,1025.4910013646859,-101.52271071834973,0.08721670639281627
268.9970600605011,373.3832150624769,13.74707329580169,59.42925811718321,1025.5015774043977,-101.53403573586826,-0.04601911880545519
269.2510678768158,381.12759189450264,13.752507273012718,59.43574488381187,1025.5079329176926,-101.61661407205906,-0.32510247094091493
269.5027587413788,352.4212755728441,13.750985679471375,59.43791734212099,1025.5077234266973,-101.64753290178945,-0.1228924272531594
269.7469975948334,327.5505781148338,13.747131379850348,59.46078801906581,1025.515447894749,-101.84057874242515,-0.7900830795278184
269.99097871780396,305.4996175983654,13.75117777828141,59.462370253894186,1025.5338105986298,-101.78101727799744,0.24411847791718386
270.24389362335205,291.70683817106556,13.751387243013792,59.4679922041571,1025.5413045798578,-101.66760084590979,0.4484443075372899
270.48911356925964,285.0049717949524,13.757027667601195,59.45396357537594,1025.5463195599348,-101.58670103162049,0.3298949649976925
270.7330746650696,282.8536451948032,13.758400522421896,59.46435181832344,1025.554221145524,-101.72374392155474,-0.5619620796746956
270.97716450691223,339.1525163224037,13.762146266011609,59.46792746922475,1025.5574887273876,-101.78442180703205,-0.24850579837168452
271.2209565639496,374.20711800599815,13.764880073702482,59.47743059656369,1025.552602205299,-101.8056016478281,-0.08687530533374474
271.46858739852905,370.55034071761463,13.748988030204133,59.48364848372689,1025.5244872127328,-101.89349818954861,-0.35494375575816234
271.7225112915039,363.1880255998159,13.755276617035667,59.49285132837818,1025.5013924121636,-101.89270412149062,0.0031283494516720334
271.9668731689453,362.7624064359273,13.763981964111,59.499633857477804,1025.5161294665745,-101.87276529206449,0.08156501980118157
272.21042823791504,367.14661696266677,13.770335507597434,59.506095081621744,1025.5245370690516,-101.67399067858395,0.8161358766849428
272.463730096817,380.70787796680713,13.777769140755563,59.51540982045298,1025.5319608544198,-101.43961536099867,0.925582991126067
272.7080361843109,404.81579005261904,13.776282331787064,59.52358721721053,1025.5382207007954,-101.61084340827303,-0.700634394549136
272.9543092250824,435.69193563726486,13.782109393449456,59.53573154642972,1025.5391535901235,-101.66517490881668,-0.22061403870887025
273.2000000476837,522.1423762755423,13.782193812281431,59.5584615381077,1025.5336151561082,-101.69677876982928,-0.1286357683486253
273.44401121139526,587.6525041148045,13.789167624793734,59.5734074484522,1025.522688461951,-101.7135902101973,-0.06889484725238836
273.68972086906433,628.9766176380365,13.798373079575642,59.5845141488486,1025.5275894995991,-101.66341170710295,0.20421511785148108
273.9337320327759,655.4960546888758,13.803719736551702,59.59413140567822,1025.5178362006916,-101.65739400390834,0.02467070146097027
274.18693709373474,671.4399299690035,13.806250073919523,59.603772765392875,1025.5213972226575,-101.62046108447136,0.1458117192445623
274.4331748485565,680.9552761039408,13.806724937915886,59.616787076122506,1025.523087243007,-101.68037346222752,-0.2433888628508691
274.6774260997772,686.7034198901707,13.804327740427015,59.604019575483505,1025.5237140639208,-101.72035294425066,-0.16362716589051277
274.9305307865143,678.5697478610805,13.802578160730846,59.61461045515795,1025.5230362747568,-101.67272189364215,0.1881905219409006
275.1741199493408,650.0632833869934,13.804045014884583,59.62976314300614,1025.5205715349814,-101.6810435250378,-0.03416330387091834
275.4203267097473,646.0997783701282,13.800947163351415,59.621310023671086,1025.5227869740797,-101.7208419854304,-0.1616366361538583
275.66447472572327,641.4066836103152,13.811085963659215,59.63320800859777,1025.5292511408163,-101.67307881730932,0.1956423309341091
275.9083938598633,633.0210620301316,13.817113817069526,59.6627141670503,1025.532983835197,-101.62385738872456,0.2017924664652145
276.1540107727051,638.3873799408418,13.818769434409969,59.663559202319824,1025.5316175909588,-101.66660837600602,-0.1740520037687343
276.3979299068451,662.6101128704641,13.824093437481642,59.69564277348802,1025.5292569370795,-101.70155718979329,-0.14328158944735378
276.6508586406708,679.5878986521617,13.823863467011245,59.68594818879453,1025.5185226491735,-101.70020527764267,0.005344774953803544
276.89488673210144,691.5580368727784,13.81683618942492,59.68609621770703,1025.5165943628851,-101.66237341212896,0.15503653660672118
277.1388576030731,699.5980400374464,13.824054357651784,59.67911329623189,1025.5079935755025,-101.77839483075904,-0.4755595017241992
277.3920216560364,705.1159087790991,13.826578718867005,59.6816389661399,1025.528301134638,-101.79063836748996,-0.0483612010222082
277.6362798213959,709.0152168460672,13.825677334192104,59.68466142942594,1025.5386535257476,-101.72027206554606,0.288096018816618
277.8817665576935,711.8758258517445,13.827763238213235,59.68515708437505,1025.5418163376382,-101.74821782835042,-0.11383430859984503
278.1280155181885,714.4281151667618,13.829285622305688,59.68887302973431,1025.550335526712,-101.86853392371155,-0.4885972354235093
278.3720316886902,716.7825426541226,13.831768611892123,59.688894807093575,1025.543903287302,-101.86578368825253,0.01127020332371527
278.61785769462585,717.9352211028123,13.826721371350716,59.66466521405571,1025.53648176158,-101.8856321085701,-0.0807467555750701
278.8695442676544,719.0332013415601,13.825781448221202,59.66353830808043,1025.534853446176,-101.87889090652199,0.02756899472621958
279.11601758003235,720.0960794181156,13.827839225190628,59.6658708313581,1025.5430547990436,-101.87022357280696,0.03422201681875627
279.3599944114685,722.9277187952677,13.832084854955939,59.68564088367027,1025.5472224184778,-101.77209903787579,0.40155888810396223
279.60416555404663,725.4614170704643,13.836555388480255,59.67267011688928,1025.540039057377,-101.65865450582052,0.4646220688520016
279.8585202693939,728.5204290377362,13.841190066616008,59.678580402300156,1025.5447193603143,-101.78191867500233,-0.48462658776765394
280.10447120666504,730.8417843820511,13.84320077064995,59.665473578325255,1025.5566186821025,-101.88749983300863,-0.42927356999159105
280.3489201068878,732.331496602776,13.844668270498888,59.65223730685073,1025.5252364422045,-101.87773969546227,0.039926757142062126
280.6410245895386,732.9292505745606,13.838879881080661,59.64349254363214,1025.5221012000777,-101.77509314568589,0.35140268133550673
280.89375138282776,730.4467941052926,13.841514696087554,59.6676640307319,1025.5283696740692,-101.75822582107209,0.0667619342870939
281.13813066482544,729.2119540265787,13.844809586466612,59.66730445525589,1025.5343844760832,-101.8133691551877,-0.22558049475661363
281.3850154876709,728.7777623226763,13.848586228755742,59.6763083143675,1025.5331675706932,-101.84486207284107,-0.12755797044736888
281.62919330596924,728.499123083309,13.845855039616804,59.69188049733554,1025.51546589563,-101.85348649067566,-0.03532006219854027
281.8736915588379,727.962050891108,13.84934924624319,59.70640122506011,1025.5246615858605,-101.89413671894413,-0.16631509358774627
282.1198604106903,727.6173888771286,13.850527584230484,59.726133005609405,1025.5390236977055,-101.86696448331901,0.11034531771875379
282.3643743991852,727.0379470690793,13.854131360917647,59.7420453435026,1025.5464003918196,-101.82341723308511,0.17810238338297832
282.61903047561646,726.6660946748459,13.862301867885348,59.72921348049388,1025.551860521959,-101.80473727228464,0.07335230830216562
282.86381936073303,726.4274612155816,13.8613528616894,59.73075903958103,1025.5539511518532,-101.8510626390185,-0.18924693901741815
283.11051845550537,726.2743199994337,13.864775896452624,59.751533214485775,1025.5500226376828,-101.86487748971915,-0.05599651667869111
283.36379623413086,726.5343003526682,13.86453040308429,59.787718087759934,1025.5526097834309,-101.86434716345416,0.002093990302287294
283.60860323905945,726.7011407764362,13.864351231274384,59.790081963646465,1025.558588758024,-101.90392341143907,-0.16165392244859253
283.8626751899719,726.8082093554915,13.868336124882148,59.78727351750024,1025.5579526550598,-101.87347765061446,0.11987985277231679
284.1075999736786,726.8769198056451,13.869872587714717,59.807490611714236,1025.5565110724258,-101.78506104196343,0.36083688108698014
284.3487980365753,727.2792717864234,13.87379050448071,59.80011495503346,1025.5581861614164,-101.72616636442656,0.24418475472173626
284.60309314727783,727.8957356939818,13.876649971694773,59.79308479350578,1025.5594087147106,-101.77690727127836,-0.19960719538038788
284.8480701446533,727.9330891708411,13.869080962099309,59.784931385403134,1025.5579518921159,-101.85390306566433,-0.3141800306026022
285.09438705444336,728.3153180513641,13.87458462845619,59.77616038690717,1025.5475646068005,-101.95818576766702,-0.4233680184262733
285.3385879993439,728.5606105421599,13.879973332172103,59.765225002237514,1025.5358927873806,-101.92375991594768,0.14097290774659968
285.58317399024963,728.7180251413877,13.883906244105226,59.73766287279272,1025.540559518012,-101.97982019840998,-0.22928235206567635
285.8285901546478,729.1773023383886,13.885404768435462,59.728126299618125,1025.5458601963107,-101.8757745273901,0.42382513017919116
286.0730080604553,729.4720400030671,13.885126570095833,59.71485284998735,1025.5460924836157,-101.91044017048151,-0.14188336878590227
286.32839274406433,729.6611856683592,13.88766730279261,59.70963276459302,1025.5463385052628,-101.92138074425034,-0.04282327346248262
286.57244777679443,729.7825684673231,13.888149753755235,59.70162329955913,1025.5514415970024,-101.88064671831803,0.1669543405498944
286.81672525405884,729.5022073902561,13.8815896676412,59.68664325322667,1025.535162617348,-101.90275331449213,-0.09047254677405256
287.069947719574,729.3222877912402,13.879545603568104,59.690823558865155,1025.543208466414,-101.96760613808078,-0.256113446836462
287.3162479400635,729.565083319968,13.883594069040592,59.680404939643736,1025.5432480402553,-102.05363996281858,-0.3492783285385853
287.5599720478058,729.7208955126894,13.886548816417141,59.65748883283585,1025.544865487972,-101.94152441659051,0.46001547972207313
287.80407214164734,729.462629238453,13.890077207448813,59.64983175456143,1025.5451368553063,-101.92280542383772,0.07668962038549412
288.05445194244385,729.2968888119073,13.89539615575219,59.64457407368922,1025.5511676099472,-101.87919992956446,0.1769644435833525
293.0257782936096,729.2968888119073,13.89539615575219,59.64457407368922,1025.5511676099472,-101.87919992956446,0.1769644435833525
293.28651690483093,635.6853005093956,13.831897398818267,59.576007816773284,1025.5374603252621,-101.92223493995701,-0.008222213891607977
293.53894901275635,579.9098631427099,13.822699704648523,59.49869874104486,1025.5386730081814,-101.94307808318337,-0.08246026749013276
293.78474283218384,541.6085954180971,13.829705694827737,59.484982468777595,1025.5470535015654,-101.97013791833996,-0.10956785250992467
294.0386118888855,539.24101608583,13.841678408306779,59.46051589202011,1025.5562071613253,-101.92929891246848,0.16051307380302873
294.29436564445496,597.5506540764914,13.860072592845503,59.439175848399486,1025.564175150904,-102.04256305359478,-0.4435603652413142
294.5484755039215,642.1355742723628,13.866638039101725,59.38508685828393,1025.558325303922,-102.11521113573092,-0.28503902366774997
294.79600763320923,671.4641244616978,13.882404885375404,59.36690314934337,1025.549510466877,-102.08641531287492,0.11632571911203037
295.0482122898102,690.2854995433725,13.892540333173212,59.34436691577566,1025.5548142255018,-102.12346764484218,-0.1469147225789801
333.0335102081299,690.2854995433725,13.892540333173212,59.34436691577566,1025.5548142255018,-102.12346764484218,-0.1469147225789801
333.2847821712494,574.4660222237981,13.920568696874634,59.33218106379077,1025.5731339122522,-102.27022853573759,-0.0038384911806598992
333.53198623657227,500.13974934898334,13.980915277172691,59.35996254905587,1025.5884512315336,-102.32657952584674,-0.22713360313396636
333.77550625801086,452.08316877446975,14.037305837058714,59.360968535355525,1025.594536494957,-102.35885737085098,-0.13266193284614433
334.0235323905945,421.24322195485007,14.077090249887195,59.35617556487983,1025.5890510458673,-102.42611716562357,-0.2700885457891124
334.2776234149933,401.4519195262004,14.114410743419993,59.33169440217371,1025.5954986714598,-102.48826703131158,-0.24410486004056417
334.5212993621826,389.1092585722864,14.148508308861844,59.31981307113534,1025.5992164635504,-102.53608380956265,-0.19643339583975464
334.76558446884155,381.1884493328297,14.17750986623011,59.308504970713415,1025.604501856181,-102.46793511775604,0.2789716746413436
335.01016640663147,376.1053299599389,14.200048359734799,59.277301021624545,1025.6125150655068,-102.42815244039535,0.162752286808742
335.2771542072296,377.85888255197403,14.216497939212967,59.26978423796308,1025.6118552646412,-102.45031771112595,-0.08278359720720173
335.5321171283722,386.50762061381124,14.22713167559902,59.26909560907132,1025.6125811396655,-102.42835121899121,0.08641697180595873
335.78400707244873,397.4317463408445,14.239008303085209,59.25780899102655,1025.6052217894478,-102.35852661623609,0.2763665288611944
336.03828287124634,408.38305460049804,14.246304498866506,59.25549338163067,1025.592652136411,-102.10521580845653,0.9991907767564729
336.2990117073059,417.91877676672027,14.253001469047865,59.252743414707986,1025.5680931899421,-101.95214078044579,0.5853737544874156
336.5520017147064,424.39651185578214,14.262004872174243,59.24600372726917,1025.5497141801518,-101.90092161577134,0.20306690884357462
336.81313848495483,429.2700644549916,14.253485192870528,59.239507320609974,1025.5441719520302,-101.82798888858676,0.2785726586812631
337.0680003166199,431.32285723671265,14.25687036694774,59.24423381894144,1025.5333045394837,-101.63485795516425,0.7598310901664805
337.31933522224426,432.2819638962807,14.26345667625996,59.25689064322946,1025.521437343487,-101.56565367955706,0.27449616148814315
337.57410621643066,432.8974633351048,14.27654774016377,59.262840602818684,1025.5214837457838,-101.60944055497416,-0.1724551918214022
337.83406019210815,431.85942516296757,14.287474058847367,59.29178197803219,1025.516369742278,-101.68134760187952,-0.27569943138216735
338.08911395072937,428.68546903695477,14.285792590686697,59.3234953119795,1025.520732126996,-101.63322452199354,0.18924870372275462
338.34456992149353,429.15640970480206,14.2942213555737,59.35683727873993,1025.5158076679365,-101.5950035882429,0.14916879780590742
338.59778475761414,438.7733291204949,14.297629263241255,59.37650271319396,1025.5080407921191,-101.47954684314814,0.4573415633586465
338.8507146835327,457.12567172313663,14.298744616469524,59.385328214262984,1025.4981993012382,-101.38403023852155,0.3765034756691055
339.1157534122467,475.71004249082176,14.305046198148386,59.39183462391022,1025.4732977353083,-101.26181178652917,0.46247933280295694
339.36838960647583,489.0694520346536,14.304157820338444,59.38290154015323,1025.466849867116,-101.24321685798836,0.07338059276157805
339.62211513519287,498.35926712440727,14.306253217339169,59.360730704536515,1025.4563100300616,-100.98289245978887,1.029102362357186
339.87514328956604,504.679193208538,14.313270077877453,59.30527896060294,1025.452711323782,-100.94148291166331,0.16315946865608746
340.12900733947754,509.80973064286303,14.31290374189984,59.288215203393506,1025.4397024149364,-100.95186268462103,-0.04101150128552559
340.3838560581207,513.4604717752562,14.302980399883205,59.27128663854379,1025.433688146593,-100.92877943569233,0.09030618436041127
340.63805198669434,515.8033072627007,14.310881432387541,59.25287896375279,1025.4361796408332,-100.87377095334882,0.2170484615011992
340.88947916030884,518.0233193416765,14.322135499934273,59.265964256899906,1025.4380774685237,-100.8616635654603,0.04800996979443938
341.14682269096375,519.8062528584832,14.330349211224432,59.27333366225535,1025.4437730990614,-100.969098243451,-0.4187198115865416
341.39726996421814,520.5921793774909,14.336343937387035,59.26074831445446,1025.4480094698647,-100.95683741313677,0.04880709991288211
341.65388655662537,521.0965417719967,14.340719151038341,59.213603944551416,1025.440877437946,-100.91740767554991,0.15415791796732178
341.90596747398376,521.4202125209019,14.339796712503249,59.13341626450569,1025.437195562032,-100.93738808214913,-0.07899678684747885
342.15969347953796,521.269668204492,14.337751589455072,59.05023436888749,1025.4333024439368,-100.79409207944923,0.5664924825848566
342.4201862812042,521.5313150984761,14.328027647021937,58.984668616650765,1025.381410572608,-100.78999350971284,0.015687115823496058
342.67544627189636,521.6992250121554,14.322302575054406,58.90731263787675,1025.3784443126367,-100.88255489077146,-0.3637191720931467
342.9290602207184,521.8069799282656,14.30846819286331,58.864411307553866,1025.39414134066,-100.95451413853642,-0.28287218198802794
343.18177914619446,522.2343883995246,14.312142889977784,58.77887110935759,1025.4174826928738,-101.038173154779,-0.3320542414018252
343.4339120388031,522.150416981193,14.316196731853445,58.733087544383366,1025.420575918625,-100.83132468219429,0.817902694670853
343.694611787796,522.4547865285955,14.324642951218094,58.69160508460448,1025.433057470543,-100.85449893194733,-0.08903082508088057
343.9461989402771,522.6501133817171,14.317035736935315,58.658990790793155,1025.4201378620428,-100.93451878170704,-0.31804629479648727
344.1958646774292,522.7754629111822,14.330742841918948,58.632285505141816,1025.4038859161988,-100.94660279066534,-0.04839996439027918
344.44177770614624,522.8559050228837,14.339375000331065,58.6081294434498,1025.4112445029616,-100.96976976189833,-0.09420670757075515
344.6943848133087,522.9075281391619,14.347047014539699,58.584632480415934,1025.4200157180699,-101.02357047323085,-0.21298278513270075
344.94352984428406,522.9406568832725,14.354018273465714,58.561366925215395,1025.4321767707158,-100.84495871166075,0.717147181580907
345.19561982154846,522.9619170040376,14.354990542448068,58.53984611638281,1025.4387779236565,-100.89365753261326,-0.19311821465846457
345.44491171836853,522.6173029561146,14.354328259911819,58.530255708010905,1025.4233024002815,-101.00421654815561,-0.44350409163672194
345.6953065395355,522.7544070689102,14.362128984082347,58.515753084646256,1025.4242671822944,-101.04739935864707,-0.17245280473437477
345.9450566768646,524.27542287347,14.367822294161108,58.51286086204951,1025.4320157397908,-101.04890931660348,-0.006046093706310829
346.19553661346436,524.1767505442372,14.371977521155982,58.50898485538674,1025.4356920015914,-100.8875585536052,0.6441737736945946
346.44809675216675,520.8891101983914,14.380497735820096,58.533777029218626,1025.433905685258,-100.98588698247919,-0.3893025378427627
346.7015435695648,521.2870948786932,14.372944526546982,58.53818663260522,1025.435411087998,-100.96960008109644,0.06426233876587525
346.95368337631226,521.9007561042291,14.375715950644162,58.541467388344586,1025.434394556454,-101.02766685787878,-0.23037698831066036
347.20951747894287,521.9363109811153,14.38185431834599,58.56063661638149,1025.4374281661562,-101.00318673015782,0.09566147627359398
347.4705879688263,523.7504159017024,14.389078141909238,58.57311354102694,1025.4435770504901,-100.8535315285103,0.5731901719215965
347.7227339744568,524.1980888636388,14.39435040466341,58.579129936119756,1025.4436750384023,-100.85977611002059,-0.02477564593893169
347.9746210575104,523.4106068898162,14.399570219897333,58.57891761617203,1025.4398914155445,-100.99496044512405,-0.536471460744946
348.2296690940857,523.6217614329481,14.390980121615163,58.57428432237861,1025.4269014792612,-101.09230942591736,-0.3816895205476788
348.4854679107666,524.1155258321652,14.397110439750337,58.583199433326186,1025.4414892130812,-101.18145630743612,-0.3485116814664653
348.73884081840515,523.3576226893285,14.402956501373954,58.58321368238658,1025.4401720812543,-100.99427544630632,0.7387418179356268
348.99059987068176,522.5129865148621,14.408595100148377,58.58971647125996,1025.4475351888664,-100.9362397492654,0.23052341534054352
349.24355268478394,522.3292052128636,14.412710396437637,58.61262615425086,1025.4505545571442,-100.98811989672045,-0.20517605825547686
349.4968144893646,522.2112649534378,14.407482597790198,58.60373969408778,1025.4267162923109,-101.00281876405668,-0.05801458380510144
349.7493875026703,522.1355776846996,14.414642217529064,58.60330875112987,1025.4354398838523,-101.03605356817182,-0.13159127233806736
350.0032024383545,521.7287483834057,14.417123847494015,58.60009191409605,1025.4341527318918,-100.84932837396863,0.7359213592558138
350.25621819496155,521.1094111892974,14.427166371788832,58.624990880830985,1025.445711934167,-100.93837534645151,-0.35181675358496906
350.50754046440125,521.0702138025441,14.430380184722301,58.6191316303441,1025.446334354116,-100.9952043644127,-0.22612139209603108
350.75525641441345,521.4033167457952,14.423122557034125,58.58748237453116,1025.424386368425,-101.03977259199448,-0.17991372121345847
351.00817108154297,521.6170830382054,14.420569396576182,58.5721392746836,1025.4437282249094,-101.08289464488826,-0.17049960024791247
351.2633671760559,521.3960083687609,14.431052971396554,58.56989926288635,1025.4493560820304,-101.09317848185297,-0.04030915653627793
351.51494908332825,521.9706505120599,14.43870434335658,58.56681304494651,1025.452473653481,-101.13316272407165,-0.158888396616165
351.7666220664978,522.3394227577709,14.442916762638855,58.5617225249177,1025.4497488532215,-101.16234497487798,-0.11595623883155289
352.0199398994446,524.7256249720094,14.445991170685016,58.54570718971578,1025.4464709882209,-101.13046517979761,0.125844495708151
352.28300976753235,527.3317248891367,14.441375573232625,58.552623717074034,1025.4457427221114,-101.08535017615999,0.17156092631717937
352.5344777107239,530.0789424925781,14.449034769095913,58.554456650720255,1025.4421065763258,-100.93498511826647,0.59772592662593
352.78688859939575,532.9167213030219,14.454624785618792,58.52659344687367,1025.4459567399338,-100.97887296633492,-0.17387183087346852
353.0386326313019,533.3048140960876,14.46007651146696,58.50209085763644,1025.4546012820942,-101.10336680295839,-0.4945198535520547
353.2961366176605,535.7034151253443,14.464055419711825,58.510130813493745,1025.4531971579393,-101.12295220333552,-0.07606074252641147
353.55081939697266,537.9592143186611,14.468331288191283,58.52508218293961,1025.4562458417906,-101.18910502665432,-0.2597364783884626
353.80501556396484,537.6155685282322,14.470080117226459,58.546779215224724,1025.4589258814965,-101.06058779434798,0.5055994859323447
354.056015253067,538.828066721432,14.476844037287924,58.59087356569249,1025.466636291894,-101.06922174625653,-0.034396852454035835
354.3110873699188,547.8461023573168,14.484524416355,58.61454037681455,1025.4671786250703,-101.1397425760591,-0.2764774433154401
354.5619752407074,546.4682070747532,14.480526684213704,58.6091668360176,1025.4767543651883,-101.20996917323131,-0.27991574297295574
354.81641006469727,541.6431199426889,14.487212173337651,58.6127522620724,1025.4750984576929,-101.25504342646282,-0.1771537542609109
355.0675880908966,536.3971113821889,14.48248832695149,58.644070684656334,1025.4803937778954,-101.23542028007586,0.07812134050719649
355.32079696655273,536.971358362578,14.490015753117763,58.645357553647735,1025.477513873518,-101.31091482527577,-0.29816389317243064
355.5742290019989,540.2059375714474,14.499625259386045,58.649951507010826,1025.4821566541314,-101.02569093639677,1.1254558709310654
355.82642579078674,543.3564770030931,14.50663869784293,58.62441352837078,1025.4463859895316,-101.03536750530482,-0.03836752427819801
356.08222675323486,545.736569404853,14.498038542200002,58.60898998304959,1025.4538174581887,-100.98880575052969,0.1820299927860017
356.33607149124146,547.6222332570791,14.50548064216118,58.62038089258069,1025.4507570101775,-101.00535815242111,-0.06520777530913116
356.5875496864319,548.832343760721,14.49993711648119,58.625165383882205,1025.4538225776148,-100.87134861975669,0.5328640461542467
356.84442043304443,551.400210863985,14.505494417793194,58.659248819613445,1025.4496898800612,-100.9288990016467,-0.2240484929200914
357.09793043136597,554.8394079875238,14.506806605607698,58.672390238557156,1025.4488682235315,-101.01771603350234,-0.3503521920947554
357.35081219673157,560.2708048340277,14.511879958773203,58.64861005092341,1025.4502253204669,-101.07191471967283,-0.21432320594158435
357.60208225250244,593.133483345975,14.526610575058445,58.65428065495171,1025.4568372022886,-101.12827058695835,-0.2242778847014013
357.85523533821106,628.9114188764363,14.530449423897347,58.642084943154046,1025.4662130542488,-100.85067711972869,1.0965438815514863
358.1118001937866,746.451636529019,14.534623070889392,58.58258335078933,1025.5033236505221,-101.13515393551903,-1.1088436020079673
358.35987997055054,822.240439056901,14.529437859139913,58.51310775183857,1025.5270888257853,-101.49480970576376,-1.449739015046616
358.6624743938446,869.0860415486853,14.496791072387671,58.43537019634186,1025.5241869072713,-101.52923029455071,-0.11378401766022839
358.9150333404541,899.5071099197023,14.468848356833963,58.3578080974838,1025.5313040378257,-101.70532444097556,-0.6970331738045623
359.1712281703949,919.0296002746597,14.46080152258435,58.22810778508483,1025.5445280527294,-101.83271848523691,-0.49721706750312733
359.4305989742279,930.1249804065668,14.448069155526117,58.11103846766033,1025.551768097326,-101.93694817513756,-0.40182044941161443
359.6829869747162,940.4696747452475,14.440148403533906,58.02099408369389,1025.5621357849323,-101.98366973060426,-0.1853860912286202
359.9275059700012,945.3170161854998,14.431623717868263,57.96127168162766,1025.5631747067057,-102.00342184575351,-0.0807450659818288
360.17191314697266,948.7860184323478,14.43088957704309,57.93142984631699,1025.5629435504552,-102.01652694935208,-0.05361912534744043
360.42540884017944,951.0122243656652,14.430353768922226,57.905228332289106,1025.5633888431262,-102.06294286089692,-0.18311489257717992
360.669438123703,954.5904205890893,14.425847051653353,57.91475051567767,1025.5610638132557,-102.08687808657324,-0.09807776222855875
360.91620421409607,954.0206403743664,14.423929739063226,57.963845871698084,1025.5599807484048,-102.09065466308681,-0.015304350576552357
361.16020107269287,955.8045336514904,14.41841473933919,58.026926022215804,1025.5631256263187,-102.06031046465107,0.12436756652187535
361.40464329719543,954.0832731029477,14.41164587702225,58.12134204082883,1025.5623953730492,-102.12817698097449,-0.27763041711098063
361.65075731277466,952.6204096054989,14.405333777894125,58.23414633093916,1025.5623967196846,-102.04155672621536,0.3519404839798317
361.9057490825653,952.0398855986456,14.400726931555413,58.31931570963549,1025.5617259436806,-101.98762543253423,0.21151099501055104
362.15014934539795,949.5177932945478,14.397364653372241,58.37869858240405,1025.5636483816706,-101.8901770739823,0.3987100513183667
362.39430713653564,946.8244869408729,14.397654489553116,58.46870783754747,1025.5539913567047,-101.86035288333468,0.12215213109525293
362.6384403705597,946.5291082533549,14.393750363649069,58.543415799608475,1025.5546815478997,-101.86793592250937,-0.031063768744932076
362.8916804790497,946.6978087860035,14.39227284862334,58.617744356434564,1025.544955578344,-101.82907630863045,0.15343465779023988
363.1389482021332,948.2391013538352,14.385654180521174,58.68857675672152,1025.5570262404906,-101.84572096165587,-0.0673150112699731
363.3868944644928,949.5864717619294,14.384992012646487,58.740400292601755,1025.5559074086173,-101.86475797944935,-0.07677954355514721
363.6311573982239,948.301591105436,14.384508733536448,58.779736802652536,1025.5478918254755,-101.89299985323422,-0.11561876037265051
363.87736535072327,946.0439983920476,14.389643563333697,58.80390602969986,1025.5475004619054,-101.87737320727763,0.06347157235021972
364.1237154006958,944.5952053570686,14.387903638910673,58.82582964976524,1025.5531233294798,-101.92287848858136,-0.18478038275387892
364.3780345916748,944.0237109629988,14.383837226966763,58.78886159830622,1025.5543597820815,-101.9324491298584,-0.03763984448934478
364.63111329078674,945.4482466090068,14.375381833415886,58.79624605638552,1025.5496653754142,-101.92329100805794,0.03607843011849517
364.87637853622437,947.0789467158073,14.365095055916367,58.78795296301347,1025.5673809147142,-101.97530696440093,-0.2120808326438366
365.1298403739929,948.1254361657693,14.354843541231663,58.75314781298982,1025.5661497275735,-101.99517110980057,-0.07837031399034947
365.3746473789215,948.7970128488852,14.350105310946946,58.761164170800946,1025.5778293422727,-101.96662080070286,0.11692276924000058
365.6285734176636,949.9445072407692,14.342531481966692,58.774328110470876,1025.5856805833084,-102.05013537977612,-0.3289050596619913
365.8731486797333,953.5469636367717,14.332888108892874,58.792888127094635,1025.588681643429,-102.04178844932846,0.034140450320524145
366.1217153072357,954.0675249126506,14.327221839971754,58.830771652777194,1025.587233123735,-102.11119470922115,-0.27911193155537395
366.37628054618835,952.2520457540861,14.327202009838043,58.82828377926519,1025.5969347287069,-102.21125168508584,-0.3930574213824684
366.62094044685364,950.7287181768432,14.324443762911315,58.84765313250842,1025.593256586758,-102.24367784426238,-0.13254094642215336
366.86759638786316,949.3928766654734,14.321058786512307,58.84810737134873,1025.604060080957,-102.2898439299402,-0.18718603878664505
367.1125304698944,947.4608377787115,14.319960169527942,58.860353798859435,1025.604903756011,-102.25358825998492,0.14806452514338928
367.35748744010925,944.7879361697095,14.31778646373296,58.85876320088568,1025.6053009790949,-102.34027506429322,-0.35373263524585413
367.60154461860657,943.0726217946494,14.313456224034452,58.88017219686927,1025.605585161605,-102.37109231921687,-0.1262748292282203
367.84588074684143,942.6883469175103,14.307499286577436,58.885142070123514,1025.606247405248,-102.36858516428696,0.010261049654540411
368.0999827384949,944.2330292713513,14.301779765764753,58.878177541993345,1025.610526686924,-102.37115328470473,-0.010106737407967763
368.34717869758606,945.2243174794623,14.296233522015134,58.88948154276212,1025.5976694100086,-102.30062468480249,0.28531233265889355
368.59120893478394,945.5022116139704,14.283954308386566,58.86110221988417,1025.5862472328859,-102.11610253680773,0.7561571668584831
368.84516048431396,945.3222905017769,14.269504852543012,58.82809634061922,1025.5801221196232,-102.15585399340144,-0.156529451678197
369.0894236564636,945.2068274899389,14.253418694014984,58.797703064120945,1025.5707214377583,-102.11491792588991,0.1675927911041753
369.33166694641113,944.774472406593,14.241678311138456,58.816431630126374,1025.5665168183298,-102.07878267290798,0.14917190550926418
369.5762460231781,943.4222390960788,14.231737778612363,58.80998757265187,1025.563222100831,-102.01685075375215,0.2531986406752895
369.8200740814209,943.6292263132672,14.218995194643863,58.79318227089561,1025.5602207068503,-102.0391380439939,-0.09140871476833835
370.06614899635315,943.762058793109,14.206951324862928,58.75961197092084,1025.5620447933975,-102.04105136284808,-0.0077753586077450995
370.3212990760803,943.8473030315726,14.196789294304875,58.74273780194588,1025.5588285576284,-101.99306216122628,0.18808014315147623
370.56559109687805,943.9020078763507,14.19211637345413,58.71510571666638,1025.565355671261,-101.96811316228936,0.10213145647085316
370.809689283371,943.937114296399,14.184590210158568,58.70874240409556,1025.5679881585404,-101.95675896126377,0.046512439766539765
371.0539982318878,945.0344162842139,14.181841060655684,58.66621515881163,1025.5659729329964,-102.00277898339607,-0.18844133103478572
371.3078510761261,947.1716318068538,14.182578384995187,58.62301173153539,1025.5732984055892,-102.13952403889749,-0.5384827229060254
371.5539810657501,948.5431736908646,14.179000855543979,58.57496317378507,1025.5759163999103,-102.12310363533649,0.06673497670842841
371.7984552383423,948.7068351740571,14.177761704910578,58.548910202557906,1025.5804775864785,-102.11679799325698,0.025786761941062743
372.0427043437958,949.8866364005478,14.175485431504825,58.51754369735285,1025.5872884865303,-102.182785635522,-0.27025608737990175
372.28684544563293,947.7777043511833,14.171080333472732,58.519043278539144,1025.5893101727168,-102.16656877734705,0.06639643460951881
372.5318377017975,946.4243131720555,14.171980961078145,58.52763924232445,1025.5957878597603,-102.20850579739995,-0.1711777538164943
372.7854986190796,946.9888149053211,14.168522617501141,58.56719385958471,1025.5910439597064,-102.14849208644716,0.2365938518623404
373.02941250801086,950.5753977451112,14.165998566924252,58.59599956777302,1025.5849312112987,-102.23398183934903,-0.35049016283154555
373.2770035266876,957.1761509678705,14.168272065330019,58.65799276203175,1025.5864593314977,-102.2577068019408,-0.0958177517074758
373.530704498291,956.0382708417702,14.167187589991967,58.71672499949359,1025.584469406949,-102.25756151531029,0.0005727070110062463
373.77459955215454,953.1584994670504,14.163652318376288,58.759526741480066,1025.591955935522,-102.21932297351566,0.15678721334208914
374.0240454673767,951.3104279857407,14.159700235334828,58.81950457075036,1025.5798412416275,-102.20576853733395,0.0543387997922825
