time,cds,temprature,relative_humidity,pressure,altitude,altvel
122.06457805633545,0.0,0,0,0,0,0
122.56355285644531,5.0,28.4427734375,28.272066128397462,1023.6109479257174,-85.89165624873937,-0.006838997593298346
122.80926322937012,5.0,28.448330965909093,28.273034493131906,1023.6084175560735,-85.87686421522639,0.059972861763592344
123.05910658836365,5.0,28.462124284351148,28.286631531221712,1023.6080020808495,-85.87802739445979,-0.004638759636611222
123.30404806137085,5.0,28.475998211311328,28.315744695024808,1023.6062918730489,-85.85606785315373,0.08952175225510059
123.55095362663269,5.0,28.492123295237242,28.3638577983291,1023.6106635542769,-85.84841035755957,0.031014762348129696
123.79621887207031,4.6486578514272745,28.506585367948503,28.41348728801336,1023.6067443390064,-85.8314534399614,0.06913477343858072
124.04110717773438,4.773523752386945,28.51780752160966,28.459389840995662,1023.6082971436718,-85.87335170088859,-0.17108697887966026
124.28813767433167,4.497316000699929,28.52895793577896,28.511064791293297,1023.5991580167911,-85.87486562361835,-0.006128709921028959
124.53339314460754,4.6771618158004475,28.538596700816594,28.555607488141845,1023.5997290483288,-85.79276016851594,0.33477554986545677
124.78709363937378,4.43469917314925,28.542970283983536,28.601034933216678,1023.6147784527934,-85.83641225261746,-0.17206083910771397
125.03213286399841,4.27900078496912,28.548913360020226,28.635889521840753,1023.6043604360639,-85.80228671331574,0.13931156964015848
125.27709937095642,4.537279700655938,28.553262441572247,28.655062635534335,1023.6083055408238,-85.82927667191038,-0.1101412825093159
125.52518081665039,4.703046272015371,28.553699799851366,28.675376095613068,1023.6036251023907,-85.87096929896137,-0.16805830083627973
125.77049422264099,4.451178677149768,28.5540192444283,28.696515789380083,1023.608110226707,-85.86687000221433,0.01671085334670967
126.01829552650452,4.2895415722592745,28.555624018644032,28.72763571786876,1023.6187854869489,-85.8701664103614,-0.01330293350228306
126.26474499702454,4.54406798700702,28.559538904097007,28.73143803394888,1023.6214623868362,-85.83694990320265,0.13477810664795994
126.50967359542847,4.349151731469357,28.558281123437695,28.72956021558381,1023.6142823468605,-85.84448876907213,-0.03077862304599801
126.75694179534912,4.224065538681519,28.560106751983025,28.728227585218622,1023.61711745141,-85.88071748225093,-0.14651741488650355
127.00228238105774,4.502049879876863,28.560067360106917,28.728831363698518,1023.6190583041259,-85.90855013490838,-0.11348344717304865
127.24862051010132,4.680444265633607,28.561410481639616,28.735577757306963,1023.6088864223226,-85.89952769465107,0.036613982177189065
127.49320411682129,4.79492752264374,28.552734842078554,28.734195861673797,1023.6134760867354,-85.98446116206618,-0.34726789420933085
127.73806643486023,4.868396288973335,28.554687010560343,28.725228931594057,1023.6002462764724,-86.02757678018209,-0.17607952352791365
127.99408864974976,4.915544314363739,28.557483677054826,28.723375951074676,1023.605012811357,-86.05659409280655,-0.1133350316192208
128.24254727363586,4.945801202961522,28.560896695361315,28.716023390069015,1023.6080264917539,-85.920271470009,0.548866106475439
128.49782943725586,4.606960763077749,28.559272008314128,28.70731251321882,1023.6131852965722,-85.90040058367696,0.0778133328845989
128.74327301979065,4.389512475401641,28.559458126766533,28.689881328215744,1023.6191077895885,-85.98297952810293,-0.33647489165503824
128.98874735832214,4.608224252137115,28.55822207736136,28.681888804218982,1023.616453024367,-85.99192749096619,-0.0364493521938036
129.24322056770325,4.390323309872362,28.561435615027438,28.680823117830485,1023.6174747629512,-86.03825740654091,-0.182064273032765
129.4894721508026,4.25048702956376,28.56240910870939,28.675201386748437,1023.6225351879132,-86.0759118424704,-0.1529061386786617
129.73448967933655,4.160748155163068,28.55900394609141,28.66329219025035,1023.6313452098378,-86.08663986948132,-0.043785627504099194
129.97949600219727,4.461416481287667,28.560634370261013,28.667174269155694,1023.6393389571194,-86.09831053391383,-0.04763316230781897
130.22442650794983,4.296110534176652,28.564568099235032,28.66370150726791,1023.6308816772115,-86.01603697717086,0.33590146471644944
130.47026991844177,4.190026693900567,28.564695332886238,28.656513825721877,1023.629064059235,-86.036649327634,-0.08384577053819205
130.72499322891235,4.12194819240449,28.564788193576447,28.657383051373092,1023.6308651729631,-86.05831417828742,-0.08505288347712103
130.9698407649994,4.078259329389283,28.562112193350007,28.65344061627296,1023.6358609361429,-86.13140899861286,-0.29852820339896496
131.2144651412964,4.050222332251925,28.564274792244625,28.64579543439218,1023.6433966990908,-86.1156214525634,0.06453552014186408
131.46823453903198,4.032229801564951,28.56448126460161,28.62914141892681,1023.6433147708735,-86.17568494171952,-0.23669376258655672
131.7128438949585,4.020683231190967,28.561888183142347,28.620216461447523,1023.6429582046296,-86.24640762143787,-0.289136553289342
131.9596073627472,4.013273307055176,28.562739412773617,28.6152791678889,1023.6439250478837,-86.24564289663525,0.003098920710368304
132.20491361618042,4.00851804433042,28.563360677432303,28.605369573928247,1023.634269019688,-86.17978979904308,0.2684512793769037
132.44956040382385,4.005466390471748,28.561070329557477,28.591869420443345,1023.6273900196037,-86.07444482416167,0.43059566248167863
132.6969907283783,4.003508014707426,28.562142507415146,28.578747771983885,1023.6265156946142,-86.06775532665428,0.027036092227962202
132.9424331188202,4.002251241884588,28.562925029764344,28.569209545537035,1023.6287084545279,-86.03492683920581,0.13379481196217125
133.20034050941467,4.001444717438669,28.560752374813166,28.562248130215007,1023.6235000353896,-86.07348105001773,-0.14944340945475348
133.44631266593933,4.000927136480484,28.559166676093298,28.560474465852412,1023.6153440548004,-86.0404958063449,0.1341019246083018
133.69171023368835,4.000594982818395,28.560753137759576,28.565217016359167,1023.6242361869305,-86.1107227464998,-0.28628271465580907
133.94652676582336,4.000381825719985,28.561911006951814,28.571985099428826,1023.6242138894288,-86.1082055062286,0.009875191566455981
134.19214010238647,4.000245033765572,28.554471983623642,28.58169266178392,1023.6260982092464,-86.10530822061835,0.011800145484961125
134.44001531600952,4.000157248564274,28.554582971596606,28.563553173485197,1023.6299276530693,-86.1300793304457,-0.09989871920230783
134.68577218055725,4.000100913075831,28.55329208846582,28.572347287936555,1023.630565167094,-86.12372328913283,0.025863379188484654
134.9314465522766,4.000064760202553,28.553721832445028,28.578842336899434,1023.6265473589792,-86.07471381790512,0.19956256864505476
135.17983984947205,4.0000415593697864,28.55815113945897,28.58504417412305,1023.6184984111898,-86.0169602475106,0.23242045084015406
135.4252414703369,4.000026670410977,28.55726818062858,28.591185421012344,1023.6217584587012,-86.08202299092716,-0.2651268298627183
135.67270970344543,4.000017115534362,28.557995645624455,28.606703196772134,1023.6244345583689,-86.08864966825503,-0.026778742203673652
135.91868829727173,4.000010983764621,28.555782807405954,28.62121992539301,1023.6236367363367,-86.07567215898213,0.05275869363683345
136.164235830307,4.000007048747804,28.555539668191457,28.636506202135696,1023.6173043976105,-86.03931453848752,0.1480645263146494
136.41171503067017,4.0000045234805475,28.556734101559517,28.652430327261932,1023.6098919209356,-85.97960163324865,0.241380813881995
136.65702962875366,4.000002902909401,28.56034962536035,28.662514053280976,1023.6109939753646,-85.92343764771161,0.22885180001180327
136.91197085380554,4.000001862920135,28.558872731906987,28.677793815748423,1023.6105712328124,-85.90026084125616,0.09094602774051029
137.157461643219,4.000001195514895,28.556422943380912,28.684254406334087,1023.6176650838221,-85.87182278942555,0.11580169914051436
137.40304589271545,4.000000767212635,28.55600686745634,28.685702586924,1023.6183593770882,-85.84583610494478,0.1058130910718992
137.65990805625916,4.000000492352901,28.548790997075216,28.689988542383485,1023.6212316488762,-85.89110348188136,-0.1762266103280887
137.90726256370544,4.000000315963747,28.549064851840384,28.68673466133945,1023.6222293922057,-85.90354784888808,-0.05031047571996328
138.1548149585724,4.0000002027673425,28.547892836026183,28.681168729660186,1023.6232544058253,-85.9203119322936,-0.06772037793159032
138.3998556137085,4.000000130124407,28.54978122159142,28.670953302060436,1023.6260313878106,-85.95804284766861,-0.1539814812324128
138.64507818222046,4.000000083506353,28.548415674038978,28.661844736391362,1023.6252673121087,-85.92935808921672,0.11697301746515787
138.8910505771637,3.641742484093986,28.55153469868067,28.677267338195747,1023.6277973303111,-86.02470788728449,-0.3876315301917582
139.1462917327881,3.770090950996,28.551067325413605,28.69006190190621,1023.6315044227476,-85.99860724690097,0.10225788587287499
139.3916323184967,3.852457608097214,28.547982441911078,28.7041672025147,1023.6340814320563,-86.02948779681792,-0.1259224180297835
139.63385677337646,3.905315786817871,28.54710284586307,28.714499777978734,1023.6332999739371,-86.03004254112822,-0.002289317622036151
139.88839626312256,3.9392371229021026,28.54646087815137,28.734652155571997,1023.6364507803187,-86.08143874391841,-0.20191781801156772
140.13363766670227,3.60274831407117,28.543195803092853,28.749360243174458,1023.6359595151138,-86.11543761383197,-0.13863254627409807
140.3809781074524,3.7450667375500557,28.544981234268985,28.76944015815664,1023.6383918299257,-86.1004541142437,0.06057774550941885
140.6264865398407,3.8363985085389527,28.549028094148838,28.796706699293065,1023.6338233642816,-86.02177347907832,0.32049189355803587
140.87173914909363,3.8950099812356402,28.550609782680162,28.818295926568975,1023.6258377018635,-86.00136727338564,0.08323616123051582
141.1170196533203,3.9326234501794555,28.551764168229504,28.82763454598244,1023.624789258684,-85.98508357930734,0.06636044108376045
141.36243724822998,3.956761609159162,28.552606689351798,28.845522568859913,1023.625122708473,-86.07935208461929,-0.38423675999793117
141.6172754764557,3.6139945204751167,28.55322159815927,28.861730782383884,1023.6286220793902,-86.09716209250516,-0.06986776419837257
141.8624370098114,3.3940263358860947,28.550926611505847,28.878364068926274,1023.6280883917706,-86.12168293651031,-0.1000472513861361
142.1075234413147,3.2528634184742917,28.55336729079324,28.890429053848422,1023.6363284911005,-86.10746297214153,0.05800293641068167
142.36189889907837,3.520530754252931,28.55377671839655,28.899271967526957,1023.6316839719146,-86.09079305753912,0.06555667917746652
142.607271194458,3.334046671386573,28.55407553658951,28.907302258841383,1023.6284225767486,-86.11564473322282,-0.10124314046722273
142.8530728816986,3.2143719227975294,28.555665514204836,28.92419746203131,1023.6259536728769,-86.11596848438234,-0.0013171502516625194
143.09978723526,3.1375715587679913,28.556825949490644,28.930222997208034,1023.6216578024555,-86.1315678964055,-0.06322814704480433
143.34529972076416,3.088285506492052,28.557672885975514,28.93777336393887,1023.6175922163653,-86.10315490983436,0.11572637187290642
143.59262824058533,3.4149141250101067,28.558291017307937,28.943246699818108,1023.6210970780377,-86.04678976916252,0.22797605315733555
143.84055757522583,3.266267999034599,28.555998382594332,28.945665029858347,1023.6267427595268,-86.0426702781663,0.01661017040788853
144.0882270336151,3.529133042361595,28.55569700440357,28.93800925312599,1023.6364450386764,-86.1472047116353,-0.4220634241220638
144.3333375453949,3.69782469416091,28.555477045403165,28.924539950032123,1023.6351933494168,-86.12363913324232,0.09614350899702444
144.5788233280182,3.8060812847924073,28.536057326620195,28.927357602822884,1023.6180361446293,-86.10398898571115,0.08004736912752723
144.83336758613586,3.8755541323823857,28.541143148572125,28.92787505992412,1023.6236182919351,-86.03865578625158,0.2566661451050358
145.07869791984558,3.9201378064488415,28.540739343091037,28.928178048148713,1023.6225758496471,-86.06500903208281,-0.10741672083127612
145.3333694934845,3.5904914723094814,28.544560289209286,28.934966783380926,1023.6188558320856,-85.92428961501217,0.5525571649751876
145.5786828994751,3.737201002127602,28.547348982998464,28.95696168877393,1023.6178728952154,-86.00948638204508,-0.347301690777893
145.82392239570618,3.8313507323712424,28.548012406824075,28.98555115342174,1023.6246863811657,-86.03325868106354,-0.096935882619411
146.07837462425232,3.5335130395935472,28.549868489595504,28.967194638602898,1023.6180670384675,-86.10544077556936,-0.2836740170044366
146.32381939888,3.7006355242301456,28.553966914103306,28.99943552076145,1023.6019444693411,-86.16580405295802,-0.2459366423215735
146.57681679725647,3.807885113712773,28.55970189779826,29.054454731978588,1023.6131010164047,-86.10509674141808,0.23994824525213695
146.82259130477905,3.8767117259379553,28.561143765996217,29.05989541402607,1023.6167205252908,-85.87844734892185,0.9225046735253422
147.0679087638855,3.920880683350729,28.562196104543794,29.072006815669255,1023.623548559691,-85.878616909342,-0.0006909755321975058
147.38732981681824,3.5909682079380643,28.547820625263103,29.082495960386325,1023.5984141893678,-85.91257702909132,-0.10631502721341271
147.64246535301208,3.3792493741130123,28.54561285797432,29.085459797306726,1023.6051110713796,-85.8650922661179,0.1861722010245833
147.8881115913391,3.243380415110563,28.54537341974638,29.092018890507248,1023.6102555426468,-85.88039257291834,-0.06226611737945783
148.13562536239624,3.1561875391302263,28.547942441269896,29.092113996395693,1023.611050801865,-85.91076395176296,-0.12270534158148919
148.3826847076416,3.458489740471519,28.54153333870481,29.090607138063504,1023.613660309089,-85.98670236580823,-0.30737535118833176
148.62799835205078,3.652489889907115,28.54788355600262,29.0910467954207,1023.6185241741791,-86.00371703846983,-0.06936114360896156
148.87589073181152,3.418730447828551,28.55114633563728,29.078757292837405,1023.6189863788486,-85.98818889237184,0.06263941025777446
149.1204981803894,3.626974664811281,28.54941199404544,29.0697878757178,1023.6193237160555,-85.99082891646256,-0.010792890947706893
149.36572360992432,3.402356245260683,28.55363374366178,29.066357262310333,1023.6143249446831,-85.93163181062285,0.24139567319837454
149.6132833957672,3.6164666442578057,28.55397118736748,29.09233668245922,1023.6131307151862,-85.96491449725914,-0.13444263720825722
149.8583209514618,3.753870372106489,28.55421746855993,29.130175630708173,1023.6223240122155,-86.0300646278979,-0.26587710971043627
150.10570311546326,3.8420481743764707,28.557140989385193,29.171977890613334,1023.6217596670353,-86.04688732144209,-0.0680033142440308
150.35050201416016,3.5403780420261626,28.541387406839505,29.21352021271468,1023.6108578835372,-86.09373280219287,-0.19136740560392235
150.59566235542297,3.705041087576671,28.546405161523825,29.240651123638735,1023.5926254168974,-86.04865509990441,0.18386259823724552
150.84992671012878,3.8107123506425133,28.55143922562394,29.263604816260344,1023.5965315515449,-86.01330494319605,0.13903345059305972
151.09512424468994,3.520268514341275,28.55511330603645,29.269432851975747,1023.6009061982336,-86.01439076179959,-0.004428144193620775
151.34955072402954,3.6921359504038755,28.55230726274896,29.271965179958737,1023.6147974777622,-85.99597904304025,0.0723661864445849
151.59501028060913,3.802430576547251,28.553003063513188,29.267544830288916,1023.6131788356837,-85.71570048863288,1.1418201173753353
151.840265750885,3.873211318000077,28.556254663405557,29.25640113545234,1023.6214288305554,-85.77275056414085,-0.2326252976321857
152.09501910209656,3.9186343230529177,28.547599962396063,29.271983663376098,1023.6322698597655,-85.87968259437096,-0.4197602595484058
152.33775568008423,3.9477841927163424,28.54956746959177,29.256561236096065,1023.6384499997968,-85.93852219295405,-0.24239413410282928
152.5833022594452,3.6082333314274515,28.55374721652348,29.240576621575137,1023.62794735541,-85.92385290997417,0.059740359175277154
152.82892775535583,3.7485867059196347,28.556797778857533,29.22575790206713,1023.634068147229,-85.68471537099856,0.9735708592096296
153.07722735404968,3.480399852100161,28.55765232581393,29.215236310576607,1023.6298659039559,-85.77179105525474,-0.35068797820950753
153.32525992393494,3.3082929687007194,28.55827601160172,29.204074382317682,1023.6282342077893,-85.83918359122627,-0.27170736844106397
153.5802390575409,3.5561022485370053,28.558731204799685,29.186470371313316,1023.6206598335913,-85.83353730457779,0.022144278261097442
153.82708764076233,3.3568744085851088,28.556319650700797,29.18311633281704,1023.6202482995632,-85.80392058994607,0.11998310158323125
154.07297921180725,3.5872790198458175,28.55730336694881,29.174326795444546,1023.6207098681358,-85.87693615840016,-0.29693983317938916
154.3313946723938,3.3768818655801063,28.55664943912829,29.17264057567941,1023.6185925959874,-85.9145323975123,-0.14553712408356326
154.57736492156982,3.600118653926,28.556172173970598,29.161915615380273,1023.6140881062777,-85.91402590581232,0.0020583862418914666
154.83773231506348,3.743379173057094,28.555823844959967,29.133670022072906,1023.6231910979866,-85.93948169821068,-0.09776811484974438
155.08466172218323,3.835315526799606,28.54865741924315,29.133509919132408,1023.602091857095,-85.90183805884324,0.15245241408708776
155.32995128631592,3.89431498590204,28.547595473876008,29.131890266763854,1023.6086855587562,-85.93058647380964,-0.11719283611631039
155.58536386489868,3.932177442184882,28.54819230665988,29.13382394254366,1023.6241964054035,-85.91070926674969,0.07782921950548388
155.83240628242493,3.9564753869047,28.54725601434633,29.135308614473644,1023.6218991578214,-85.81902899357098,0.3712418785686488
156.07952499389648,3.9720684090054577,28.546572667217415,29.169455743284228,1023.6188270960265,-85.84955461551422,-0.1234798030813814
156.3276972770691,3.982075112907307,28.54607393056024,29.162890473932514,1023.619375830821,-85.8746135145652,-0.10097448131584078
156.5740089416504,3.988496839390618,28.54845370473591,29.1549097163881,1023.6256548688119,-85.8646268509685,0.04054517927189712
156.8214943408966,3.9926179337520527,28.536418933115932,29.14904829549057,1023.6192823563049,-85.87654238456614,-0.04816603819819348
157.0680968761444,3.9952626148638974,28.538663290799967,29.162108969730806,1023.612137425544,-85.93901005507155,-0.25320741687576703
157.32388734817505,3.9969598189485223,28.540301321313997,29.141803097791296,1023.6204116857116,-85.94897310133084,-0.03894944795966045
157.5695698261261,3.9980489868228513,28.541496827709427,29.12225431540648,1023.6217992413938,-85.96637737801994,-0.07084162889281022
157.8153383731842,3.9987479520617506,28.540997473612386,29.103221107463956,1023.6176954446959,-86.05695648976837,-0.36854416347065444
158.06774473190308,3.9991965077129996,28.540633023126585,29.08929287747211,1023.6188865376578,-86.05916185430917,-0.008737769976670383
158.316308259964,3.999484364906849,28.534826718264668,29.082353829312904,1023.6127788111959,-86.01223084519654,0.18880148633897428
158.57164573669434,3.999669095082068,28.53470468376945,29.07886563609875,1023.6160168199726,-86.01777579992503,-0.021724761146275702
158.81723427772522,3.9997876442737006,28.53461561765118,29.0732056998782,1023.6199870842381,-86.03195562830207,-0.05771484303192555
159.0621509552002,3.999863722320073,28.537347152209982,29.067349354469293,1023.6146806268371,-86.01926011539433,0.05185285792980019
159.31632733345032,3.99991254483046,28.53796885872637,29.07421959850504,1023.6201103876991,-86.0267467963854,-0.02944560921769726
159.56332278251648,3.999943876306939,28.535626068453443,29.0808100180396,1023.6307138457041,-86.03605162620605,-0.037672542630533816
159.80852437019348,3.999963983044806,28.535288084539268,29.088772415975416,1023.6244948056515,-86.087542035789,-0.20998949974420136
160.05339097976685,3.9999768863916345,28.526810086998555,29.09923887798835,1023.611286866576,-86.09684760125876,-0.03800336746957574
160.29814457893372,3.99998516701679,28.51787869913088,29.11010361105092,1023.6221165921238,-86.10993108664456,-0.05345376388442763
160.54457020759583,3.999990481045303,28.52513181619553,29.12433792572041,1023.628922080992,-86.10828529992503,0.006678802564437792
160.7991156578064,3.9999938912828767,28.53042545862973,29.134690132081044,1023.6282640137073,-86.13499652178328,-0.10493812427813796
161.0438311100006,3.999996079777026,28.53149245176495,29.154891630403206,1023.639791924849,-86.11330901890861,0.08862222634821432
161.288560628891,3.9999974842265806,28.535067728988622,29.171211729553782,1023.6365771827668,-86.10761377008338,0.023271605530285653
161.54280018806458,3.9999983855214514,28.53350869693579,29.190967247705757,1023.6399411932647,-86.07027983710307,0.14703770684738368
161.7887008190155,3.9999989639206124,28.525511412009486,29.210188197599393,1023.639265190522,-86.11252328289093,-0.17156681492300782
162.036883354187,3.9999993351038956,28.526534078351183,29.222640367313204,1023.6441851852917,-86.19083087466002,-0.315468117951183
162.28163170814514,3.999999573307958,28.52865235204141,29.234917038761996,1023.6426595959974,-86.21028037382891,-0.07958432076997345
162.52681732177734,3.9999997261736118,28.530198360935778,29.24849525577337,1023.6457323132439,-86.13785402968986,0.2952721986998322
162.77213978767395,3.999999824273988,28.532751357822264,29.26320743019057,1023.647974916839,-86.12936846817513,0.03462556011091346
163.03054022789001,3.999999887229162,28.527702446788794,29.274162093544415,1023.6437724271095,-86.12350000450355,0.02266835935771437
163.29206037521362,3.9999999276301685,28.52264564342079,29.286740765949524,1023.6526302372886,-86.21768297217288,-0.3603198633516197
163.54449486732483,3.9999999535572086,28.517583079881458,29.29756950338849,1023.657531661168,-86.2556978186847,-0.1505147302358809
163.7976734638214,3.9999999701956903,28.51937574738391,29.31020083534344,1023.6578530835606,-86.24258463289237,0.051793431188554236
164.05955457687378,3.99999998087331,28.51794034059794,29.3114312114178,1023.659185972983,-86.21903965197437,0.08990738182812877
164.31227016448975,3.9999999877255914,28.51689271787176,29.3139775270806,1023.6552105444262,-86.25946291326831,-0.16002273342218787
164.5669436454773,3.999999992122991,28.505153020825468,29.31895192226661,1023.6530712717775,-86.29525921599459,-0.14050410188245036
164.81920313835144,3.9999999949449894,28.50755997196901,29.32573455247004,1023.6632669812726,-86.33429350837342,-0.15473338127671163
165.07045245170593,3.999999996755985,28.51068855732286,29.335520939095485,1023.6626721546928,-86.30485224042009,0.1171821649260268
165.3318178653717,3.999999997918178,28.51160004889559,29.34420347775911,1023.6571607345755,-86.27984736850145,0.0957061327790865
165.586252450943,3.9999999986640065,28.509521521331056,29.350504393162357,1023.6523370947945,-86.22703290161141,0.20750231813544465
165.838214635849,3.999999999142636,28.505260746872803,29.35202306692106,1023.6543979601718,-86.26390940575945,-0.14635023362114385
166.09025025367737,3.999999999449793,28.509010482168886,29.35305943002291,1023.6560310929209,-86.34320269420279,-0.31461292722987694
166.3534653186798,3.9999999996469087,28.51449097720868,29.355427834725056,1023.6580242301852,-86.31413060187543,0.11044985587654954
166.60716891288757,3.999999999773406,28.510259560388878,29.360380319780244,1023.6644659330997,-86.39415148276105,-0.3154183178806662
166.87052631378174,3.999999999854585,28.508543174121375,29.338706636059154,1023.6638832287238,-86.33627506799627,0.21976814510647508
167.122656583786,3.9999999999066813,28.51003425429283,29.3465285388989,1023.656352194329,-86.3397986308579,-0.013974877195121655
167.3769690990448,3.9999999999401132,28.511122509893568,29.356965295117536,1023.6537754728897,-86.33501035320519,0.018827967900391967
167.62977576255798,3.999999999961568,28.50780110544343,29.359890486476758,1023.6598017476391,-86.42197830666497,-0.34400584241970117
167.88233613967896,4.35825756947092,28.508120773064455,29.328929196321976,1023.6494845078644,-86.36533110037819,0.2243679891189706
168.14857840538025,4.588166652874457,28.504238419451696,29.344192371836094,1023.6528199223886,-86.29987879845234,0.2457581562482073
168.40441870689392,5.452224205844053,28.501404907784103,29.356836249087934,1023.64332957803,-86.31462240300911,-0.05762810131918264
168.65646719932556,6.00672659998246,28.499336886894923,29.36613611627357,1023.6434697868216,-86.17976533118468,0.5350654092146855
168.91214537620544,6.720831883612942,28.500571328722057,29.412392489627326,1023.6293609030176,-86.1068369556121,0.2853207135519187
169.17272877693176,6.82084597447043,28.498728504394574,29.403495639779994,1023.6252779605937,-86.07526623136854,0.12111500494606513
169.42730927467346,6.526771690726419,28.49875541751996,29.401766135384072,1023.6148564702874,-85.95759739606315,0.46221804727716326
169.6839406490326,6.338051745127693,28.500146946910753,29.4005397512415,1023.6062810068385,-85.84515670941823,0.43814043573155037
169.93840622901917,5.858684579058921,28.49704688495239,29.3950605912129,1023.6014175870732,-85.78965339087854,0.21810902084638478
170.2002146244049,5.551054328801934,28.496156211002674,29.390953873538436,1023.5886052550345,-85.74146331739591,0.18407322898751413
170.45602083206177,5.353634944305333,28.495506158153226,29.39261260520051,1023.5694871956887,-85.67033706614323,0.2780417000721517
170.708190202713,5.226942548669799,28.497775495145923,29.39382322020025,1023.5650934338602,-85.65405537928672,0.06456665611742768
170.96043872833252,5.145638662768223,28.499431756653216,29.398037890312608,1023.5693284841379,-85.53667173427563,0.4653474224791499
171.2217812538147,5.093462509420292,28.503384342852648,29.416622705670445,1023.5722512068246,-85.52994144289063,0.025764136221493653
171.4755346775055,5.418236427452004,28.502153452297115,29.431798329016246,1023.5725238701096,-85.55959548668014,-0.11680545972318664
171.72997403144836,5.626657630974117,28.501255094471293,29.48069581781386,1023.5711988357392,-85.53621286246394,0.09190429870820882
171.9838945865631,5.760410360691053,28.50197132060601,29.491133566094636,1023.5698953362139,-85.5537139770083,-0.06892170664247706
172.2364101409912,5.487987593050616,28.50386594081474,29.502080717322677,1023.5638277014706,-85.54728334210218,0.02546518624369744
172.54775047302246,5.671419913515886,28.490105195572298,29.4880441721842,1023.5607054123147,-85.49821567489681,0.1576054874478499
172.80214595794678,5.43087864718875,28.492461749142908,29.515442995007948,1023.5591492167965,-85.5616112433576,-0.24927629925626904
173.05607843399048,5.276513110299363,28.498297326168043,29.530853591611166,1023.5686715495107,-85.63582756909796,-0.29218044481223365
173.31261467933655,5.177450195469849,28.50255638580998,29.54819249377063,1023.5725337536725,-85.61873568119901,0.06664742890699052
173.57814407348633,5.113877319734304,28.50703672104633,29.56396375275676,1023.5650309238454,-85.6865902445333,-0.2554646265694013
173.82981252670288,5.073079907945621,28.50756289186049,29.58020207507139,1023.5754581153247,-85.78081297487181,-0.37439548938217565
174.09444999694824,5.046898477746062,28.50931880137411,29.590688858162427,1023.5827714023147,-85.78461495403546,-0.014366628930846424
174.3467893600464,5.030096743095715,28.510600341025143,29.60289422271711,1023.5922555849849,-85.83838184540387,-0.2130719262564934
174.60057163238525,5.019314357064511,28.504676229711635,29.61169673101532,1023.5850060030428,-85.90066729724349,-0.24544022378329355
174.85499620437622,5.012394842446209,28.509955762963163,29.61661560969556,1023.5938864944452,-85.9754625010847,-0.2939735019931986
175.10731887817383,5.007954296317149,28.512437110497597,29.621816701269918,1023.6012981229003,-85.90011884512445,0.29859223635415855
175.36770820617676,5.00510460945152,28.516991880608614,29.61766266705511,1023.6062423253935,-85.92513338305149,-0.09606916532188885
175.6213026046753,5.003275844476194,28.521688038293902,29.611371727099417,1023.6193651378524,-85.93186792801013,-0.02656403035537149
175.87500596046448,5.002102248396107,28.515512290714707,29.589516476809862,1023.6047523313904,-85.93678309381407,-0.019367702919114514
176.12944746017456,5.001349101995242,28.522032820699398,29.587712728394397,1023.5979368468613,-85.97423289386184,-0.14717853143606888
176.3905999660492,5.000865775993425,28.523995250092078,29.592664952384524,1023.6009983484028,-85.90518870696971,0.26439614940824396
176.64342141151428,5.000555605190293,28.525427516993968,29.601255058569745,1023.6031474766614,-85.89985450007227,0.02109845347260375
176.89657402038574,5.00035655542522,28.529269387007204,29.585248055519067,1023.6036174342237,-85.89596136230357,0.01537843169582411
177.15023350715637,5.00022881674519,28.532073351971164,29.592442123168865,1023.5933875846559,-85.98251935498735,-0.3412398487714703
177.4055209159851,5.000146841414198,28.53549169539565,29.59926866305091,1023.6028378544434,-85.91159377123631,0.2778264077983412
177.65983724594116,5.000094234366046,28.537986552109697,29.58236553649046,1023.6043217300801,-85.8748348887968,0.1445387808926352
177.91303777694702,5.000060474191104,28.54255118181154,29.585575032371885,1023.6078588928408,-85.9042573345276,-0.1162025862795013
178.16897130012512,5.000038808854382,28.5417669874043,29.594186292791182,1023.6057890365449,-85.89778476682145,0.02529045886859123
178.42700481414795,5.000024905288536,28.542566535000905,29.60369361498102,1023.6034733221854,-85.92378740182143,-0.1007719442756879
178.68046617507935,5.000015982780398,28.5431500798476,29.612138101552624,1023.5942126464012,-85.92078061321644,0.011862750983975785
178.93335962295532,5.358267826323923,28.543575976429054,29.61536182428718,1023.5975215853449,-85.70101998976767,0.8689817651224676
179.18787026405334,5.588173235132232,28.54388681440341,29.60962186198465,1023.5875461294751,-85.62409364898443,0.3022519626345131
179.44069170951843,6.093970860462572,28.544113677568113,29.599128407486667,1023.5768814160928,-85.54735326958298,0.30353587790099007
179.70645475387573,7.135077796876594,28.54011082631426,29.579004767953194,1023.5635162204977,-85.50041798493498,0.17660576082541962
179.9599015712738,8.519715431657103,28.5413577961172,29.583157499577787,1023.5559189048611,-85.43020196662914,0.2770490787470245
180.22329688072205,10.124811291760201,28.54226788928186,29.5546677365882,1023.5511761214954,-85.41597434462261,0.05401598701305353
180.47795128822327,11.154869410215339,28.542932115124703,29.53856721321907,1023.5513954673041,-85.38883437103603,0.10657361190476934
180.72991180419922,11.45764384121796,28.544788783243426,29.53158008796889,1023.5448749958116,-85.3190916064509,0.2767993244440692
180.98610019683838,12.010204609959759,28.546143860936493,29.52795000432688,1023.5407497776665,-85.27448022335788,0.17414236054280507
181.24847054481506,12.006548731197926,28.54850474298662,29.550695342990537,1023.5376983847214,-85.27265028329539,0.006974353569648305
181.5028259754181,12.004202598675677,28.548855931071998,29.5718816200365,1023.5424486479358,-85.26747355555442,0.020352509873483027
181.75528860092163,11.644439416392979,28.553227904554806,29.59676528915926,1023.5323389259115,-85.22633898328483,0.1629325447947474
182.00872707366943,11.413564117388878,28.555046875229685,29.62123055921311,1023.5239895095224,-85.22459870845923,0.0068666883621478795
182.26144576072693,11.623659211358136,28.556374439677533,29.64216842340178,1023.5084241031426,-85.1349795854619,0.35476065614482094
182.52384185791016,11.758486147599022,28.55871524135655,29.665504477631483,1023.5079308619112,-85.1310320790177,0.015038554141616808
182.77609658241272,12.203267882855295,28.557679886894395,29.680855466722114,1023.5113789832998,-85.05900791421743,0.2855164420259354
183.02947306632996,12.846960764178212,28.558296126885093,29.690448353783964,1023.5001506869546,-84.98478696312854,0.29292947324951935
183.28729629516602,13.618303367832354,28.55737399880089,29.69114556631222,1023.4930137187522,-84.92677593331948,0.2250031157819105
183.54435181617737,13.3967915060618,28.559444763373598,29.683844434465684,1023.4841247599079,-84.76708731322812,0.621244188325599
183.79940032958984,13.254637945503609,28.558212324006842,29.67841045537074,1023.4794977896318,-84.78430877670536,-0.06751965394094789
184.0544958114624,13.163411974046136,28.560056609817593,29.66502329478152,1023.4732887663046,-84.79793109844456,-0.05340192233679271
184.30761432647705,13.104868397397892,28.553118563394506,29.661486697683014,1023.4643156373029,-84.77503497168054,0.09046151968867039
184.5621337890625,13.067298500229226,28.556338960276467,29.66363377380366,1023.4609815186192,-84.79116266945489,-0.06338244175483213
184.82309818267822,13.043188303106406,28.55731745992266,29.649723299293004,1023.4634960316725,-84.7341287418685,0.2184801501952207
185.0773196220398,12.669458197109282,28.55665972479771,29.622021065090067,1023.4613136396283,-84.64395823576308,0.35468578297163195
185.32963919639587,12.429619730534016,28.558923454929353,29.6049195274491,1023.4606511395177,-84.6406640866623,0.013055365236943818
185.58330464363098,12.275705210065551,28.563319398330755,29.575065096748435,1023.4647779044809,-84.62812971400776,0.04941495821296364
185.84932708740234,12.176931731610198,28.558296428234765,29.53135304120345,1023.4605573919997,-84.5976664682184,0.11450961057092512
186.09917163848877,12.113544599476883,28.56148987977931,29.5167515865961,1023.4647507238984,-84.69488991862296,-0.3891450482590694
186.3517711162567,12.072866387238946,28.56244871353837,29.502835458774314,1023.4639211808677,-84.73651072881854,-0.16483329810113875
186.60531187057495,12.046761452448797,28.56177662538786,29.491102688494482,1023.4620890847007,-84.68900567308292,0.1872941606637128
186.87106704711914,12.030008808148407,28.561286106026134,29.48253959898821,1023.4542398064652,-84.69414276135049,-0.01932978899668789
187.12531352043152,12.0192579254777,28.562299990530434,29.47639705499726,1023.4548543841898,-84.6290868390497,0.25589850044863227
187.38827872276306,12.012358627902533,28.568527515891418,29.476642301443047,1023.4566983988061,-84.66054166766166,-0.11960856107069441
187.64598631858826,12.007931055907871,28.56484131451108,29.465609459366515,1023.4622306491299,-84.73064893761055,-0.2720389029080121
187.89859890937805,12.005089695094783,28.56352285034526,29.46550969490413,1023.4685941104154,-84.77658063650506,-0.1818208065928973
188.15776228904724,12.003266273300653,28.5666762385042,29.478081719699816,1023.470447503862,-84.73501040422873,0.1604072519968609
188.41971254348755,12.002096106166652,28.56623394523674,29.474719616839913,1023.4751838676727,-84.81817795206553,-0.3174838459953938
188.6770851612091,12.001345160265982,28.56453925322954,29.47215868674496,1023.4672218220279,-84.81914926309396,-0.003774112912677743
188.92987060546875,12.00086324641851,28.564674279808706,29.486086700260106,1023.4600153262711,-84.81149209564417,0.030290058137745633
189.1877281665802,12.000553981854738,28.567516602145563,29.52136388381231,1023.4657093518122,-84.87399763945062,-0.24240741220378578
189.4499373435974,12.000355513661916,28.565475392406746,29.52676264533917,1023.4729936465161,-84.87875564131252,-0.018145660092454656
189.70931386947632,12.358485717697059,28.572216950239067,29.5541680165938,1023.4793679743282,-84.87454540779173,0.01623251807390317
189.96388149261475,12.23005549577603,28.56890591226483,29.560019595056243,1023.4832173973172,-84.82921665858574,0.1777929674060199
190.22005891799927,12.147636373010208,28.57334880683413,29.60054117441588,1023.481544052575,-84.86004396647242,-0.12068395590229973
190.48194241523743,12.094744524846428,28.57384765181002,29.607944371571136,1023.4808292517062,-84.85215261264091,0.030057408154241575
190.7355387210846,12.060801581651933,28.56735229564986,29.611806606310044,1023.4774752417594,-84.86770628507512,-0.06149243325945554
190.99777245521545,12.039018954787824,28.57084302238515,29.66355474437952,1023.485853688303,-84.86648110377904,0.0046589061587076295
191.25153470039368,12.02504011888128,28.576134481635776,29.65078206142569,1023.4854976477218,-84.87955833464926,-0.05174780766935433
191.50486636161804,12.016069306750992,28.58136830731339,29.655680690898,1023.4873532953219,-84.88247192349053,-0.01145356924197645
191.7598807811737,12.010312355970903,28.586560069485756,29.6577500033204,1023.4887076281958,-84.89612287311449,-0.053687616727705965
192.0220432281494,11.64836030688941,28.588977357843284,29.66710579273366,1023.4824221993842,-84.87395865324137,0.08432864451553397
192.2761516571045,11.416080319185799,28.58936971372173,29.67859245426467,1023.4758468402869,-84.80923716313977,0.25536132842335485
192.52877926826477,11.625273964814932,28.59102795923576,29.69012820993683,1023.4716403088813,-84.8014669746367,0.030668391294793693
192.7838146686554,11.75952240340705,28.589494445396546,29.726917611775985,1023.4800306758391,-84.73991232656483,0.24206398120560274
193.03175449371338,11.84567532268058,28.588375219846988,29.725363083859992,1023.4810373660714,-84.73689990359478,0.012117433651998834
193.2986159324646,11.900963306490226,28.59030213405895,29.754175053577903,1023.4809689341939,-84.7207304447877,0.06074126403100475
193.5518913269043,11.936443951597917,28.590336593413394,29.757970332436795,1023.4764779362474,-84.73687089603982,-0.06373540184503337
193.81023359298706,12.675728526016359,28.593105517386,29.779583943508715,1023.4807703149316,-84.75144174055237,-0.05639491719705336
194.06470918655396,13.150158805638073,28.596498286360617,29.80474601909112,1023.4798854247483,-84.80188218841963,-0.19763318755908707
194.31953072547913,13.454620846387401,28.598974477721296,29.86097025309109,1023.4764067092078,-84.7870198914192,0.0584958610426809
194.5743682384491,13.650007056414209,28.599409823590694,29.868839189533734,1023.4743747997294,-84.78769764878969,-0.002651895363478493
194.82872104644775,13.417137108228275,28.603843219109393,29.880955445670153,1023.4734842137735,-84.74593407015652,0.16466948896031436
195.08031225204468,13.267694581687996,28.60433513126221,29.88969401968625,1023.476851871147,-84.69414512722572,0.20524576408810438
195.3450367450714,13.171790971485317,28.60469415029125,29.885074689907526,1023.4749959061884,-84.69965540427721,-0.02084476317006495
195.5986363887787,13.110245555579702,28.604956178099414,29.895956960173894,1023.4756292401669,-84.6753898115825,0.09568347878818363
195.8473789691925,13.070749250790028,28.599659869413877,29.910203556228943,1023.4783313357914,-84.74253451895345,-0.26993885198575646
196.0994176864624,13.04540279615836,28.604025713500192,29.92053284351335,1023.4842799681458,-84.81214366772167,-0.2761877442878918
196.35339426994324,13.387394470253946,28.604468323659706,29.934375948136456,1023.4824051551151,-84.89996756198344,-0.3457897241246709
196.61572670936584,13.248607468904739,28.604791359935188,29.952427796444432,1023.4757926866358,-84.90015396709948,-0.0007105683019984102
196.872545003891,13.159541961336478,28.6063990129676,29.962382507149172,1023.4849632872161,-84.86258458121178,0.14633223244003407
197.12532258033752,13.102384846035513,28.595225365426074,29.975952154439046,1023.4670442927277,-84.87742253197959,-0.05868241867774606
197.37850332260132,13.06570469994165,28.599417331297854,29.985855877220654,1023.4765073724749,-84.88056873950403,-0.01242664334225355
197.64096856117249,13.042165493836118,28.603848698562828,29.991438517911387,1023.4817633751712,-84.76796200246959,0.4290426552570361
197.8970410823822,13.385316955993392,28.601595356380443,29.99249852695671,1023.4757894659513,-84.75213447830608,0.06180703033036465
198.20285367965698,13.247274239853763,28.594463220532457,30.02502846708886,1023.4729080508702,-84.59597715509622,0.510644309628042
198.4558732509613,13.158686371684885,28.589257875487718,30.020234137783582,1023.4742744453883,-84.60669790316425,-0.042369224373623574
198.70940685272217,13.101835777852985,28.590946334795394,30.011938796996706,1023.4811501062865,-84.69066522954179,-0.33118535431871693
198.97599124908447,13.423609909087267,28.583947324252144,30.0154086870727,1023.4849832467096,-84.7536871843249,-0.23641076194168628
199.23857951164246,13.630106022139001,28.589814235991394,30.04308910699408,1023.4909955545094,-84.81854763727588,-0.24700797583177853
199.4922161102295,13.404365770122952,28.59135239105296,30.035127738282352,1023.4915348276572,-84.91582505355225,-0.38364391305965906
199.74974370002747,13.617756241627077,28.596590665010055,30.030620868686036,1023.4911253595067,-84.89217972493651,0.0917906774408229
200.00248527526855,18.770303934394793,28.58943869061087,30.03219564345934,1023.4970427928998,-84.9287036040306,-0.14455331256126236
200.258220911026,21.718654844545885,28.591078301589825,30.023820893432447,1023.5123570785253,-85.03497690970711,-0.415434138112101
200.51333332061768,27.193312418561995,28.58953118745094,30.035180349841685,1023.531651894835,-85.23440308448365,-0.7817831267342603
200.76753282546997,151.4394333963023,28.58428637476692,30.06090708223942,1023.552752101704,-85.33385951694964,-0.3912299625772747
201.01982069015503,244.78722869413525,28.58457414184982,30.08588611587879,1023.5669249755972,-85.50697923525244,-0.6862004469568291
201.27747583389282,298.24383347987475,28.57380907076042,30.091813396451247,1023.5859747576247,-85.67170551861481,-0.6393249768313963
201.53115344047546,335.4152655175539,28.55218061547782,30.142101917016383,1023.5996591394721,-85.77198478739425,-0.3952674652414573
201.78334999084473,363.21058392319526,28.535023334729594,30.19144187913262,1023.6071918705517,-85.90032581325407,-0.5094081568780048
202.0286729335785,377.46544341851984,28.522501199954327,30.232211793682662,1023.6192008731651,-85.94961469541299,-0.20090783562426404
202.27385544776917,383.7473310415837,28.51061822364767,30.280938389096395,1023.6316863055049,-86.00862967798132,-0.24070285160331598
202.52077627182007,391.36126056792017,28.499201733178957,30.31653396056229,1023.6293777318702,-86.03772581480055,-0.11783453179281606
202.76627898216248,396.24744220784066,28.48807293961619,30.342578695794785,1023.6352187891474,-86.11794981117455,-0.32677723781539414
203.01364660263062,404.75697583176304,28.47720688473822,30.369463967000225,1023.6348690985036,-86.0392674885119,0.3180717595980533
203.2607593536377,417.7413135814453,28.46790447507066,30.397061621250074,1023.6386318189999,-86.07016545574002,-0.1250359081116091
203.50625205039978,417.83398994901825,28.459743282146757,30.418876516753713,1023.6365975808825,-86.04172270964233,0.11586277185685308
203.75388884544373,413.23611590295224,28.449671225147295,30.43489561526904,1023.6281748393004,-86.06981162290066,-0.11342841224604558
203.99911952018738,406.34463177302524,28.43683264885892,30.451312501229506,1023.6130618464734,-85.99707812700454,0.29658235784261927
204.2455451488495,402.99684670619,28.43020626773326,30.482260348209564,1023.6159829098413,-85.99667956918618,0.0016173663420990703
204.4901728630066,401.56494611958396,28.421254383590696,30.51288488569309,1023.6115114442948,-85.98479424433427,0.0485849782980535
204.73529171943665,395.2721712144609,28.405064932578192,30.538578674693763,1023.6125907371796,-86.02387697132221,-0.15944460420293624
204.98894929885864,393.74163353869915,28.389133501283276,30.57944264657924,1023.6064399087396,-86.00032507901093,0.092850291124716
205.23412108421326,397.4167709741198,28.374762271089867,30.61717263801944,1023.6169972075859,-85.97023815657346,0.12272225470826459
205.48888754844666,397.9839747568865,28.362901630992035,30.651008646306767,1023.6167977129667,-85.9241608712137,0.18085511939297552
205.73444628715515,396.198428074057,28.355617103506816,30.681970989258687,1023.6121693188654,-85.9607245299733,-0.14889869100237627
205.98011183738708,395.7690821450301,28.35167242338569,30.67310503017587,1023.6148360136523,-85.97343115800652,-0.051724735736124516
206.23471069335938,394.777037506018,28.34056210102267,30.714033930617962,1023.6129313877631,-86.03399612485147,-0.23787008166067705
206.48248934745789,393.78214279871395,28.3310814142485,30.72035063641939,1023.6114939521651,-86.08617142043533,-0.21076262709818494
206.73708605766296,390.6358736646836,28.321365454987234,30.73286553218264,1023.6229987290045,-86.01773502144586,0.26793425863552905
206.9831244945526,388.6167792635899,28.308786774421048,30.735669386545297,1023.6201050190317,-85.94091188824287,0.3122524758565055
207.23007345199585,386.96278314571856,28.302350076573784,30.74414061133713,1023.614738406686,-85.88759713214722,0.2158836165376766
207.4781219959259,387.69263150446886,28.297652292633902,30.762919511949626,1023.6173660169727,-85.86433238763257,0.09379172591732239
207.73403763771057,381.71236991319245,28.287364209140357,30.77045313725357,1023.6199500250049,-85.95129325437222,-0.3398044418530566
207.97957015037537,369.9929157756517,28.272996080243793,30.76672716483852,1023.6194970424231,-85.93648938100787,0.06029362753276583
208.2281849384308,363.90507507122356,28.258341164696244,30.75928473064129,1023.6233505629954,-85.99862275413885,-0.24991633417859058
208.4739637374878,360.7147645200313,28.24764536561832,30.73341793952133,1023.6286538113252,-86.01737854101054,-0.07631202493737517
208.7195463180542,355.44308874738505,28.23983910310223,30.720963895298343,1023.6290051265936,-86.01215162242143,0.021283462108110746
208.96782898902893,356.35912155816277,28.224538541802488,30.713512226585244,1023.6248123141387,-86.01245114832051,-0.0012094882253670424
209.21352791786194,354.0809181246084,28.20925586114276,30.70665832888898,1023.6228810655019,-86.02308832192114,-0.043288991913608244
209.45915055274963,350.4693528990022,28.193986230557076,30.690732510632596,1023.628444382463,-85.99794756143604,0.10235433256395574
209.70691537857056,352.0924915176479,28.1828417855271,30.677535018123343,1023.6297156035436,-85.95903659322471,0.15705192062225956
209.95232105255127,351.3428405923452,28.174708081549834,30.67098742086087,1023.6292488309961,-85.95997527915614,-0.0038264093495931893
210.2001976966858,348.71221236853813,28.167399861214143,30.652073146083033,1023.630717255141,-86.0178207698494,-0.23328032879090188
210.44555139541626,347.02402661843865,28.1578975760745,30.639972133497377,1023.6318213959107,-86.04385111169756,-0.10609044958590191
210.69207429885864,344.14935834454894,28.146846731252076,30.650124615192958,1023.6277119962664,-86.01979005833154,0.09764258487162902
210.93967390060425,344.45410715654253,28.131921905737805,30.635658067033148,1023.627699019037,-86.06116594125602,-0.16703774622688927
211.18562173843384,346.79922281681814,28.116913453507085,30.61729413180147,1023.6334326020452,-86.10424357619003,-0.17514540125304753
211.4328453540802,342.57206192852806,28.10870340190389,30.55982005220299,1023.6320396249862,-86.03930890935716,0.26275847937654145
211.67812514305115,346.30794967686404,28.10271134674109,30.566730121393956,1023.6295769708476,-85.98697190567285,0.21329340241856226
211.92450785636902,342.61504867914795,28.09279776956362,30.573412564319188,1023.6335223779232,-86.0458282409697,-0.23889516440856
212.17335772514343,338.45386956978354,28.082818632815695,30.575174045752494,1023.63782715697,-86.08793030082393,-0.16918464140824535
212.41887831687927,336.49997951336695,28.072791647822513,30.57340822002333,1023.6397398240716,-86.06902147609334,0.07701231294460349
212.6655411720276,331.6635096646679,28.05861408004453,30.575427217912708,1023.64518412353,-86.12566051256827,-0.22962237330820312
212.91017270088196,327.4849690404157,28.046894783257592,30.578538490627643,1023.6448703301525,-86.17739752601788,-0.21148852553033237
213.1578266620636,325.1616797937423,28.03422586625618,30.57454664708727,1023.6506829882562,-86.26528984939496,-0.3549075861279917
213.41176009178162,324.02898407531285,28.022182996968432,30.579630617063998,1023.6530427303435,-86.27527425238644,-0.03933393515239669
213.65683388710022,321.5107973244681,28.006534148560476,30.584914688007053,1023.6558296556249,-86.28008430856993,-0.0196192215367055
213.91176462173462,318.10348219103906,27.993741046745154,30.580935418437292,1023.6594226123186,-86.28247746815165,-0.009391213413398982
214.1571831703186,314.48383321783547,27.98714785488117,30.584421303966735,1023.6606800980728,-86.27790928810151,0.018606386517630826
214.40216708183289,314.6687538746681,27.97822019371507,30.580639408598838,1023.6617332257127,-86.25674880501802,0.0864088802814635
214.66028547286987,313.71265259794757,27.97170439567048,30.55125823952124,1023.6645834163952,-86.37831829627385,-0.4708047210275883
214.90586733818054,307.00870315939164,27.95734567184906,30.484378994992227,1023.6646975206705,-86.49820649705697,-0.48819250916483675
215.15101528167725,299.4821762272538,27.94269762053718,30.416819184116896,1023.6678143908688,-86.54936514039656,-0.208677062574281
215.39661383628845,291.4277664151064,27.92514739621197,30.354923548620032,1023.6671928477035,-86.58941373709726,-0.16306242915830577
215.64253163337708,283.3928493300157,27.913710361021366,30.303522063452494,1023.6706205082331,-86.64437187815905,-0.2235639026142868
215.89371037483215,274.2956688464767,27.902619337906074,30.24879945300894,1023.6748441365926,-86.7025367719953,-0.23149654681049095
216.14920687675476,260.93421317282576,27.89040896254116,30.190080388229486,1023.6773523562025,-86.64409247738143,0.22874344229241322
216.39459085464478,250.9265698557577,27.870469434937945,30.100194133521484,1023.6854939128519,-86.62829077462992,0.06439375646831416
216.63950657844543,246.65378592681463,27.851801033538294,30.012598152436404,1023.684931516025,-86.59012241860071,0.15584220896146636
216.89409589767456,247.13607730869478,27.83817601674247,29.92835097307999,1023.6894943106455,-86.58776744969234,0.009250199485194214
217.13913369178772,242.07172060988012,27.82274433481725,29.85906630418497,1023.6956120207996,-86.57859242103636,0.03744153540907103
217.38684153556824,235.5973899075812,27.81559727866399,29.791087791544133,1023.6898558599245,-86.52316109637799,0.22378693440076702
217.632000207901,229.65124933932063,27.81175293114054,29.728921744671656,1023.6842609714554,-86.47006233156053,0.21667429897928853
217.87719106674194,223.68581322195067,27.81031904499455,29.6740745269099,1023.6844962656614,-86.45297448133174,0.06966331486186446
218.12427186965942,220.93231245745758,27.809272532098017,29.621527522434842,1023.6842033894203,-86.45201141372485,0.003897753937749117
218.37198638916016,219.8817893234472,27.805764967134465,29.581602978642977,1023.6825958228658,-86.48696799071152,-0.1411790240633723
218.61918425559998,219.92413919311744,27.80594876666118,29.5492467075546,1023.6726216060755,-86.49194875936715,-0.020140347968669786
218.8643901348114,219.23480176242,27.803339137577197,29.520946635459286,1023.6746338448709,-86.50979468612789,-0.07278027915298997
219.10957789421082,215.2098489892507,27.80280640301434,29.50022118620367,1023.6759388589248,-86.5049896354741,0.019597356638277646
219.3644564151764,213.34338115292272,27.80104570298951,29.478907231758207,1023.677683084382,-86.53352173127817,-0.1119465184795526
219.61021828651428,210.71255926919696,27.79976066701363,29.455519581657743,1023.6746373193592,-86.59000553505292,-0.2298269766861951
219.86561274528503,208.3077341003194,27.794707130448877,29.42908077323212,1023.6772236800563,-86.55990994147002,0.11783722969904487
220.11108660697937,205.33142547352338,27.788275064152195,29.39877042657971,1023.6869834170054,-86.50995646428501,0.203506453470945
220.35691738128662,204.13791708042322,27.786324434547552,29.37818629545005,1023.6865355117276,-86.49630045382236,0.0555488351078308
220.61232495307922,203.01373453391213,27.78352889263425,29.355295691858416,1023.6891595514235,-86.51588556397137,-0.07670821396675463
220.85829281806946,202.65055646367904,27.780116696720967,29.337123262063855,1023.6805528881135,-86.44713740077819,0.2794020083503519
221.10629057884216,203.13400482517292,27.77899821374319,29.31599301115159,1023.6817045620242,-86.38950281598542,0.23240341594679625
221.35197615623474,202.01122387371905,27.7740662348495,29.29914304760414,1023.6777616487527,-86.35511047586222,0.14004484263065056
221.59781002998352,201.64894526650454,27.76909477367735,29.280442152207144,1023.6741984991793,-86.36135985690309,-0.025409622126721036
221.84318685531616,200.6999405735998,27.764041731724394,29.255815406296907,1023.6757789941344,-86.34674149666851,0.05957607235092982
222.098402261734,200.80743913440617,27.760353800443877,29.23158416041215,1023.6804054198076,-86.34758005172219,-0.0032856327071437573
222.3442153930664,200.5181679525982,27.752174638654104,29.206142268174414,1023.6721357044594,-86.35358484055288,-0.024428101254614504
222.58967208862305,200.69078793080544,27.74894890225656,29.17809679884554,1023.6701177736819,-86.3999530743022,-0.18890614771335582
222.8355188369751,200.4433079256782,27.743850844557855,29.154590492305516,1023.6636982404424,-86.32162471742949,0.3186089102094606
223.1408064365387,200.2844895056866,27.726411188680828,29.13293339050973,1023.660782530765,-86.28000631034405,0.13747239791340657
223.38842630386353,200.5408265563279,27.717798625212115,29.11398051426309,1023.662183045851,-86.32997540223901,-0.19975063952382566
223.63414406776428,199.63055620974802,27.712884686278024,29.090708086194777,1023.6649002303129,-86.33959528807738,-0.039150447892730596
223.87974786758423,200.4794273831001,27.710670165485148,29.06417273108689,1023.665652853451,-86.35314571141369,-0.055171665627508776
224.12720155715942,201.0241840330722,27.707682024227374,29.046416170655487,1023.6566101710832,-86.35152850261926,0.00653517942455345
224.37306451797485,203.52332290663225,27.70824492191916,29.024053309829178,1023.6574428453208,-86.36569071750947,-0.05760474891080669
224.62885904312134,204.76886879202314,27.70591197527604,28.998217862988916,1023.6586781486204,-86.35321660222768,0.04876342723998987
224.87454080581665,205.56818843581868,27.704209288660525,28.977862535754372,1023.6560018750616,-86.24303922963958,0.44847218000685884
225.11995553970337,204.28985791930003,27.702966593411062,28.96461663494948,1023.6525167165495,-86.30205552077035,-0.24047177419289376
225.37438821792603,204.54427169512815,27.69931584597588,28.950229130056623,1023.6637701367835,-86.27245471321075,0.11634010439795976
225.61961913108826,205.42405494897304,27.69248294471293,28.935082489402795,1023.655888357804,-86.26484725297684,0.031021620136775584
225.86776161193848,205.63039162311696,27.69029253308322,28.938187686232467,1023.6502988786606,-86.29246903566624,-0.1113108884003666
226.1134877204895,205.0462914828931,27.68869387476183,28.92479488853803,1023.6514676050679,-86.30630313768805,-0.056301054178068154
226.3591754436493,205.38796477823905,27.687527103916626,28.919666124532874,1023.6513915622675,-86.34822829107225,-0.17064042842818564
226.60684418678284,205.24897345973724,27.685303656449673,28.908130438817345,1023.6530555218332,-86.3661760721124,-0.07246687980514277
226.8529508113861,205.87629197217404,27.68368088712769,28.90443109070962,1023.6510183973395,-86.41628447894752,-0.20361748069346328
227.1006236076355,206.27886887904566,27.67832809309311,28.893940294551683,1023.6504606303113,-86.30413184584927,0.4528170860767229
227.34673738479614,205.82070442273522,27.67442138961784,28.887856923937743,1023.6496689081567,-86.31298418313524,-0.035967255689326065
227.59222745895386,207.31796869844973,27.674313880381177,28.883379914714865,1023.6517393207054,-86.31695438300399,-0.016179225531858
227.83977508544922,208.6370842833498,27.670119754392402,28.878576224519115,1023.655572882319,-86.20115243024233,0.46760570636000925
228.0854470729828,211.27490457239773,27.668430584606277,28.87668064901198,1023.6596253224209,-86.27368845478958,-0.29526417386629905
228.34660148620605,210.10164521996055,27.663082093490548,28.873872348752577,1023.656870120721,-86.30650038705882,-0.12563855682871228
228.59185409545898,210.06523005050664,27.65643475644705,28.86077314771395,1023.660734828062,-86.26275675435659,0.17844133422696165
228.83759379386902,208.9670881826673,27.65432701282508,28.84327199978216,1023.6485530339304,-86.23197843497174,0.12519468988215707
229.09237360954285,210.05365179883935,27.65416057624903,28.835367750454488,1023.6492535616416,-86.25439043816492,-0.08798930178900903
229.33987736701965,198.928445981425,27.648551555494237,28.831209311683114,1023.661376891229,-86.3090996999765,-0.22097541156242967
229.58550810813904,174.59256602450762,27.64445784653887,28.85016142432401,1023.6578467217205,-86.32218256757122,-0.05326363064767249
229.8270902633667,157.5421689945094,27.6428419655008,28.865492701908252,1023.6623765659187,-86.26921842389919,0.21922890600560432
230.07224774360657,146.2419481939175,27.637546963722578,28.850049475817023,1023.6650790246114,-86.2892402532803,-0.08170151651198976
230.31808471679688,137.91534432362232,27.632310552553204,28.837242447315436,1023.6639860043854,-86.35256018518372,-0.2574808924204556
230.57349944114685,132.57180931805163,27.62711690337574,28.824823635924734,1023.6610284989999,-86.35677891418513,-0.016517496051889336
230.81910610198975,129.1426361760913,27.619210689745618,28.812725630742385,1023.6579640812477,-86.3918795789162,-0.14290942335896495
231.0648169517517,127.30024783884475,27.61618416286688,28.8038959768113,1023.6586537744981,-86.4265085827497,-0.140932869097695
231.32077264785767,124.68487879138485,27.611231496998005,28.798987458867035,1023.6585531470797,-86.32656844701782,0.390466366779645
231.5666024684906,122.28997036321073,27.611732485619164,28.793869257407838,1023.6614059817881,-86.29964828037856,0.10950775217049342
231.81290435791016,121.11131357717434,27.60935435502542,28.796351518173857,1023.6596329309116,-86.2849877251765,0.05959169751800306
232.05843901634216,120.35491950657284,27.60624680417081,28.795091589655808,1023.6592677783057,-86.22711539940074,0.23541735606410763
232.30388379096985,118.79473662879914,27.605350664496687,28.80042708042964,1023.6562145814937,-86.23473310739357,-0.03103809077912735
232.55199885368347,113.13615267334269,27.604696622522233,28.801400032238586,1023.6590951614676,-86.23845396868482,-0.015002094043026977
232.79764246940613,109.14654168305918,27.60005084812464,28.8051057364938,1023.6453462325601,-86.25834846318463,-0.08095421572498347
233.05267095565796,105.15320875140519,27.5952882715261,28.804664221520785,1023.645227189809,-86.24552535461753,0.05029801128716204
233.29794692993164,104.38180541751015,27.59044044756676,28.817039124633563,1023.6536399681974,-86.18765288985522,0.23587270180161135
233.54357171058655,108.54411157055972,27.588274180377507,28.818092877035706,1023.6595383406885,-86.15941408856715,0.11496712099845277
233.7914423942566,111.57349760721682,27.586693143726006,28.82043499512163,1023.657280615906,-86.17447200129499,-0.06077554829716972
234.03747034072876,114.59235587380405,27.58279545992028,28.828512203551117,1023.6536127015761,-86.18814356367582,-0.055544330007534615
234.28591012954712,116.88794288464767,27.584066420646817,28.804482452278382,1023.6520269500169,-86.17127709628043,0.06789125174168605
234.53194189071655,118.36111847242081,27.583622136424623,28.82319834922271,1023.6521005519954,-86.14746231735091,0.09683204919542909
234.77747082710266,119.6647753241737,27.58329787834489,28.846295782030626,1023.6533058695529,-86.16325507198765,-0.06429732048661517
235.028888463974,119.78487210177018,27.58306122059965,28.86319024096106,1023.645138465648,-86.13010255480411,0.13185395963070204
235.27428126335144,119.86194329972069,27.58563227144119,28.884921271560962,1023.6457022960221,-86.1467501961273,-0.06784296499813669
235.5229971408844,119.55314558811975,27.59030527583881,28.900781529253926,1023.6496443754282,-86.17692116303448,-0.12130847131660859
235.76854586601257,119.35497699414276,27.58680363911812,28.924940431635452,1023.6608814906875,-86.24611411646028,-0.2817844453669238
236.01670169830322,119.22780379899433,27.585619878322653,29.01638768346532,1023.6505278642774,-86.2557707608298,-0.03891363052155809
236.26386547088623,118.78793379414918,27.58064025681922,29.018715709879615,1023.6408115468648,-86.28314692375791,-0.11076208258157863
236.50962734222412,118.50565054813386,27.58249345905135,29.02666992611056,1023.640524276442,-86.22527484175068,0.2356051081105039
236.76526498794556,117.96623984224973,27.579730346148384,29.032621319450158,1023.6443321942993,-86.24324165853585,-0.07017750721657393
237.01061582565308,117.26181953531996,27.57908559237367,29.038464768881603,1023.6495958727961,-86.19883151110083,0.18118823497733896
237.25712871551514,117.16802070494977,27.5758712488095,29.052239604012037,1023.6460065948,-86.18674753137124,0.04897121424014185
237.5124363899231,116.39131087657836,27.57764094116651,29.05124667975451,1023.6457091510878,-86.16277474020544,0.09401995790143007
237.75887322425842,116.25112079301822,27.576188766113354,29.052131360112543,1023.6461188072454,-86.18977054218354,-0.10950795784424878
238.00497102737427,115.80289729856612,27.579244566211763,29.051131165519028,1023.6498690279067,-86.20831929536676,-0.07537183509404527
238.25329661369324,115.15699569433167,27.57873104890453,29.048791757946777,1023.6503858590813,-86.20268253002499,0.022698983081186973
238.49901843070984,115.10075079845913,27.578356261487748,29.04393853618507,1023.6515296091297,-86.2024034734851,0.0011356791444425156
238.74881529808044,114.70639849278284,27.579454612233153,29.032605160937557,1023.6567065973501,-86.25838272399034,-0.2240928866928506
239.00429105758667,114.09506831616753,27.57888434968846,29.02740609940857,1023.6508942148967,-86.21237655953854,0.18007816631592508
239.24990582466125,113.70275180278573,27.575724373085794,29.02993980889923,1023.6420077850719,-86.23632277066045,-0.09749859397800366
239.49593567848206,113.45098564996107,27.57616185781853,29.030216127692906,1023.6524420111734,-86.23846026872422,-0.00868767593146392
239.7486274242401,113.28941662712863,27.573737379306294,29.03360011219121,1023.6502661681525,-86.20934107515322,0.11523842194855544
239.99409413337708,112.82747336022634,27.57196788872469,29.045470649425276,1023.6472848636001,-86.25462142649744,-0.1844617058128666
240.24924087524414,112.53102476536931,27.570676437015553,29.052597854370156,1023.6505198423871,-86.27463820890311,-0.07845511910452897
240.49530172348022,112.34078112358614,27.569733879007973,29.067236701808543,1023.6487010002546,-86.26392981867984,0.0435185602027662
240.74105167388916,111.8604361370246,27.5704178459146,29.07481145156505,1023.6530865510658,-86.25994922085596,0.016197442082234084
240.9963800907135,111.91043594736358,27.569545147899277,29.080303467995904,1023.6485542446516,-86.2672085157426,-0.028432188595074463
241.24204802513123,111.5842653776797,27.570280101687292,29.0859209780675,1023.6437132955283,-86.26100203791414,0.025274479722443722
241.48985195159912,111.73320545302734,27.569444616130625,29.148177969582367,1023.6463575698888,-86.20162938973826,0.23949595472062715
