2021-08-21 18:03:52.6   [INFO   ]: initialize start
2021-08-21 18:03:52.9   [INFO   ]: Bluetooth initialized
2021-08-21 18:03:52.364 [INFO   ]: Air initialized
2021-08-21 18:03:52.367 [INFO   ]: Cds initialized
2021-08-21 18:03:52.371 [INFO   ]: Motor initialized
2021-08-21 18:03:52.376 [INFO   ]: initialize finished
2021-08-21 18:03:58.240 [INFO   ]: init completed
2021-08-21 18:04:00.678 [INFO   ]: light check: 0/3, vel check: 1/3, not yet
2021-08-21 18:04:00.701 [INFO   ]: cds aborted
2021-08-21 18:04:00.755 [INFO   ]: log saved
2021-08-21 18:04:00.759 [INFO   ]: motor aborted
2021-08-21 18:04:00.763 [INFO   ]: abort completed
2021-08-21 18:04:03.219 [INFO   ]: init completed
2021-08-21 18:04:03.474 [INFO   ]: cds: 405.167 temperature: 27.535 humidity: 79.170 pressure: 1014.016 altitude: -6.235 altvel: 0.019
2021-08-21 18:04:04.161 [INFO   ]: cds: 405.040 temperature: 27.538 humidity: 79.153 pressure: 1013.997 altitude: -6.161 altvel: -0.000
2021-08-21 18:04:04.852 [INFO   ]: cds: 412.044 temperature: 27.556 humidity: 79.127 pressure: 1013.988 altitude: -6.169 altvel: 0.017
2021-08-21 18:04:04.888 [INFO   ]: cds aborted
2021-08-21 18:04:04.931 [INFO   ]: log saved
2021-08-21 18:04:04.935 [INFO   ]: motor aborted
2021-08-21 18:04:04.938 [INFO   ]: abort completed
2021-08-21 18:04:10.22  [INFO   ]: init completed
2021-08-21 18:04:10.289 [INFO   ]: light check: 0/3, vel check: 0/3, not yet
2021-08-21 18:04:10.634 [INFO   ]: light check: 0/3, vel check: 1/3, not yet
2021-08-21 18:04:10.978 [INFO   ]: light check: 0/3, vel check: 2/3, not yet
2021-08-21 18:04:11.322 [INFO   ]: light check: 0/3, vel check: 3/3, not yet
2021-08-21 18:04:11.667 [INFO   ]: light check: 0/3, vel check: 4/3, not yet
2021-08-21 18:04:12.9   [INFO   ]: light check: 0/3, vel check: 0/3, not yet
2021-08-21 18:04:12.363 [INFO   ]: light check: 0/3, vel check: 1/3, not yet
2021-08-21 18:04:12.707 [INFO   ]: light check: 0/3, vel check: 2/3, not yet
2021-08-21 18:04:13.50  [INFO   ]: light check: 0/3, vel check: 0/3, not yet
2021-08-21 18:04:13.397 [INFO   ]: light check: 0/3, vel check: 0/3, not yet
2021-08-21 18:04:13.740 [INFO   ]: light check: 1/3, vel check: 0/3, not yet
2021-08-21 18:04:14.82  [INFO   ]: light check: 2/3, vel check: 1/3, not yet
2021-08-21 18:04:14.426 [INFO   ]: light check: 3/3, vel check: 0/3, not yet
2021-08-21 18:04:14.770 [INFO   ]: light check: 4/3, vel check: 0/3, not yet
2021-08-21 18:04:15.115 [INFO   ]: light check: 5/3, vel check: 0/3, not yet
2021-08-21 18:04:15.458 [INFO   ]: light check: 6/3, vel check: 1/3, not yet
2021-08-21 18:04:15.800 [INFO   ]: light check: 7/3, vel check: 2/3, not yet
2021-08-21 18:04:16.144 [INFO   ]: light check: 8/3, vel check: 3/3, released
2021-08-21 18:04:16.147 [INFO   ]: deploy motor rotate start
2021-08-21 18:04:16.831 [INFO   ]: deploy motor rotated 0.5 s
2021-08-21 18:04:20.992 [INFO   ]: cds aborted
2021-08-21 18:04:21.36  [INFO   ]: log saved
2021-08-21 18:04:21.47  [INFO   ]: motor aborted
2021-08-21 18:04:21.54  [INFO   ]: abort completed
2021-08-21 18:06:03.896 [INFO   ]: init completed
2021-08-21 18:06:04.156 [INFO   ]: light check: 0/3, vel check: 1/3, not yet
2021-08-21 18:06:04.499 [INFO   ]: light check: 0/3, vel check: 2/3, not yet
2021-08-21 18:06:04.841 [INFO   ]: light check: 0/3, vel check: 3/3, not yet
2021-08-21 18:06:05.183 [INFO   ]: light check: 0/3, vel check: 4/3, not yet
2021-08-21 18:06:05.535 [INFO   ]: light check: 0/3, vel check: 5/3, not yet
2021-08-21 18:06:05.886 [INFO   ]: light check: 0/3, vel check: 6/3, not yet
2021-08-21 18:06:06.230 [INFO   ]: light check: 0/3, vel check: 7/3, not yet
2021-08-21 18:06:06.575 [INFO   ]: light check: 0/3, vel check: 0/3, not yet
2021-08-21 18:06:06.917 [INFO   ]: light check: 0/3, vel check: 0/3, not yet
2021-08-21 18:06:07.261 [INFO   ]: light check: 0/3, vel check: 0/3, not yet
2021-08-21 18:06:07.603 [INFO   ]: light check: 0/3, vel check: 1/3, not yet
2021-08-21 18:06:07.947 [INFO   ]: light check: 0/3, vel check: 2/3, not yet
2021-08-21 18:06:08.291 [INFO   ]: light check: 0/3, vel check: 3/3, not yet
2021-08-21 18:06:08.632 [INFO   ]: light check: 0/3, vel check: 4/3, not yet
2021-08-21 18:06:08.975 [INFO   ]: light check: 0/3, vel check: 5/3, not yet
2021-08-21 18:06:09.316 [INFO   ]: light check: 0/3, vel check: 6/3, not yet
2021-08-21 18:06:09.660 [INFO   ]: light check: 0/3, vel check: 0/3, not yet
2021-08-21 18:06:10.3   [INFO   ]: light check: 0/3, vel check: 0/3, not yet
2021-08-21 18:06:10.347 [INFO   ]: light check: 1/3, vel check: 0/3, not yet
2021-08-21 18:06:10.694 [INFO   ]: light check: 2/3, vel check: 0/3, not yet
2021-08-21 18:06:11.36  [INFO   ]: light check: 3/3, vel check: 0/3, not yet
2021-08-21 18:06:11.380 [INFO   ]: light check: 0/3, vel check: 0/3, not yet
2021-08-21 18:06:11.722 [INFO   ]: light check: 0/3, vel check: 0/3, not yet
2021-08-21 18:06:12.65  [INFO   ]: light check: 0/3, vel check: 0/3, not yet
2021-08-21 18:06:12.407 [INFO   ]: light check: 0/3, vel check: 1/3, not yet
2021-08-21 18:06:12.751 [INFO   ]: light check: 0/3, vel check: 0/3, not yet
2021-08-21 18:06:13.101 [INFO   ]: light check: 0/3, vel check: 0/3, not yet
2021-08-21 18:06:13.443 [INFO   ]: light check: 0/3, vel check: 1/3, not yet
2021-08-21 18:06:13.786 [INFO   ]: light check: 0/3, vel check: 0/3, not yet
2021-08-21 18:06:14.128 [INFO   ]: light check: 0/3, vel check: 0/3, not yet
2021-08-21 18:06:14.471 [INFO   ]: light check: 0/3, vel check: 1/3, not yet
2021-08-21 18:06:14.812 [INFO   ]: light check: 0/3, vel check: 2/3, not yet
2021-08-21 18:06:15.164 [INFO   ]: light check: 0/3, vel check: 3/3, not yet
2021-08-21 18:06:15.509 [INFO   ]: light check: 0/3, vel check: 4/3, not yet
2021-08-21 18:06:15.852 [INFO   ]: light check: 0/3, vel check: 0/3, not yet
2021-08-21 18:06:16.194 [INFO   ]: light check: 0/3, vel check: 0/3, not yet
2021-08-21 18:06:16.536 [INFO   ]: light check: 1/3, vel check: 0/3, not yet
2021-08-21 18:06:16.879 [INFO   ]: light check: 2/3, vel check: 1/3, not yet
2021-08-21 18:06:17.221 [INFO   ]: light check: 3/3, vel check: 2/3, not yet
2021-08-21 18:06:17.564 [INFO   ]: light check: 4/3, vel check: 3/3, released
2021-08-21 18:06:17.568 [INFO   ]: deploy motor rotate start
2021-08-21 18:06:18.253 [INFO   ]: deploy motor rotated 0.5 s
2021-08-21 18:06:23.78  [INFO   ]: cds aborted
2021-08-21 18:06:23.125 [INFO   ]: log saved
2021-08-21 18:06:23.129 [INFO   ]: motor aborted
2021-08-21 18:06:23.133 [INFO   ]: abort completed
2021-08-21 18:14:05.166 [INFO   ]: init completed
2021-08-21 18:14:05.423 [INFO   ]: cds: 621.776 temperature: 28.823 humidity: 73.754 pressure: 1014.037 altitude: -6.513 altvel: -0.000
2021-08-21 18:14:06.115 [INFO   ]: cds: 626.741 temperature: 30.124 humidity: 69.076 pressure: 1014.078 altitude: -6.815 altvel: -0.220
2021-08-21 18:14:06.810 [INFO   ]: cds: 630.267 temperature: 30.650 humidity: 67.161 pressure: 1014.091 altitude: -6.990 altvel: -0.051
2021-08-21 18:14:07.505 [INFO   ]: cds: 621.362 temperature: 30.848 humidity: 66.396 pressure: 1014.094 altitude: -7.065 altvel: -0.122
2021-08-21 18:14:08.195 [INFO   ]: cds: 612.306 temperature: 30.906 humidity: 66.093 pressure: 1014.092 altitude: -7.130 altvel: -0.319
2021-08-21 18:14:08.881 [INFO   ]: cds: 611.639 temperature: 30.911 humidity: 65.979 pressure: 1014.090 altitude: -7.049 altvel: 0.310
2021-08-21 18:14:09.572 [INFO   ]: cds: 612.258 temperature: 30.890 humidity: 65.960 pressure: 1014.096 altitude: -7.011 altvel: 0.138
2021-08-21 18:14:10.257 [INFO   ]: cds: 574.035 temperature: 30.857 humidity: 65.954 pressure: 1014.104 altitude: -7.189 altvel: -0.333
2021-08-21 18:14:10.944 [INFO   ]: cds: 535.752 temperature: 30.835 humidity: 65.989 pressure: 1014.117 altitude: -7.293 altvel: -0.248
2021-08-21 18:14:11.634 [INFO   ]: cds: 548.362 temperature: 30.803 humidity: 66.043 pressure: 1014.109 altitude: -7.116 altvel: 0.163
2021-08-21 18:14:12.322 [INFO   ]: cds: 480.560 temperature: 30.773 humidity: 66.077 pressure: 1014.113 altitude: -7.032 altvel: 0.097
2021-08-21 18:14:13.11  [INFO   ]: cds: 412.367 temperature: 30.744 humidity: 66.101 pressure: 1014.120 altitude: -7.127 altvel: 0.104
2021-08-21 18:14:13.698 [INFO   ]: cds: 442.262 temperature: 30.712 humidity: 66.140 pressure: 1014.120 altitude: -7.169 altvel: 0.032
2021-08-21 18:14:14.389 [INFO   ]: cds: 510.234 temperature: 30.687 humidity: 66.180 pressure: 1014.097 altitude: -7.087 altvel: 0.092
2021-08-21 18:14:15.79  [INFO   ]: cds: 516.614 temperature: 30.660 humidity: 66.219 pressure: 1014.082 altitude: -6.929 altvel: 0.185
2021-08-21 18:14:15.148 [INFO   ]: cds aborted
2021-08-21 18:14:15.195 [INFO   ]: log saved
2021-08-21 18:14:15.198 [INFO   ]: motor aborted
2021-08-21 18:14:15.202 [INFO   ]: abort completed
2021-08-21 18:14:48.657 [INFO   ]: init completed
2021-08-21 18:14:48.921 [INFO   ]: deploy motor rotate start
2021-08-21 18:14:49.614 [INFO   ]: deploy motor rotated 0.5 s
2021-08-21 18:14:53.464 [INFO   ]: cds aborted
2021-08-21 18:14:53.501 [INFO   ]: log saved
2021-08-21 18:14:53.504 [INFO   ]: motor aborted
2021-08-21 18:14:53.508 [INFO   ]: abort completed
2021-08-21 18:15:22.781 [INFO   ]: init completed
2021-08-21 18:15:23.38  [INFO   ]: deploy motor rotate start
2021-08-21 18:15:25.96  [INFO   ]: deploy motor rotated 2 s
2021-08-21 18:15:28.276 [INFO   ]: cds aborted
2021-08-21 18:15:28.317 [INFO   ]: log saved
2021-08-21 18:15:28.321 [INFO   ]: motor aborted
2021-08-21 18:15:28.325 [INFO   ]: abort completed
2021-08-21 18:15:51.739 [INFO   ]: init completed
2021-08-21 18:15:51.999 [INFO   ]: deploy motor rotate start
2021-08-21 18:15:52.699 [INFO   ]: deploy motor rotated 0.5 s
2021-08-21 18:15:54.767 [INFO   ]: cds aborted
2021-08-21 18:15:54.804 [INFO   ]: log saved
2021-08-21 18:15:54.808 [INFO   ]: motor aborted
2021-08-21 18:15:54.812 [INFO   ]: abort completed
2021-08-21 18:16:30.232 [INFO   ]: init completed
2021-08-21 18:16:30.490 [INFO   ]: deploy motor rotate start
2021-08-21 18:16:31.182 [INFO   ]: deploy motor rotated 0.5 s
2021-08-21 18:16:34.12  [INFO   ]: cds aborted
2021-08-21 18:16:34.48  [INFO   ]: log saved
2021-08-21 18:16:34.52  [INFO   ]: motor aborted
2021-08-21 18:16:34.56  [INFO   ]: abort completed
2021-08-21 18:16:41.640 [INFO   ]: init completed
2021-08-21 18:16:41.902 [INFO   ]: deploy motor rotate start
2021-08-21 18:16:43.976 [INFO   ]: deploy motor rotated 2 s
2021-08-21 18:16:46.754 [INFO   ]: cds aborted
2021-08-21 18:16:46.795 [INFO   ]: log saved
2021-08-21 18:16:46.799 [INFO   ]: motor aborted
2021-08-21 18:16:46.805 [INFO   ]: abort completed
2021-08-21 18:16:55.421 [INFO   ]: init completed
2021-08-21 18:16:55.677 [INFO   ]: deploy motor rotate start
2021-08-21 18:16:56.367 [INFO   ]: deploy motor rotated 0.5 s
2021-08-21 18:16:58.791 [INFO   ]: cds aborted
2021-08-21 18:16:58.828 [INFO   ]: log saved
2021-08-21 18:16:58.832 [INFO   ]: motor aborted
2021-08-21 18:16:58.835 [INFO   ]: abort completed
2021-08-21 18:17:04.225 [INFO   ]: init completed
2021-08-21 18:17:04.483 [INFO   ]: light check: 0/3, vel check: 0/3, not yet
2021-08-21 18:17:04.834 [INFO   ]: light check: 0/3, vel check: 0/3, not yet
2021-08-21 18:17:05.182 [INFO   ]: light check: 0/3, vel check: 0/3, not yet
2021-08-21 18:17:05.523 [INFO   ]: light check: 0/3, vel check: 1/3, not yet
2021-08-21 18:17:05.868 [INFO   ]: light check: 0/3, vel check: 2/3, not yet
2021-08-21 18:17:06.211 [INFO   ]: light check: 0/3, vel check: 0/3, not yet
2021-08-21 18:17:06.562 [INFO   ]: light check: 0/3, vel check: 1/3, not yet
2021-08-21 18:17:06.905 [INFO   ]: light check: 0/3, vel check: 0/3, not yet
2021-08-21 18:17:07.250 [INFO   ]: light check: 0/3, vel check: 0/3, not yet
2021-08-21 18:17:07.594 [INFO   ]: light check: 0/3, vel check: 1/3, not yet
2021-08-21 18:17:07.937 [INFO   ]: light check: 0/3, vel check: 2/3, not yet
2021-08-21 18:17:08.279 [INFO   ]: light check: 0/3, vel check: 0/3, not yet
2021-08-21 18:17:08.622 [INFO   ]: light check: 0/3, vel check: 1/3, not yet
2021-08-21 18:17:08.964 [INFO   ]: light check: 0/3, vel check: 0/3, not yet
2021-08-21 18:17:09.307 [INFO   ]: light check: 0/3, vel check: 1/3, not yet
2021-08-21 18:17:09.651 [INFO   ]: light check: 0/3, vel check: 0/3, not yet
2021-08-21 18:17:10.11  [INFO   ]: cds aborted
2021-08-21 18:17:10.55  [INFO   ]: log saved
2021-08-21 18:17:10.59  [INFO   ]: motor aborted
2021-08-21 18:17:10.63  [INFO   ]: abort completed
2021-08-21 18:17:16.10  [INFO   ]: init completed
2021-08-21 18:17:16.273 [INFO   ]: deploy motor rotate start
2021-08-21 18:17:18.354 [INFO   ]: deploy motor rotated 2 s
2021-08-21 18:17:29.415 [INFO   ]: cds aborted
2021-08-21 18:17:29.458 [INFO   ]: log saved
2021-08-21 18:17:29.462 [INFO   ]: motor aborted
2021-08-21 18:17:29.466 [INFO   ]: abort completed
2021-08-21 18:18:40.95  [INFO   ]: init completed
2021-08-21 18:18:40.354 [INFO   ]: deploy motor rotate start
2021-08-21 18:18:41.46  [INFO   ]: deploy motor rotated 0.5 s
2021-08-21 18:18:47.591 [INFO   ]: cds aborted
2021-08-21 18:18:47.632 [INFO   ]: log saved
2021-08-21 18:18:47.636 [INFO   ]: motor aborted
2021-08-21 18:18:47.639 [INFO   ]: abort completed
2021-08-21 18:19:59.949 [INFO   ]: init completed
2021-08-21 18:20:00.206 [INFO   ]: cds: 310.898 temperature: 27.671 humidity: 76.996 pressure: 1014.101 altitude: -7.069 altvel: -0.003
2021-08-21 18:20:00.913 [INFO   ]: cds: 299.323 temperature: 27.704 humidity: 77.277 pressure: 1014.135 altitude: -7.360 altvel: -0.394
2021-08-21 18:20:01.601 [INFO   ]: cds: 295.374 temperature: 27.740 humidity: 77.403 pressure: 1014.146 altitude: -7.356 altvel: 0.072
2021-08-21 18:20:02.288 [INFO   ]: cds: 294.336 temperature: 27.765 humidity: 77.464 pressure: 1014.139 altitude: -7.430 altvel: -0.046
2021-08-21 18:20:02.721 [INFO   ]: cds aborted
2021-08-21 18:20:02.759 [INFO   ]: log saved
2021-08-21 18:20:02.762 [INFO   ]: motor aborted
2021-08-21 18:20:02.766 [INFO   ]: abort completed
2021-08-21 18:20:31.678 [INFO   ]: init completed
2021-08-21 18:20:31.932 [INFO   ]: deploy motor rotate start
2021-08-21 18:20:32.621 [INFO   ]: deploy motor rotated 0.5 s
2021-08-21 18:20:42.257 [INFO   ]: cds aborted
2021-08-21 18:20:42.298 [INFO   ]: log saved
2021-08-21 18:20:42.302 [INFO   ]: motor aborted
2021-08-21 18:20:42.307 [INFO   ]: abort completed
