time,cds,temprature,relative_humidity,pressure,altitude,altvel
16.0710346698761,0.0,0,0,0,0,0
16.59076690673828,0.0,22.699609375,72.24457552593672,1010.4280685908118,23.59425085247481,0.0014808038809731988
16.93589735031128,0.0,22.696223958333334,72.24166412087625,1010.4228150369843,23.55982502430005,-0.09863642896587799
17.28509783744812,0.0,22.698494664634147,72.26080115727066,1010.422408747684,23.493020937058123,-0.1911803860601515
17.636236429214478,0.0,22.705328592192693,72.24506796500351,1010.4237141441905,23.48161449176736,-0.03248207359394579
17.987346649169922,0.0,22.712115953767498,72.23591044271339,1010.4113707141304,23.51277937290909,0.08876596560613717
18.33811092376709,0.0,22.718495443114747,72.2136835978166,1010.4188443727398,23.42162159410114,-0.2598661710662424
18.69617748260498,0.0,22.726290804981122,72.253943118082,1010.418335957248,23.43894518346681,0.04838327128694942
19.048223733901978,0.0,22.72220332181074,72.21906534968097,1010.4119646833749,23.408892759785633,-0.08536221214533733
19.39736008644104,0.0,22.732357801882568,72.21916882877275,1010.412366300447,23.495620396793875,0.24841892989404238
19.74714159965515,0.0,22.735247998394414,72.18044247980211,1010.4222059136429,23.59275123701637,0.2776765955941906
20.098068952560425,0.0,22.740741665151226,72.18608018067141,1010.418446323777,23.659241169722762,0.18947887732961696
20.449317693710327,0.0,22.736991699228163,72.16505731997671,1010.4191762593538,23.47842625503344,-0.514745957088535
20.79826521873474,0.0,22.734584925171024,72.09423645500718,1010.4276374789628,23.490137070614995,0.0335624095574585
21.15673518180847,0.0,22.729331861003025,72.06908490327837,1010.4274552437187,23.435078421887756,-0.15342429234266547
21.514749765396118,0.0,22.724141419972756,72.04425473562195,1010.4248012699979,23.47749436851863,0.11847657618876964
21.864782094955444,0.0,22.71899119666525,71.9835069261932,1010.4196856796469,23.54143005450712,0.18266012458459738
22.21366238594055,0.0,22.713866794824085,71.95716669785152,1010.4203090108113,23.491040815423812,-0.14463225455822415
22.563524961471558,0.0,22.71603607212666,71.92379060964065,1010.4248399692517,23.463762262189498,-0.07796402454798014
22.914796352386475,0.0,22.71742819015416,71.91028558688001,1010.4303971116572,23.460493428677683,-0.00930365596677784
23.264708995819092,0.0,22.72203009688648,71.87136104956004,1010.4320324922388,23.56462322497145,0.2975711500835824
23.62365412712097,0.0,22.723164059302437,71.86885431425331,1010.4259201195376,23.639687362473673,0.2091945764021108
23.983365297317505,0.0,22.72934960121393,71.82447101919078,1010.427116051977,23.635971000399245,-0.010330770657476774
24.33276391029358,0.0,22.733319125974806,71.82701994535557,1010.4252337420405,23.59687632888385,-0.11186918113958841
24.68289542198181,0.0,22.741324368606772,71.87373171640795,1010.427931528907,23.567669373323135,-0.08340954668894807
25.034259796142578,0.0,22.74646167248349,71.92439753385928,1010.4206821738691,23.614689648954485,0.13386194437186175
25.385083436965942,0.0,22.755216328521286,71.94056755846502,1010.4325535988082,23.744752983344053,0.37063482208888704
25.7341628074646,0.0,22.76083456276768,72.02079666951792,1010.4117918079744,23.738100531616173,-0.01906291304853736
26.092981100082397,0.0,22.764440022068754,72.0357674815237,1010.4049109000167,23.799598907190596,0.1713379091118854
26.451860427856445,0.0,22.774030905164068,72.08049736315313,1010.4070509064018,23.697419036751633,-0.2847416200328243
26.801291704177856,0.0,22.780185781792525,72.0539072618284,1010.4047867672485,23.874674884991062,0.5066977310279479
27.150996446609497,0.0,22.78413562727958,72.0530592403412,1010.397650742477,23.781954246894664,-0.26543747060845924
27.50875473022461,0.0,22.786670410722568,72.0364283984044,1010.4161097724261,23.667745472039613,-0.325744595731443
27.852526426315308,0.0,22.78829708881008,72.05831712986321,1010.4074560385156,23.64598681448213,-0.06206732175534872
28.20181179046631,0.0,22.796618104039986,72.03980260920555,1010.4173255760517,23.632023360696664,-0.039933622390024986
28.56009602546692,233.22567774159472,22.800138775857796,72.03200749969253,1010.4128595025479,23.601544140849523,-0.08507685101781025
28.91177272796631,383.2547486010434,22.806036693787355,72.05178274324578,1010.4145042946876,23.631631837081848,0.08554773886701825
29.26069402694702,478.4599964722244,22.809821637974387,72.03843354032362,1010.4131347093671,23.62247519047488,-0.026244754050544966
29.611499547958374,539.9155012073486,22.814069873976393,71.99691460674681,1010.4150608215696,23.637782065347487,0.04362985896486823
29.962451934814453,583.2949394483946,22.81861542399377,72.001178965773,1010.3903398831105,23.725390377193428,0.24965291891772542
30.313152551651,611.1333655791199,22.819713219589808,72.0077435693019,1010.3991065832889,23.799956433467393,0.21243511231224535
30.66200304031372,631.5062678121383,22.824056275043993,72.00442943784816,1010.3912806834243,23.795942437963102,-0.01151621889106254
31.0118465423584,646.7299690245579,22.82684339800698,72.04278155863902,1010.3982711012236,23.81582247751918,0.05682195918490581
31.368617057800293,656.1414064723936,22.832340538693092,72.04696054379694,1010.3891524114041,23.784938707720308,-0.08647609762646652
31.720245361328125,662.5393827842034,22.837687563837918,71.97429381112926,1010.3793225013665,23.886549836660812,0.28897371062328703
32.07149291038513,666.645235652854,22.837480423310137,72.0177013083207,1010.3804032938615,23.825267931779397,-0.17466335243614756
32.42225122451782,669.2801356520753,22.83916676916448,72.03508169957371,1010.373934747463,23.890296828258197,0.18518910651688075
32.77271103858948,670.612805212216,22.840248968851714,72.01749892080592,1010.3786512284438,23.977565086514314,0.24928836290498516
33.13335394859314,671.8262933842956,22.84458201574948,72.06368829392149,1010.375501462615,23.87956399701603,-0.2719947550549947
33.481987714767456,673.3215553722255,22.843724162356953,72.06319771881275,1010.381475566261,23.77208401032881,-0.3079914777539188
33.83213996887207,673.5646132956093,22.850450748316195,72.09749152341573,1010.3898195162008,23.869129306909024,0.2768438864130262
34.181538581848145,673.3623363086194,22.85294820721858,72.06036876654538,1010.3721341108698,23.9434244798379,0.21263249828987538
34.531769037246704,672.8742690138579,22.860008762724966,72.05889447879204,1010.3619972703281,23.9000273197481,-0.12391460006269055
34.88153266906738,672.5610555218678,22.862720544056252,72.05655218029563,1010.362426812752,23.955032263611475,0.15726136585018116
35.23109531402588,672.0017955647558,22.86628008591888,72.08748609510062,1010.3700921126208,23.935622438979067,-0.05552682165411885
35.588786602020264,670.9263795816038,22.87402222512557,72.07694420366866,1010.382059953796,23.9687052483691,0.09259025005745798
35.947399854660034,670.2362395147725,22.87353285419709,72.09674511850085,1010.3846620477862,23.851109057115604,-0.3275601483875546
49.571876525878906,670.2362395147725,22.87353285419709,72.09674511850085,1010.3846620477862,23.851109057115604,-0.3275601483875546
49.83707404136658,661.1951656830017,22.836763297524595,72.03968638665562,1010.3651090023568,23.941349940268797,0.006499149854050178
50.182368516922,655.3931249878312,22.845983666000265,71.98061567270898,1010.3708659517758,24.003690829281382,0.17845761996736426
50.53167104721069,650.2366790122446,22.862816427996556,71.91282286308856,1010.3741050546204,24.036445886458335,0.0937121075623483
50.88284778594971,647.2858264086026,22.880895832472536,71.85526688777631,1010.3761820051221,24.04514251585397,0.024762419943800927
51.241220235824585,644.6756239476899,22.89431743016312,71.86368667067018,1010.3731562883754,24.035542791901232,-0.02678978352410262
51.59274864196777,643.0005462763152,22.904749915606423,71.86117161737413,1010.3782629679728,23.985745608786562,-0.14150041957806384
51.941092014312744,641.5673202907079,22.915083437611198,71.81050183140003,1010.3802132864822,24.01957250119773,0.09721695424530305
52.288820028305054,640.6475583632422,22.92353417385831,71.79829675447108,1010.3915453103664,23.870185153327093,-0.4291313357504238
52.63780641555786,640.4155656779205,22.927138093156987,71.7495840580162,1010.3983252506669,23.81985862231644,-0.14436571981462334
52.9889280796051,639.9084285586873,22.92763160436697,71.7447672147925,1010.3841064846291,23.887814166510577,0.19352570792367407
53.33746075630188,639.9412347206872,22.927948311450344,71.67626704527602,1010.3863888626634,23.952618992395106,0.18595332778286408
53.69829988479614,643.1866059522848,22.93360938598407,71.638949580228,1010.3781513895224,23.880680049153256,-0.19934896590309795
54.05628442764282,643.4780105268615,22.93724233771461,71.65601195243693,1010.3827169349935,23.858861744367335,-0.06095208230049167
54.40508008003235,642.2319869288281,22.94146300588971,71.64447604403928,1010.3939080714613,23.860995033975886,0.00611571570720854
54.7536506652832,645.7314515505072,22.949629417903033,71.62915137086615,1010.3997627752203,23.839925463199737,-0.06046995632659674
55.10219621658325,648.3354640517834,22.954870150996964,71.64985191391361,1010.3891946879344,23.806162310852415,-0.09682835727700925
55.45124292373657,648.5735390854339,22.95823335179029,71.60398186246674,1010.3878703877425,23.761102638228014,-0.12910543819526338
55.800312519073486,648.7263219361712,22.960391660441672,71.59294338887196,1010.3855789984589,23.810288810949668,0.14074921950081618
56.150721311569214,648.8243691741427,22.96177673868139,71.61856689774872,1010.3875182225975,23.783992903560307,-0.07512673212584427
56.50935459136963,648.5290326774473,22.962665602157387,71.60651915894859,1010.3878930338221,23.73675457126511,-0.131704777632991
56.85794425010681,648.3395027162413,22.966874577005047,71.57630060533894,1010.3837742723559,23.713411318353117,-0.06696942666663555
57.20745778083801,648.2178732982835,22.97139493147381,71.5716001347251,1010.3970469891294,23.69938701009296,-0.040123142606291795
57.556326389312744,648.1398185399825,22.976115111457432,71.57471664050152,1010.4122354927292,23.746054391353262,0.1337824141256226
57.90468120574951,648.4479850591736,22.977324974512445,71.54208960316653,1010.4165246412897,23.635261317278818,-0.31801941908071696
